569
-14524.7320868800
Si     4.601340    14.108269     0.000000
Si     4.595297    42.281537     3.283154
Si    13.800181    14.099159     3.283572
Si    13.813388    42.301924     0.008296
Si     9.210713    28.199208     4.963128
Si     9.207279    56.419705     1.644341
Si     0.008240    28.194306     1.701199
Si     0.006995    56.420191     4.912208
Si     9.256412    18.760162     1.764341
Si     9.225845    46.971881     5.037128
Si    18.391963    18.756864     5.002047
Si     0.037578    46.975130     1.763465
Si     9.172061    37.642224     1.768865
Si     9.176353     9.431312     5.030374
Si    18.400169    37.641084     5.013252
Si    18.371181     9.432840     1.760854
Si    13.784248    32.891915     3.419527
Si    13.775648     4.663284     0.129168
Si     4.600266    32.929128     0.178874
Si     4.573679     4.665264     3.395671
Si     4.635082    23.499073     3.409704
Si     4.633223    51.742390     0.130355
Si    13.813880    23.460302     0.182720
Si    13.830830    51.741696     3.397605
Si     2.881528    14.966333     2.429268
Si     2.890212    43.140076     5.717203
Si    12.086901    14.938336     5.717532
Si    12.101355    43.152122     2.439167
Si     6.309117    13.255632     2.432055
Si     6.326145    41.463595     5.712635
Si    15.516492    13.272872     5.719773
Si    15.529404    41.447821     2.439279
Si    10.924631    29.042024     0.858546
Si    10.912765     0.838149     4.076634
Si     1.723692    29.053629     4.133172
Si     1.714051     0.837263     0.807221
Si     7.498835    27.351509     0.857437
Si     7.493318    55.570229     4.076323
Si    16.690057    27.343673     4.133907
Si    16.693121    55.569377     0.807163
Si    10.886680    19.553949     4.196814
Si    10.841591    47.799863     0.942850
Si     1.634292    19.597934     0.912924
Si     1.646804    47.797684     4.207656
Si     7.546551    36.836410     4.200759
Si     7.564167     8.605201     0.936319
Si    16.777584    36.817000     0.922249
Si    16.760567     8.612995     4.205039
Si    12.157589    33.707527     5.860097
Si    12.163995     5.489167     2.572294
Si     2.951571    33.694128     2.629792
Si     2.961719     5.492090     5.838309
Si    15.442493    50.916523     5.841450
Si    15.471024    22.714718     2.632777
Si     6.243555    50.917990     2.574547
Si     6.266938    22.688651     5.850451
Si     7.451574    18.048022     4.198856
Si     7.436357    46.246385     0.945902
Si    16.611870    18.071057     0.907015
Si    16.642306    46.249206     4.207195
Si    10.971538    38.357028     4.205316
Si    10.970986    10.155355     0.937495
Si     1.783405    38.344658     0.913688
Si     1.764348    10.163177     4.204747
Si     6.378282    32.164235     2.617663
Si     6.366428     3.939820     5.840081
Si    15.565190    32.148113     5.866893
Si    15.568228     3.939047     2.574013
Si    12.036904    24.222477     2.621266
Si    12.038006    52.468878     5.841197
Si     2.857526    24.251775     5.856508
Si     2.839090    52.468342     2.573729
Al    14.532857    43.976153     4.041899
Al    14.513511    15.794755     0.793771
Al     5.317589    43.976392     0.784211
Al     5.319238    15.789027     4.034812
Al    13.095870    40.621405     4.043653
Al    13.095480    12.420803     0.794304
Al     3.892059    40.611457     0.783461
Al     3.873992    12.437286     4.033985
Al     8.486289    29.877218     2.462249
Al     8.479097     1.666221     5.678335
Al    17.681328    29.874453     5.731815
Al    17.679188     1.665300     2.409333
Al     9.935656    26.516324     2.463723
Al     9.926154    54.742961     5.679471
Al     0.735545    26.523028     5.732204
Al     0.727983    54.742306     2.410299
Al    17.562266    48.662967     5.807399
Al    17.584244    20.483548     2.504038
Al     8.359009    48.662189     2.543536
Al     8.408043    20.455442     5.805732
Al    10.026879    35.949370     5.812151
Al    10.046272     7.742785     2.537500
Al     0.836883    35.933901     2.521262
Al     0.845821     7.749557     5.805692
Al     5.457200    34.574375     4.224828
Al     5.446219     6.352164     0.901976
Al    14.647872    34.569422     0.921331
Al    14.646378     6.353502     4.172974
Al    12.967883    21.818340     4.229237
Al    12.960559    50.053361     0.904534
Al     3.778148    21.823846     0.910628
Al     3.760801    50.055507     4.174366
Al     9.917438    45.309708     2.540792
Al     9.916397    17.088040     5.802086
Al     0.719408    45.308444     5.805837
Al     0.677012    17.112905     2.514970
Al     8.490834    11.094457     2.533502
Al     8.501171    39.308817     5.804981
Al    17.686238    11.104339     5.802767
Al    17.725593    39.298544     2.527345
Al     3.885388    31.229512     4.218296
Al     3.889340     3.000885     0.899856
Al    13.089005    31.217609     0.926044
Al    13.090212     2.999955     4.170792
Al    14.528531    25.168612     4.221608
Al    14.517375    53.405621     0.901445
Al     5.334707    25.175741     0.915836
Al     5.316481    53.408184     4.171209
Na     8.717839    14.614041     4.086759
Na     8.752870    42.825803     0.817594
Na    17.945050    14.629849     0.799986
Na    17.939062    42.815358     4.086675
Na     9.696255    41.780066     4.087239
Na     9.662563    13.573104     0.815651
Na     0.460692    41.785718     0.810654
Na     0.466288    13.597584     4.079833
Na     5.072267    28.741502     2.506765
Na     5.068332     0.513643     5.722966
Na    14.278523    28.709867     5.779711
Na    14.268971     0.511662     2.455177
Na    13.346958    27.653913     2.509425
Na    13.337096    55.896927     5.723634
Na     4.140530    27.691018     5.775347
Na     4.138583    55.897423     2.454883
Ca     4.302132    18.548340     2.463562
Ca     4.322426    46.751140     5.744595
Ca    13.483724    18.435533     5.693181
Ca    13.524449    46.742278     2.470173
Ca     4.881220     9.666898     2.464950
Ca     4.905713    37.984188     5.607892
Ca    14.083884     9.659422     5.739709
Ca    14.102253    37.851429     2.474859
Ca     9.495397    32.620548     0.862049
Ca     9.483735     4.435686     4.104668
Ca     0.284588    32.631680     4.145351
Ca     0.284837     4.436989     0.835863
Ca     8.921739    23.784967     0.856768
Ca     8.922494    51.973616     4.106688
Ca    18.139536    23.767963     4.143107
Ca    18.121276    51.973508     0.836765
O2     9.582335    45.649322     4.207306
O2     9.602885    17.435592     0.929594
O2     0.389477    45.650274     0.934863
O2     0.350339    17.418085     4.188697
O2     8.823743    10.754911     4.200418
O2     8.825176    38.967904     0.933910
O2    18.020205    10.756377     0.930877
O2    18.067703    38.984167     4.197207
O2    13.423666    31.574259     2.586692
O2    13.420933     3.340342     5.837907
O2     4.221212    31.625746     5.865898
O2     4.220860     3.340855     2.566908
O2     4.997964    24.814183     2.574442
O2     4.984388    53.067887     5.838122
O2    14.183476    24.763935     5.864464
O2    14.184597    53.065335     2.568203
O2     8.945143    20.024165     0.855450
O2     8.892841    48.235191     4.131088
O2    18.137833    20.000803     4.060303
O2    18.106948    48.238140     0.855772
O2     0.304643     8.168828     0.854920
O2     0.257256    36.393684     4.075373
O2     9.507487     8.167943     4.123750
O2     9.493305    36.379808     0.860281
O2    14.123109    34.161275     2.519427
O2    14.106104     5.927085     5.758384
O2     5.018249    34.193870     5.847990
O2     4.905154     5.927371     2.487586
O2     4.296013    22.226559     2.513384
O2     4.301007    50.480783     5.760072
O2    13.393120    22.190845     5.858463
O2    13.499939    50.478632     2.490524
O2    14.170550    43.591813     5.678512
O2    14.126354    15.379682     2.405305
O2     4.943730    43.567163     2.411185
O2     4.962420    15.395669     5.670308
O2    13.453245    41.017094     5.678610
O2    13.450823    12.793943     2.435890
O2     4.238597    40.981878     2.427650
O2     4.238104    12.822953     5.669900
O2     8.855801    29.486647     4.095343
O2     8.841311     1.273968     0.777060
O2    18.034991    29.477280     0.831957
O2    18.040029     1.274555     4.044891
O2     9.565467    26.911358     4.095280
O2     9.566551    55.131522     0.778189
O2     0.383420    26.910868     0.833928
O2     0.365812    55.132013     4.045876
O2     5.999955    17.382339     3.935572
O2     5.985417    45.574619     0.684126
O2    15.128745    17.430216     0.619592
O2    15.196581    45.576895     3.933552
O2    12.422638    39.026394     3.943122
O2    12.419691    10.826858     0.666704
O2     3.263408    38.986421     0.645927
O2     3.209336    10.836840     3.928902
O2     7.825058    31.477968     2.363457
O2     7.813158     3.265569     5.569702
O2    17.009247    31.470057     5.610280
O2    17.014918     3.265484     2.302571
O2    10.591253    24.911688     2.370490
O2    10.591310    53.142949     5.570807
O2     1.412980    24.930031     5.602912
O2     1.392605    53.142017     2.302246
O2    12.395578    20.149859     4.329214
O2    12.321396    48.436341     1.000970
O2     3.133682    20.199895     0.960364
O2     3.125850    48.436438     4.272652
O2     6.052039    36.222947     4.328250
O2     6.084409     7.969255     0.997844
O2    15.290656    36.192138     0.985732
O2    15.282415     7.971971     4.270960
O2    10.673468    34.336825     5.909797
O2    10.684022     6.125319     2.634868
O2     1.466082    34.322149     2.654865
O2     1.483082     6.131188     5.900297
O2    16.922387    50.279799     5.903496
O2    16.959647    22.097109     2.655193
O2     7.722644    50.280296     2.638874
O2     7.754982    22.065150     5.897874
O2    10.586069    43.697708     2.402671
O2    10.569407    15.468825     5.679022
O2     1.378545    43.689380     5.675335
O2     1.365581    15.505423     2.370735
O2     7.823235    12.707010     2.397319
O2     7.840179    40.927510     5.672154
O2    17.029459    12.724366     5.676494
O2    17.046352    40.909690     2.388585
O2     3.239420    29.602421     4.100580
O2     3.226906     1.385465     0.764559
O2    12.432876    29.598956     0.811480
O2    12.426192     1.385212     4.034770
O2    15.172381    26.797061     4.108119
O2    15.180351    55.020588     0.765581
O2     5.991194    26.794135     0.807546
O2     5.979982    55.022734     4.034508
O2     1.795446    18.292766     1.878733
O2     1.840046    46.485600     5.158968
O2    11.083400    18.229845     5.150560
O2    11.034069    46.489731     1.895164
O2     7.372765     9.916272     1.887472
O2     7.348496    38.160980     5.151965
O2    16.566439     9.926481     5.154098
O2    16.605684    38.120851     1.888632
O2     2.732700    32.359348     3.545266
O2     2.770315     4.179299     0.253415
O2    11.965820    32.390418     0.271054
O2    11.971862     4.177912     3.523705
O2    15.688490    24.050718     3.545405
O2    15.636259    52.226645     0.255699
O2     6.459992    24.004771     0.259320
O2     6.435214    52.229366     3.525727
O2    16.437951    47.485569     5.197648
O2    16.462372    19.339066     1.841810
O2     7.233922    47.487341     1.929721
O2     7.279514    19.283055     5.193384
O2    11.155874    37.121686     5.197728
O2    11.173017     8.917523     1.926129
O2     1.970637    37.114322     1.911277
O2     1.970555     8.927468     5.196325
O2     6.591608    33.424897     3.579550
O2     6.572179     5.175979     0.291411
O2    15.763804    33.387669     0.314958
O2    15.772185     5.177752     3.561343
O2    11.823290    22.957127     3.580775
O2    11.835448    51.229319     0.292491
O2     2.667421    23.010742     0.307029
O2     2.634621    51.230121     3.561923
O2     6.310268    14.546081     3.375710
O2     6.316975    42.742290     0.126917
O2    15.517277    14.569746     0.119871
O2    15.530810    42.738304     3.385709
O2    12.102701    41.863021     3.384287
O2    12.107027    13.671006     0.149761
O2     2.894326    41.847352     0.126849
O2     2.877974    13.676956     3.377068
O2     7.485957    28.639092     1.806177
O2     7.482270     0.427474     5.021036
O2    16.682998    28.639932     5.070167
O2    16.681760     0.426796     1.751864
O2    10.937397    27.751637     1.804574
O2    10.923331    55.981254     5.022157
O2     1.731954    27.761604     5.075199
O2     1.725507    55.980610     1.753307
O2     3.907505    16.085924     3.009774
O2     3.913389    44.265257     6.286346
O2    13.108629    16.089117     6.270636
O2    13.124523    44.275346     3.014624
O2     5.282272    12.135766     3.007081
O2     5.300750    40.329462     6.283243
O2    14.500455    12.145982     6.300246
O2    14.506300    40.327097     3.018009
O2     9.893884    30.160964     1.430401
O2     9.888197     1.959765     4.652001
O2     0.694831    30.167751     4.711606
O2     0.689369     1.958664     1.382374
O2     8.529422    26.231461     1.429303
O2     8.517434    54.448654     4.652800
O2    17.720462    26.232154     4.713887
O2    17.717844    54.448145     1.383210
O2     9.754053    20.527933     4.715405
O2     9.684995    48.763209     1.437272
O2     0.518599    20.607989     1.402631
O2     0.488900    48.760561     4.699072
O2     8.691326    35.871437     4.714158
O2     8.721590     7.641910     1.429555
O2    17.926726    35.835442     1.393532
O2    17.919260     7.651747     4.697886
O2     4.067086    34.642662     3.221235
O2     4.120487     6.453607     6.330503
O2    13.306183    34.673348     6.368971
O2    13.321296     6.452490     3.065025
O2    14.357021    21.769213     3.230878
O2    14.284788    49.953994     6.334800
O2     5.123038    21.721523     6.366019
O2     5.085475    49.954965     3.066364
O2     8.504612    16.977720     4.794248
O2     8.491259    45.185786     1.546485
O2    17.633105    16.983939     1.526417
O2    17.696955    45.187060     4.806429
O2     9.918376    39.426128     4.802559
O2     9.916520    11.217029     1.538056
O2     0.758726    39.430239     1.525324
O2     0.709067    11.224878     4.802935
O2     5.318086    31.116952     3.232230
O2     5.311566     2.878854     6.440712
O2    14.504441    31.090571     6.461976
O2    14.514530     2.877206     3.175255
O2    13.096871    25.270260     3.233531
O2    13.092614    53.530038     6.441398
O2     3.918863    25.310450     6.448620
O2     3.893055    53.529818     3.174513
O2     7.963575    18.537243     2.723332
O2     7.938993    46.739597     6.005053
O2    17.081448    18.492940     5.935000
O2    17.152101    46.751300     2.734745
O2    10.467220    37.871588     2.726968
O2    10.461292     9.659488     6.000391
O2     1.302330    37.876954     5.968680
O2     1.255840     9.657732     2.733174
O2    15.063721    32.653531     4.391682
O2    15.059606     4.436587     1.100054
O2     5.885528    32.638557     1.137783
O2     5.858317     4.438342     4.366113
O2    12.545794    51.969189     4.367401
O2    12.526215    23.748079     1.139808
O2     3.348327    51.968772     1.100347
O2     3.357078    23.742543     4.381881
O2    10.598819    19.100395     2.657770
O2    10.564835    47.342214     5.925730
O2     1.324473    19.108733     5.914669
O2     1.379544    47.341434     2.651295
O2     7.836464    37.294684     2.661806
O2     7.835405     9.063765     5.917839
O2    17.058584    37.307209     5.916447
O2    17.028719     9.065875     2.647731
O2    12.442025    33.263020     4.304555
O2    12.434665     5.032832     1.016316
O2     3.272813    33.270390     1.082114
O2     3.232545     5.033882     4.282915
O2     5.978058    23.128405     4.294905
O2     5.973916    51.374054     1.018393
O2    15.142897    23.130366     1.084370
O2    15.171353    51.372993     4.285779
O2     3.311952    14.534798     0.912816
O2     3.305649    42.702413     4.197771
O2    12.503937    14.511999     4.200884
O2    12.517726    42.730140     0.916420
O2     5.895991    13.677517     0.908340
O2     5.895535    41.871017     4.191107
O2    15.097257    13.695418     4.198046
O2    15.104466    41.879063     0.921076
O2    10.505107    28.616201     5.874594
O2    10.493003     0.411332     2.555627
O2     1.299666    28.630259     2.611356
O2     1.292783     0.411005     5.823566
O2     7.916727    27.781268     5.874461
O2     7.913634    55.995303     2.555026
O2    17.111880    27.759671     2.608860
O2    17.111267    55.996201     5.822765
O1     5.161806    17.931997     0.444282
H      5.175591    17.054835     0.013580
H      5.658118    18.513133     6.367431
O1     5.134046    46.124009     3.712251
H      5.147792    45.238679     3.298190
H      5.626635    46.693420     3.084638
O1    14.341223    46.138848     0.433346
H     14.357975    45.255266     0.015284
H     14.840963    46.710993     6.350946
O1     4.068071    10.271660     0.427656
H      4.052617    11.154439     0.007869
H      3.564415     9.702277     6.346209
O1     3.846140    38.391803     3.709744
H      3.774329    39.259931     3.263992
H      3.393221    37.766937     3.105506
O1    13.259327    10.259932     3.711435
H     13.240011    11.145484     3.298122
H     12.760681     9.690068     3.089402
O1    13.266552    38.469884     0.447220
H     13.249784    39.349112     0.020835
H     12.766216    37.894289     6.368657
O1     8.691130    32.022277     5.361790
H      8.662342    31.136975     4.949344
H      8.192600    32.594945     4.742367
O1     8.666500     3.824796     2.070182
H      8.648930     2.941102     1.652605
H      8.167740     4.396234     1.449411
O1    17.822429    31.996989     2.140247
H     17.828337    31.113949     1.721990
H     17.367591    32.570062     1.488687
O1    17.868014     3.826072     5.337700
H     17.850958     2.942378     4.920109
H     17.371161     4.397814     4.715691
O1     9.726869    24.381339     5.359230
H      9.757837    25.266778     4.947478
H     10.222426    23.807305     4.738982
O1     9.740642    52.581449     2.071822
H      9.758243    53.465239     1.654358
H     10.239853    52.010259     1.451233
O1     0.623043    24.396787     2.145961
H      0.613135    25.276258     1.720441
H      1.079850    23.819873     1.499191
O1     0.537786    52.583221     5.338360
H      0.555275    53.467068     4.921083
H      1.036178    52.011963     4.717200
O1    13.004096    47.772841     4.495448
H     12.280395    47.567423     5.119482
H     13.587869    48.369620     5.009710
O1     3.820034    47.773796     1.235043
H      3.092470    47.577091     1.857262
H      4.403799    48.373136     1.746323
O1     3.787486    19.536632     4.497865
H      3.042638    19.340796     5.099532
H      4.362463    20.127664     5.028024
O1    14.609907    36.851672     4.504991
H     15.347000    37.050131     5.115141
H     14.032985    36.255091     5.026895
O1    14.594107     8.633084     1.228682
H     15.319176     8.835575     1.851922
H     14.008902     8.037675     1.742829
O1     5.397874     8.636700     4.490459
H      6.122684     8.840839     5.113582
H      4.814043     8.040506     5.005294
O1     9.999711    33.661911     2.882966
H     10.725294    33.467921     3.508365
H      9.397031    34.236518     3.400329
O1     9.994230     5.463608     6.130861
H     10.720553     5.260091     0.217795
H      9.411136     6.059020     0.106704
O1     0.731541    33.575261     6.206196
H      1.532175    33.504351     0.228370
H      0.153229    34.184496     0.170250
O1     0.794475     5.466785     2.860932
H      1.519342     5.265283     3.484795
H      0.211249     6.066243     3.372637
O1     8.424654    22.742663     2.878216
H      7.694357    22.930335     3.500038
H      9.035650    22.182741     3.401599
O1     8.409489    50.945930     6.133140
H      7.685909    51.148020     0.218869
H      8.994868    50.348065     0.110996
O1    17.692230    22.842459     6.212188
H     16.894979    22.902406     0.235080
H     18.283344    22.241081     0.178924
O1    17.610387    50.943169     2.862290
H     16.885526    51.144837     3.486156
H     18.195211    50.346202     3.375074
O1    10.290382    15.190217     2.440955
H     10.208588    16.083193     2.043171
H     11.172912    15.210572     2.866083
O1    10.316501    43.419344     5.707271
H     10.234376    44.310836     5.306676
H     11.197442    43.444440     6.135804
O1     1.111524    15.221240     5.693933
H      1.014949    16.110016     5.289656
H      1.989266    15.264560     6.126903
O1     1.111208    43.414631     2.436812
H      1.021452    44.306733     2.038992
H      1.989911    43.447109     2.868918
O1     8.117092    41.205497     2.439895
H      8.207516    40.311888     2.044889
H      7.241003    41.172131     2.877039
O1     8.092325    12.982086     5.705491
H      8.172481    12.090834     5.303921
H      7.211605    12.958277     6.134499
O1    17.300273    41.186399     5.701247
H     17.400382    40.296309     5.300820
H     16.420706    41.142664     6.130694
O1    17.297223    12.995989     2.431956
H     17.384098    12.104410     2.032318
H     16.421046    12.963402     2.869490
O1    12.719708    29.318384     4.109812
H     12.814572    30.206788     3.704460
H     11.840310    29.358136     4.540586
O1    12.700966     1.100917     0.803889
H     12.786509     1.992104     0.402969
H     11.821258     1.130336     1.234620
O1     3.515480    29.359254     0.848444
H      3.606314    30.255382     0.458963
H      2.630756    29.385359     1.269835
O1     3.500289     1.102955     4.071202
H      3.585664     1.993927     3.669751
H      2.620619     1.132470     4.502005
O1     5.698246    27.073803     4.104999
H      5.603287    26.185704     3.698942
H      6.578120    27.034435     4.534936
O1     5.706071    55.305749     0.803556
H      5.620883    54.414429     0.402923
H      6.585860    55.276946     1.234176
O1    14.900571    27.028721     0.849942
H     14.807434    26.132641     0.461031
H     15.785282    27.000503     1.271314
O1    14.904292    55.304756     4.071602
H     14.818565    54.413577     3.670743
H     15.784082    55.275349     4.502179
O1     5.921379    20.187799     2.414928
H      6.867382    20.146825     2.174901
H      5.811372    21.077683     2.804605
O1     5.916192    48.417682     5.654480
H      6.869001    48.365581     5.444394
H      5.804607    49.310058     6.038011
O1    15.115991    48.415205     2.390573
H     16.069547    48.365227     2.183259
H     15.001052    49.307265     2.773738
O1    12.494077    36.202449     2.407097
H     11.546068    36.248886     2.175633
H     12.602071    35.312331     2.796848
O1    12.489210     7.987127     5.659407
H     11.536623     8.037237     5.447848
H     12.602285     7.095377     6.043687
O1     3.290659     7.992943     2.383422
H      2.336352     8.044392     2.179863
H      3.405388     7.101255     2.767533
O1    17.094740    34.313884     4.036307
H     16.142944    34.254835     3.824024
H     17.204146    35.215977     4.395844
O1    17.088827     6.105648     0.749936
H     16.135410     6.055027     0.542363
H     17.202890     6.997771     1.133259
O1     7.936784    34.293695     0.735916
H      6.990854    34.215629     0.501759
H      8.014714    35.174578     1.151918
O1     7.890362     6.106276     4.020158
H      6.937339     6.055535     3.810582
H      8.003303     6.998172     4.404337
O1    10.512682    50.298572     4.024659
H     11.465860    50.348542     3.815393
H     10.399167    49.407850     4.411472
O1    10.477110    22.109007     0.726795
H     11.423406    22.189784     0.495503
H     10.402706    21.234797     1.156902
O1     1.316783    50.303237     0.752014
H      2.270093    50.354923     0.544149
H      1.204105    49.411973     1.137655
O1     1.323060    22.079287     4.052718
H      2.272144    22.127854     3.826439
H      1.204293    21.173048     4.398660

