581
-14565.8421805610
Si     4.605530    14.121905     0.000000
Si     4.617255    42.369654     3.286527
Si    13.822438    14.124680     3.264590
Si    13.825501    42.367358     0.019831
Si     9.219834    28.256706     4.933790
Si     9.215233     0.002090     1.642132
Si     0.010701    28.245636     1.665007
Si     0.007237     0.004471     4.909104
Si     9.245496    18.794957     1.750542
Si     9.246260    47.048337     5.035599
Si     0.022255    18.802825     5.013074
Si     0.038670    47.045712     1.768392
Si     9.195854    37.691544     1.776639
Si     9.189423     9.450702     5.021992
Si    18.402675    37.694292     5.043432
Si    18.396839     9.445428     1.753438
Si    13.800338    32.926110     3.414865
Si    13.793776     4.678278     0.123927
Si     4.591282    32.923149     0.143915
Si     4.586316     4.681145     3.391061
Si     4.637626    23.559195     3.398081
Si     4.643640    51.811781     0.131604
Si    13.832831    23.552629     0.161270
Si    13.851087    51.814473     3.398731
Si     2.893154    14.979381     2.430486
Si     2.903213    43.223209     5.716788
Si    12.103373    14.968167     5.691969
Si    12.111391    43.220524     2.450112
Si     6.321028    13.272461     2.431027
Si     6.330687    41.519550     5.718536
Si    15.536030    13.274757     5.697223
Si    15.538898    41.517338     2.451828
Si    10.937539    29.095400     0.830508
Si    10.928705     0.855736     4.072745
Si     1.727023    29.102880     4.095161
Si     1.721601     0.853134     0.805478
Si     7.509923    27.393478     0.829530
Si     7.507419    55.640097     4.073847
Si    16.714458    27.400373     4.097560
Si    16.716131    55.637134     0.806515
Si    10.867883    19.614971     4.182256
Si    10.858492    47.871720     0.943710
Si     1.643405    19.622968     0.923391
Si     1.650088    47.874361     4.210708
Si     7.584165    36.866636     4.219778
Si     7.578319     8.620360     0.931018
Si    16.791857    36.865012     0.952421
Si    16.785486     8.621576     4.196646
Si    12.187952    33.753328     5.856861
Si    12.182064     5.506864     2.565955
Si     2.980635    33.752481     2.586084
Si     2.974146     5.509200     5.833090
Si    15.462269    50.989644     5.842190
Si    15.478615    22.751810     2.607645
Si     6.254790    50.987178     2.575084
Si     6.258670    22.739692     5.839972
Si     7.449959    18.074592     4.187286
Si     7.452917    46.317542     0.944396
Si    16.650712    18.077993     0.917442
Si    16.660459    46.320127     4.211442
Si    10.989431    38.420142     4.219156
Si    10.983484    10.174193     0.930704
Si     1.781441    38.418511     0.951515
Si     1.774665    10.174827     4.195563
Si     6.385924    32.197343     2.586817
Si     6.379754     3.955611     5.834604
Si    15.594090    32.200671     5.858448
Si    15.587900     3.951958     2.567041
Si    12.055763    24.292250     2.607171
Si    12.056900    52.543228     5.840833
Si     2.853776    24.300294     5.842072
Si     2.849485    52.540570     2.573695
Al    14.545970    44.047927     4.051044
Al    14.542455    15.796561     0.762255
Al     5.338696    44.045145     0.783492
Al     5.329513    15.804362     4.031962
Al    13.104027    40.692113     4.053567
Al    13.104473    12.440561     0.766018
Al     3.896582    40.689573     0.785936
Al     3.886237    12.448890     4.032542
Al     8.499600    29.924717     2.429716
Al     8.493939     1.683167     5.673276
Al    17.709458    29.930622     5.696241
Al    17.702609     1.680086     2.405887
Al     9.942641    26.568956     2.435342
Al     9.942051    54.814917     5.675978
Al     0.737025    26.575377     5.697281
Al     0.734770    54.812203     2.408645
Al    17.581899    48.735931     5.808546
Al    17.589197    20.496120     2.523158
Al     8.374276    48.733347     2.541533
Al     8.380506    20.487368     5.790905
Al    10.068010    36.006556     5.819879
Al    10.061923     7.760393     2.531227
Al     0.860009    36.005276     2.552074
Al     0.853401     7.761547     5.796364
Al     5.464482    34.613018     4.184158
Al     5.458800     6.366551     0.897280
Al    14.672391    34.611035     0.921098
Al    14.666320     6.367367     4.164000
Al    12.977796    21.869620     4.206290
Al    12.978882    50.124604     0.907422
Al     3.770251    21.874685     0.904167
Al     3.770559    50.127154     4.174529
Al     9.932060    45.381626     2.541614
Al     9.928763    17.134117     5.784929
Al     0.723687    45.384250     5.808573
Al     0.705314    17.137634     2.519927
Al     8.503773    11.113262     2.525156
Al     8.509862    39.358499     5.814197
Al    17.712124    11.112597     5.790949
Al    17.718313    39.356756     2.546761
Al     3.907097    31.262189     4.183819
Al     3.901244     3.014186     0.897030
Al    13.115893    31.258173     0.920775
Al    13.108239     3.016521     4.163855
Al    14.552491    25.228837     4.192273
Al    14.536868    53.476293     0.902181
Al     5.334857    25.225648     0.903644
Al     5.328440    53.478962     4.169326
Na     8.734457    14.653571     4.072334
Na     8.750580    42.890127     0.829127
Na    17.963776    14.644804     0.801470
Na    17.958117    42.892893     4.096052
Na     9.692495    41.844393     4.097019
Na     9.679876    13.600234     0.807667
Na     0.484906    41.842740     0.829740
Na     0.479422    13.602191     4.074385
Na     5.087383    28.768065     2.472152
Na     5.082093     0.528184     5.718617
Na    14.298726    28.768701     5.747086
Na    14.290540     0.524916     2.451523
Na    13.353981    27.711178     2.482265
Na    13.353765    55.967378     5.719218
Na     4.150653    27.726455     5.735432
Na     4.146368    55.965098     2.452333
Ca     4.325888    18.573045     2.459897
Ca     4.330438    46.816972     5.742966
Ca    13.544400    18.456286     5.566474
Ca    13.538778    46.814484     2.476018
Ca     4.896776     9.678438     2.462414
Ca     4.902026    37.921455     5.751075
Ca    14.103607     9.671036     5.729509
Ca    14.110414    37.919493     2.484507
Ca     9.508429    32.691222     0.853862
Ca     9.501176     4.449973     4.098593
Ca     0.300056    32.696699     4.121148
Ca     0.294656     4.446541     0.831091
Ca     8.931582    23.805581     0.850280
Ca     8.936128    52.042003     4.106699
Ca    18.156850    23.812463     4.109076
Ca    18.144659    52.039283     0.839529
O2     9.599476    45.723525     4.208080
O2     9.597715    17.471500     0.915040
O2     0.391991    45.720912     0.940858
O2     0.356327    17.469942     4.186593
O2     8.836931    10.774412     4.192163
O2     8.843025    39.015684     0.947312
O2    18.044440    10.769799     0.924147
O2    18.050413    39.018483     4.213994
O2    13.447712    31.601557     2.586945
O2    13.439973     3.358703     5.830453
O2     4.238313    31.602800     5.851029
O2     4.233373     3.356237     2.563525
O2     4.994368    24.879542     2.566090
O2     4.995529    53.141084     5.836489
O2    14.221116    24.860647     5.850513
O2    14.203996    53.138618     2.569411
O2     8.913575    20.058057     0.843991
O2     8.915446    48.310752     4.127406
O2    18.143263    20.066011     4.100170
O2    18.123878    48.308128     0.860203
O2     0.310874     8.182238     0.846538
O2     0.317941    36.430956     4.137026
O2     9.521485     8.186790     4.116549
O2     9.526933    36.428253     0.870227
O2    14.131518    34.189068     2.507358
O2    14.124293     5.945795     5.749896
O2     4.921326    34.190084     5.769183
O2     4.917500     5.943538     2.483054
O2     4.302071    22.291479     2.496762
O2     4.312106    50.553523     5.759388
O2    13.449645    22.286312     5.820059
O2    13.520376    50.551119     2.492253
O2    14.183984    43.660067     5.686983
O2    14.180028    15.415090     2.399085
O2     4.976694    43.657120     2.419381
O2     4.965906    15.412461     5.666361
O2    13.465376    41.084244     5.688643
O2    13.470644    12.835160     2.399099
O2     4.257874    41.081377     2.421148
O2     4.243985    12.838204     5.669279
O2     8.860558    29.545416     4.068303
O2     8.856316     1.289641     0.774931
O2    18.069360    29.533333     0.797479
O2    18.064107     1.291926     4.041829
O2     9.573743    26.969596     4.065607
O2     9.581037    55.201416     0.776888
O2     0.375982    26.958511     0.799547
O2     0.373058    55.203837     4.043826
O2     5.999606    17.400846     3.928350
O2     6.006053    45.644172     0.674010
O2    15.194815    17.404414     0.655666
O2    15.213495    45.646875     3.941235
O2    12.436308    39.093542     3.947525
O2    12.432482    10.844832     0.659788
O2     3.228474    39.091234     0.679302
O2     3.220426    10.849131     3.923583
O2     7.832145    31.523316     2.314106
O2     7.826783     3.282342     5.564310
O2    17.042262    31.529776     5.588743
O2    17.034731     3.278848     2.296381
O2    10.606995    24.969334     2.350405
O2    10.609972    53.216465     5.569152
O2     1.408120    24.978657     5.580178
O2     1.402571    53.213739     2.301873
O2    12.349647    20.243659     4.300671
O2    12.338361    48.508429     1.005993
O2     3.125738    20.255855     0.981024
O2     3.129989    48.510991     4.272934
O2     6.104497    36.229759     4.282162
O2     6.098736     7.983534     0.993341
O2    15.312130    36.228294     1.016197
O2    15.305658     7.984621     4.260514
O2    10.708000    34.390089     5.919011
O2    10.702523     6.144111     2.628903
O2     1.500852    34.389214     2.649737
O2     1.494024     6.145469     5.895009
O2    16.942003    50.352915     5.905119
O2    16.960154    22.113973     2.634241
O2     7.734492    50.350381     2.638084
O2     7.738411    22.103765     5.889496
O2    10.598123    43.768098     2.407434
O2    10.592416    15.515615     5.654711
O2     1.389934    43.770806     5.674202
O2     1.378788    15.525357     2.388267
O2     7.835131    12.725678     2.388367
O2     7.843999    40.972389     5.676800
O2    17.048285    12.727651     5.653291
O2    17.052354    40.970596     2.409999
O2     3.240828    29.649038     4.047862
O2     3.234893     1.400686     0.762955
O2    12.450178    29.644257     0.788219
O2    12.442047     1.403118     4.029932
O2    15.199791    26.853380     4.068339
O2    15.202765    55.090137     0.764743
O2     5.998918    26.841189     0.781804
O2     5.994110    55.092942     4.032153
O2     1.827458    18.318625     1.886365
O2     1.841638    46.563852     5.163034
O2    11.069241    18.289834     5.129567
O2    11.050059    46.561200     1.896026
O2     7.386682     9.932316     1.881406
O2     7.391640    38.178564     5.170356
O2    16.592777     9.933567     5.147210
O2    16.599984    38.177217     1.902651
O2     2.789869    32.442289     3.538671
O2     2.783209     4.193438     0.251055
O2    11.997229    32.437040     0.274287
O2    11.990547     4.196163     3.517910
O2    15.699557    24.091024     3.518087
O2    15.655250    52.296420     0.258624
O2     6.455412    24.047152     0.257355
O2     6.446899    52.299146     3.525704
O2    16.456990    47.559028     5.198812
O2    16.469590    19.306061     1.920780
O2     7.249348    47.556393     1.931840
O2     7.253471    19.314154     5.174241
O2    11.192848    37.183413     5.208840
O2    11.186466     8.937668     1.920530
O2     1.984858    37.182371     1.941884
O2     1.978080     8.938636     5.186093
O2     6.589681    33.435585     3.575186
O2     6.583831     5.189281     0.287909
O2    15.797435    33.434280     0.311944
O2    15.791434     5.190566     3.554843
O2    11.853055    23.036403     3.571832
O2    11.854198    51.301488     0.296386
O2     2.651998    23.058142     0.297346
O2     2.645869    51.304090     3.563607
O2     6.324327    14.562766     3.375487
O2     6.335389    42.805437     0.128483
O2    15.541632    14.560803     0.107935
O2    15.542644    42.808237     3.396128
O2    12.107687    41.931515     3.396465
O2    12.111432    13.684006     0.113452
O2     2.900430    41.929190     0.129055
O2     2.889888    13.687897     3.374738
O2     7.503690    28.680455     1.779621
O2     7.497313     0.443697     5.017741
O2    16.712267    28.694561     5.037102
O2    16.706000     0.440576     1.750572
O2    10.942751    27.803915     1.774194
O2    10.938373    56.054637     5.019481
O2     1.734036    27.816388     5.044617
O2     1.731049    56.051933     1.752082
O2     3.919926    16.098854     3.005414
O2     3.928562    44.345257     6.291246
O2    13.138913    16.095971     6.252393
O2    13.136644    44.342628     3.024634
O2     5.296971    12.151185     3.008813
O2     5.305057    40.399154     6.294594
O2    14.510399    12.153647     6.271265
O2    14.513362    40.396807     3.027857
O2     9.910478    30.215533     1.405410
O2     9.903440     1.977993     4.647019
O2     0.703737    30.226307     4.670812
O2     0.696090     1.975205     1.379746
O2     8.537488    26.272124     1.402150
O2     8.532927    54.519724     4.650091
O2    17.744354    26.284195     4.672299
O2    17.741624    54.516778     1.382813
O2     9.713466    20.573557     4.693752
O2     9.700305    48.835339     1.434756
O2     0.489520    20.596125     1.404133
O2     0.491937    48.838014     4.701795
O2     8.742689    35.904577     4.712332
O2     8.736909     7.658267     1.423576
O2    17.950838    35.903319     1.444530
O2    17.944119     7.659579     4.688726
O2     4.139533    34.715930     3.076059
O2     4.132005     6.472882     6.324545
O2    13.345437    34.717259     6.348684
O2    13.340643     6.470122     3.056953
O2    14.357731    21.810868     3.188201
O2    14.303520    50.027669     6.334364
O2     5.102188    21.779136     6.340710
O2     5.096036    50.025203     3.067231
O2     8.506705    17.012012     4.786915
O2     8.508188    45.257133     1.545335
O2    17.704102    17.007389     1.506843
O2    17.715744    45.259723     4.812405
O2     9.934237    39.482140     4.818242
O2     9.929400    11.237372     1.529667
O2     0.726573    39.480871     1.550580
O2     0.718900    11.236441     4.794007
O2     5.331467    31.136369     3.188248
O2     5.324505     2.894919     6.435250
O2    14.539365    31.139358     6.459089
O2    14.532438     2.891701     3.167987
O2    13.117868    25.344158     3.211582
O2    13.111911    53.605289     6.440057
O2     3.914793    25.358696     6.436182
O2     3.904442    53.602715     3.172853
O2     7.947239    18.559162     2.706308
O2     7.961085    46.822359     6.005297
O2    17.137116    18.589505     5.973192
O2    17.169491    46.819639     2.738057
O2    10.480729    37.919461     2.746314
O2    10.474589     9.679602     5.991722
O2     1.271332    37.922108     6.013390
O2     1.265398     9.672261     2.723321
O2    15.085070    32.700268     4.385119
O2    15.078504     4.452239     1.094062
O2     5.875861    32.698093     1.114444
O2     5.871223     4.455128     4.361120
O2    12.565923    52.042401     4.368112
O2    12.551455    23.827107     1.121028
O2     3.358509    52.039562     1.101047
O2     3.353207    23.795122     4.367101
O2    10.573841    19.155277     2.643168
O2    10.587100    47.418605     5.922678
O2     1.363199    19.146903     5.910549
O2     1.379478    47.416032     2.655489
O2     7.854747    37.323588     2.664065
O2     7.848678     9.082554     5.909558
O2    17.061229    37.326567     5.930591
O2    17.055068     9.078093     2.640661
O2    12.459023    33.296005     4.301473
O2    12.452606     5.049066     1.010438
O2     3.250173    33.293937     1.030553
O2     3.245187     5.051092     4.277868
O2     5.978423    23.194397     4.285878
O2     5.984648    51.444164     1.019312
O2    15.163685    23.164146     1.049434
O2    15.192042    51.446720     4.286456
O2     3.312626    14.550007     0.909912
O2     3.323553    42.795807     4.196351
O2    12.523753    14.544041     4.171422
O2    12.531741    42.793302     0.929641
O2     5.899209    13.695751     0.910110
O2     5.910520    41.945884     4.197567
O2    15.114946    13.708430     4.178374
O2    15.118760    41.943718     0.930887
O2    10.515771    28.677007     5.843018
O2    10.508610     0.428063     2.552389
O2     1.302465    28.672000     2.577288
O2     1.300605     0.430715     5.819280
O2     7.927488    27.832682     5.845330
O2     7.927710    56.066070     2.552774
O2    17.130695    27.821084     2.572857
O2    17.135750    56.068389     5.819757
O1     5.145705    17.958337     0.425579
H      5.164905    17.074717     0.008065
H      5.651323    18.533015     6.343446
O1     5.149046    46.207422     3.708910
H      5.166959    45.322753     3.293330
H      5.650421    46.776877     3.088485
O1    14.503427    17.979953     3.621152
H     14.583228    17.112203     3.179437
H     14.960966    18.609247     3.025195
O1    14.357524    46.205041     0.442025
H     14.375421    45.320321     0.026550
H     14.858004    46.779569     6.355742
O1     4.077694    10.284428     0.427397
H      4.058200    11.168328     0.010252
H      3.576504     9.718121     6.342162
O1     4.083654    38.531659     3.716746
H      4.066190    39.415056     3.298546
H      3.583041    37.960307     3.097363
O1    13.284157    10.285461     3.696973
H     13.268991    11.168563     3.278224
H     12.783387     9.714544     3.077260
O1    13.291782    38.529437     0.450284
H     13.274283    39.412703     0.031811
H     12.791237    37.962774     6.364796
O1     8.685807    32.092411     5.354312
H      8.668598    31.209033     4.936067
H      8.183008    32.663042     4.736150
O1     8.683668     3.840587     2.064316
H      8.665630     2.955985     1.648584
H      8.182265     4.410222     1.444068
O1    17.899244    32.084771     2.087163
H     17.879823    31.199402     1.673131
H     17.398292    32.653875     1.466062
O1    17.891233     3.841742     5.331500
H     17.873596     2.957107     4.915854
H     17.390321     4.411270     4.710779
O1     9.731273    24.423832     5.346169
H      9.756278    25.309498     4.933722
H     10.218743    23.850304     4.718539
O1     9.755403    52.651959     2.072545
H      9.772860    53.535367     1.654375
H     10.255719    52.080567     1.452967
O1     0.579305    24.417541     2.086057
H      0.588307    25.300350     1.666833
H      1.070152    23.845715     1.459783
O1     0.547138    52.654283     5.339547
H      0.564702    53.537663     4.921309
H      1.047624    52.082858     4.720135
O1    13.026365    47.845740     4.499930
H     12.300833    47.644005     5.122990
H     13.610609    48.442733     5.013355
O1     3.818811    47.843105     1.232673
H      3.093272    47.641381     1.855728
H      4.403026    48.440137     1.746086
O1     3.808917    19.593130     4.486257
H      3.080492    19.390770     5.105654
H      4.391912    20.187798     5.003790
O1    14.620910    36.895285     4.510909
H     15.347009    37.096255     5.133496
H     14.037735    36.296711     5.023741
O1    14.613810     8.645811     1.222464
H     15.341185     8.845392     1.844007
H     14.030486     8.047876     1.735890
O1     5.413800    36.891705     1.243081
H      6.139557    37.092767     1.866067
H      4.830097    36.293549     1.755838
O1     5.408559     8.651247     4.488060
H      6.133639     8.853501     5.111437
H      4.824870     8.053272     5.001007
O1    10.021116    33.721885     2.877566
H     10.746609    33.519913     3.500589
H      9.436961    34.318838     3.391127
O1    10.013499     5.481845     6.122234
H     10.739266     5.274082     0.211507
H      9.430141     6.073759     0.101391
O1     0.810754    33.728853     6.144271
H      1.536485    33.521209     0.233613
H      0.226852    34.320100     0.123546
O1     0.805711     5.477340     2.855218
H      1.531783     5.276525     3.477941
H      0.221440     6.074366     3.368552
O1     8.426280    22.771078     2.872087
H      7.702523    22.966369     3.499113
H      9.015666    22.174002     3.379518
O1     8.424789    51.017869     6.133160
H      7.699523    51.213653     0.221519
H      9.009009    50.414414     0.111903
O1    17.637561    22.800712     6.144328
H     16.890571    22.964518     0.216532
H     18.226844    22.207278     0.128872
O1    17.633107    51.015188     2.865972
H     16.906996    51.216204     3.488554
H     18.216502    50.416987     3.379010
O1    10.309396    15.231868     2.422038
H     10.219832    16.125004     2.025737
H     11.188754    15.262790     2.853049
O1    10.319675    43.484970     5.713293
H     10.235260    44.376119     5.312076
H     11.199768    43.512909     6.143396
O1     1.109212    15.243721     5.686970
H      1.015975    16.135035     5.287924
H      1.989300    15.279375     6.116445
O1     1.112340    43.482708     2.446196
H      1.028115    44.373919     2.045078
H      1.992489    43.510364     2.876196
O1     8.121407    41.254951     2.448343
H      8.206426    40.362957     2.049038
H      7.241621    41.226927     2.879030
O1     8.111164    13.013425     5.693268
H      8.194188    12.121667     5.293099
H      7.230616    12.987626     6.122704
O1    17.328880    41.257840     5.715512
H     17.413836    40.365886     5.316109
H     16.449140    41.229800     6.146296
O1    17.324768    13.011312     2.423044
H     17.413381    12.119020     2.025144
H     16.445259    12.980307     2.853894
O1    12.729658    29.360027     4.093227
H     12.816810    30.250384     3.690795
H     11.850358    29.391757     4.524690
O1    12.720486     1.114838     0.801651
H     12.804510     2.005931     0.400232
H     11.840316     1.142398     1.231631
O1     3.519163    29.357591     0.821589
H      3.602137    30.249277     0.421170
H      2.637989    29.382924     1.249732
O1     3.512132     1.117943     4.068673
H      3.596647     2.009143     3.667585
H      2.631915     1.145791     4.498529
O1     5.717770    27.121663     4.083397
H      5.629937    26.231186     3.681125
H      6.598782    27.091339     4.511644
O1     5.717375    55.375306     0.803534
H      5.632199    54.483318     0.404255
H      6.597055    55.347035     1.234417
O1    14.922101    27.111998     0.827211
H     14.838027    26.220173     0.427176
H     15.802702    27.084680     1.256566
O1    14.925152    55.377704     4.070750
H     14.840189    54.485676     3.671524
H     15.804865    55.349693     4.501581
O1     5.920283    20.235784     2.377935
H      6.870426    20.180031     2.156346
H      5.816798    21.126065     2.768361
O1     5.924753    48.487459     5.658218
H      6.878114    48.434762     5.450571
H      5.812292    49.380039     6.040915
O1    14.983000    20.155304     5.883009
H     15.922642    20.190780     5.611989
H     14.817802    21.032588     6.280959
O1    15.133152    48.484994     2.391258
H     16.086491    48.432291     2.183503
H     15.020709    49.377619     2.773857
O1    12.514655    36.251631     2.403140
H     11.561557    36.302486     2.194002
H     12.628205    35.358993     2.785466
O1    12.505284     8.006976     5.647907
H     11.552096     8.059408     5.439528
H     12.618153     7.113127     6.027541
O1     3.305483    36.254328     5.669115
H      2.352141    36.305907     5.461227
H      3.419256    35.360637     6.048856
O1     3.302237     8.008143     2.381063
H      2.349034     8.058489     2.172271
H      3.416509     7.115459     2.763028
O1    17.120754    34.365942     4.034513
H     16.167182    34.312161     3.828139
H     17.232611    35.258550     4.417316
O1    17.115405     6.115983     0.746030
H     16.161955     6.063133     0.538930
H     17.228146     7.008839     1.127967
O1     7.913366    34.362411     0.770960
H      6.960138    34.310510     0.562507
H      8.026476    35.255222     1.152896
O1     7.907390     6.121183     4.013725
H      6.953972     6.068616     3.806248
H      8.019795     7.013408     4.397313
O1    10.531983    50.374227     4.025426
H     11.485111    50.425302     3.816443
H     10.418334    49.481113     4.406576
O1    10.506011    22.144103     0.739681
H     11.454648    22.212716     0.514961
H     10.410704    21.252379     1.129094
O1     1.324482    50.371501     0.758345
H      2.277627    50.422622     0.549445
H      1.210837    49.478376     1.139463
O1     1.325140    22.132221     4.028967
H      2.277893    22.179482     3.817702
H      1.206008    21.235071     4.398153

