536
-14411.7516188731
Si     4.600594    14.084181     0.000000
Si     4.618848    42.261473     3.306272
Si    13.774409    14.073261     3.290132
Si    13.802190    42.261667     6.541894
Si     9.201066    28.167223     4.968467
Si     9.161058     0.022740     1.757920
Si    18.372939    28.168736     1.703947
Si     0.009323     0.025554     5.022661
Si     9.246817    18.728396     1.764543
Si     9.201214    46.903461     5.017674
Si    18.352292    18.723558     5.007643
Si     0.085916    46.913929     1.769286
Si     9.152520    37.611682     1.767436
Si     9.173153     9.457619     5.011634
Si     0.052722    37.610286     5.010250
Si    18.335446     9.459371     1.736400
Si    13.762041    32.869394     3.412917
Si    13.748684     4.783254     0.195470
Si     4.612476    32.903778     0.183487
Si     4.576053     4.789887     3.466407
Si     4.637689    23.466023     3.412569
Si     4.637814    51.605976     0.211692
Si    13.789253    23.431609     0.180506
Si    13.819098    51.642031     3.464224
Si     2.886807    14.918004     2.435436
Si     2.907148    43.076118     5.747041
Si    12.066816    14.884487     5.728984
Si    12.082743    43.109985     2.427745
Si     6.315863    13.237784     2.433875
Si     6.336416    41.455311     5.744177
Si    15.497555    13.255730     5.728164
Si    15.513355    41.405781     2.430426
Si    10.911121    29.008615     0.859067
Si    10.878628     0.868930     4.191002
Si     1.744280    29.018897     4.138378
Si     1.716441     0.866411     0.916050
Si     7.488713    27.327646     0.859506
Si     7.506085    55.508848     4.193068
Si    16.658224    27.315573     4.138439
Si    16.692307    55.516493     0.912123
Si    10.879745    19.510435     4.198229
Si    10.855842    47.735732     0.913102
Si     1.649851    19.555111     0.913645
Si     1.726607    47.693021     4.205416
Si     7.522266    36.827160     4.201977
Si     7.511977     8.648182     0.906218
Si    16.752215    36.775044     0.916020
Si    16.681146     8.653446     4.174538
Si    12.130148    33.677470     5.854732
Si    12.075173     5.506153     2.646007
Si     2.956574    33.647904     2.635340
Si     2.900835     5.509169     5.915947
Si    15.486670    50.853540     5.910071
Si    15.446140    22.686232     2.631261
Si     6.304255    50.870666     2.662111
Si     6.271021    22.657669     5.853715
Si     7.447733    18.014170     4.202794
Si     7.424570    46.232544     0.913250
Si    16.576290    18.039017     0.909961
Si    16.637918    46.206464     4.203247
Si    10.951546    38.325519     4.206138
Si    10.961447    10.118497     0.903858
Si     1.827508    38.293055     0.912053
Si     1.780907    10.125581     4.171863
Si     6.386928    32.150211     2.626212
Si     6.335012     3.998839     5.909163
Si    15.536990    32.120755     5.862761
Si    15.509123     3.995891     2.638953
Si    12.015097    24.185996     2.623575
Si    12.062266    52.400376     5.918505
Si     2.864143    24.212859     5.863837
Si     2.874002    52.375027     2.655735
Al    14.521627    43.933371     4.038746
Al    14.475636    15.764655     0.812685
Al     5.313742    43.962793     0.830123
Al     5.312936    15.757395     4.052528
Al    13.080685    40.584231     4.039467
Al    13.083909    12.374925     0.812830
Al     3.928096    40.568427     0.828155
Al     3.888426    12.390904     4.050952
Al     8.478433    29.850233     2.468251
Al     8.435879     1.700526     5.794580
Al    17.650171    29.843558     5.739595
Al    17.616774     1.701990     2.519338
Al     9.922593    26.485607     2.467193
Al     9.947857    54.680635     5.795186
Al     0.752022    26.490521     5.738941
Al     0.783407    54.677553     2.518321
Al    17.610291    48.613486     5.821034
Al    17.550340    20.448961     2.509417
Al     8.412418    48.638520     2.519360
Al     8.403670    20.419199     5.812812
Al     9.998624    35.918400     5.815508
Al     9.945955     7.718275     2.510263
Al     0.851162    35.882637     2.510531
Al     0.772691     7.724215     5.779326
Al     5.455098    34.553043     4.235753
Al     5.406464     6.413354     0.968088
Al    14.615992    34.545812     0.912257
Al    14.581909     6.410296     4.241098
Al    12.947578    21.783181     4.232053
Al    12.982636    49.966031     0.965497
Al     3.782841    21.789178     0.911946
Al     3.800885    49.965983     4.260661
Al     9.885791    45.264930     2.523200
Al     9.910233    17.047976     5.807489
Al     0.744659    45.234923     5.813577
Al     0.691692    17.074603     2.519657
Al     8.515365    11.105209     2.519824
Al     8.491405    39.292233     5.811470
Al    17.683521    11.113976     5.789249
Al    17.711674    39.253977     2.521880
Al     3.899131    31.197415     4.228539
Al     3.851478     3.063825     0.970379
Al    13.063041    31.192841     0.918116
Al    13.025251     3.057996     4.242611
Al    14.504004    25.136818     4.225477
Al    14.551677    53.327109     0.962826
Al     5.335510    25.144091     0.918427
Al     5.360868    53.319539     4.258904
Na     8.725504    14.581157     4.083319
Na     8.761827    42.801625     0.804947
Na    17.926026    14.597508     0.794227
Na    17.923133    42.753952     4.086852
Na     9.675766    41.773906     4.091699
Na     9.641555    13.566415     0.802375
Na     0.478834    41.733796     0.806808
Na     0.476063    13.590394     4.069202
Na     5.069933    28.713158     2.512269
Na     5.037928     0.549321     5.840899
Na    14.249245    28.677712     5.784042
Na    14.208336     0.555113     2.555987
Na    13.331443    27.623667     2.511518
Na    13.353292    55.837947     5.834391
Na     4.152677    27.657087     5.784720
Na     4.185761    55.826958     2.570326
Ca     4.315253    18.512772     2.464139
Ca     4.327222    46.584313     5.689465
Ca    13.484854    18.378380     5.659465
Ca    13.520987    46.585814     2.312676
Ca     4.941232     9.741501     2.454470
Ca     4.921160    37.961628     5.662700
Ca    14.113655     9.747691     5.712498
Ca    14.085366    37.822623     2.465462
Ca     9.481417    32.585406     0.858109
Ca     9.436511     4.417403     4.170703
Ca     0.294255    32.598350     4.148145
Ca     0.261470     4.423696     0.895801
Ca     8.917397    23.753645     0.855554
Ca     8.957398    51.934588     4.187126
Ca    18.107978    23.736302     4.146213
Ca    18.130338    51.956434     0.886847
O2     9.552123    45.565883     4.194521
O2     9.592033    17.406640     0.925726
O2     0.410430    45.583361     0.932619
O2     0.358137    17.385905     4.190411
O2     8.827417    10.797432     4.192566
O2     8.806053    38.933099     0.929212
O2    17.990588    10.798558     0.916883
O2    18.043832    38.948329     4.194425
O2    13.399150    31.555068     2.576524
O2    13.373372     3.488964     5.875580
O2     4.241205    31.599943     5.872568
O2     4.201707     3.497521     2.601686
O2     5.001108    24.780430     2.576805
O2     5.013299    52.902555     5.896564
O2    14.163103    24.732761     5.869401
O2    14.222697    52.934397     2.613563
O2     8.931425    19.994272     0.859653
O2     8.953938    48.149564     4.077341
O2    18.100917    19.970483     4.069067
O2    18.153667    48.180256     0.858299
O2     0.220096     8.213622     0.792855
O2     0.302758    36.364915     4.069444
O2     9.399565     8.212519     4.066917
O2     9.469051    36.345617     0.862804
O2    14.101012    34.141583     2.515941
O2    14.175295     6.061917     5.885801
O2     5.034163    34.171012     5.863357
O2     4.998389     6.071572     2.614247
O2     4.297127    22.194198     2.515637
O2     4.214754    50.330918     5.896749
O2    13.370091    22.161989     5.860101
O2    13.425463    50.364539     2.596458
O2    14.163062    43.549913     5.675724
O2    14.086383    15.374226     2.431762
O2     4.923099    43.561199     2.445725
O2     4.960922    15.384161     5.694427
O2    13.445671    40.975747     5.673350
O2    13.464378    12.774478     2.430497
O2     4.313349    40.957348     2.449254
O2     4.268711    12.806463     5.663008
O2     8.849090    29.455024     4.099810
O2     8.789719     1.305313     0.887642
O2    17.999350    29.451579     0.835035
O2    17.985452     1.308392     4.152830
O2     9.552605    26.879557     4.099171
O2     9.588401    55.077635     0.887459
O2     0.400470    26.886100     0.834125
O2     0.426189    55.076454     4.152632
O2     5.996315    17.348507     3.936289
O2     5.935902    45.591682     0.642268
O2    15.095004    17.395798     0.619235
O2    15.178958    45.539555     3.945496
O2    12.403536    38.990000     3.941557
O2    12.453775    10.745573     0.627491
O2     3.309341    38.937310     0.626716
O2     3.269371    10.754061     3.888898
O2     7.832109    31.458878     2.375884
O2     7.776005     3.301678     5.675039
O2    16.980545    31.439952     5.610819
O2    16.952016     3.301068     2.403291
O2    10.569987    24.877307     2.373479
O2    10.615185    53.083308     5.683263
O2     1.420378    24.893258     5.612332
O2     1.429717    53.068906     2.415746
O2    12.387390    20.109573     4.329099
O2    12.357192    48.330117     1.008891
O2     3.147189    20.161246     0.959610
O2     3.236361    48.289838     4.335382
O2     6.014796    36.227008     4.333727
O2     5.984574     8.086713     1.022642
O2    15.253414    36.172594     0.959489
O2    15.155834     8.086026     4.297742
O2    10.644124    34.304646     5.900882
O2    10.579171     6.109861     2.657366
O2     1.468423    34.266235     2.657461
O2     1.405620     6.114866     5.925740
O2    16.975199    50.228055     5.919023
O2    16.933411    22.065949     2.653280
O2     7.792486    50.253952     2.672373
O2     7.758024    22.032350     5.898912
O2    10.568804    43.651474     2.381726
O2    10.550524    15.420875     5.697894
O2     1.389792    43.607658     5.705614
O2     1.370566    15.460559     2.386715
O2     7.837429    12.715835     2.383345
O2     7.852520    40.919968     5.702732
O2    17.017095    12.732859     5.666371
O2    17.028513    40.863742     2.378794
O2     3.261903    29.565915     4.111518
O2     3.226869     1.426341     0.889942
O2    12.417213    29.569626     0.810070
O2    12.392017     1.424089     4.157503
O2    15.140726    26.768306     4.110230
O2    15.183184    54.958324     0.864776
O2     5.982384    26.766851     0.811001
O2     5.992241    54.954129     4.161484
O2     1.814256    18.249438     1.879453
O2     1.919583    46.370927     5.164830
O2    11.080983    18.180378     5.144030
O2    11.028853    46.420425     1.880344
O2     7.349644     9.958412     1.884422
O2     7.321714    38.157830     5.147340
O2    16.516347     9.969750     5.146409
O2    16.589662    38.078235     1.884499
O2     2.738009    32.312124     3.548903
O2     2.682079     4.166841     0.278295
O2    11.935480    32.360919     0.258469
O2    11.858844     4.162932     3.551131
O2    15.664877    24.021837     3.545034
O2    15.704181    52.200835     0.270843
O2     6.462560    23.976730     0.257041
O2     6.525324    52.208656     3.574254
O2    16.484989    47.429383     5.215028
O2    16.427222    19.302321     1.851207
O2     7.286752    47.501134     1.847284
O2     7.273714    19.247920     5.199084
O2    11.126871    37.090352     5.200659
O2    11.074456     8.851455     1.841109
O2     1.974294    37.026593     1.848978
O2     1.899508     8.860566     5.112711
O2     6.602612    33.418582     3.581457
O2     6.537813     5.263042     0.329226
O2    15.729240    33.362380     0.305543
O2    15.713453     5.261005     3.599200
O2    11.799596    22.917806     3.579391
O2    11.870861    51.138454     0.331303
O2     2.669146    22.972158     0.304843
O2     2.660295    51.107462     3.612705
O2     6.295820    14.504480     3.402382
O2     6.311398    42.725553     0.168913
O2    15.473114    14.526935     0.153767
O2    15.515746    42.696176     3.377018
O2    12.091964    41.830003     3.383293
O2    12.091040    13.612434     0.147934
O2     2.929798    41.805799     0.170671
O2     2.889998    13.616349     3.369333
O2     7.473993    28.617235     1.806873
O2     7.434068     0.467973     5.131404
O2    16.650938    28.609789     5.077520
O2    16.614628     0.466693     1.861200
O2    10.926798    27.718518     1.805897
O2    10.950766    55.912087     5.131102
O2     1.751649    27.723066     5.075406
O2     1.789538    55.904369     1.851010
O2     3.904843    16.040146     3.022190
O2     3.922255    44.231466     6.298313
O2    13.084302    16.038330     6.280976
O2    13.118593    44.234350     2.994602
O2     5.297045    12.088783     2.997809
O2     5.323215    40.297287     6.296510
O2    14.487152    12.098262     6.290827
O2    14.487150    40.286737     3.008554
O2     9.882289    30.128028     1.431682
O2     9.847186     1.980566     4.770062
O2     0.717389    30.131536     4.720119
O2     0.679519     1.975152     1.489795
O2     8.517880    26.207707     1.431316
O2     8.537921    54.397995     4.771010
O2    17.684892    26.201976     4.719174
O2    17.720505    54.398559     1.488000
O2     9.749824    20.482169     4.724294
O2     9.749095    48.745795     1.424233
O2     0.535240    20.564096     1.405474
O2     0.600984    48.675704     4.718585
O2     8.651770    35.854765     4.727793
O2     8.597732     7.621559     1.419185
O2    17.865125    35.763615     1.407555
O2    17.769352     7.630316     4.688254
O2     4.067412    34.594120     3.236221
O2     4.001457     6.455415     6.536821
O2    13.273324    34.643584     6.372049
O2    13.175157     6.453369     3.266621
O2    14.334621    21.740543     3.231923
O2    14.386507    49.906604     6.520414
O2     5.129489    21.690210     6.372279
O2     5.196816    49.925894     3.272971
O2     8.499866    16.942902     4.797185
O2     8.448002    45.143030     1.528018
O2    17.599261    16.950709     1.523405
O2    17.687761    45.124827     4.785285
O2     9.901154    39.397480     4.801072
O2     9.945978    11.216420     1.519436
O2     0.805052    39.379874     1.528222
O2     0.765848    11.224287     4.786370
O2     5.330737    31.101366     3.241557
O2     5.269892     2.952267     6.511496
O2    14.477007    31.062450     6.455820
O2    14.445965     2.948243     3.244191
O2    13.072119    25.233891     3.238943
O2    13.126831    53.449227     6.520403
O2     3.923825    25.271125     6.457512
O2     3.935335    53.421093     3.265479
O2     7.956587    18.503172     2.726551
O2     7.873708    46.633988     5.935148
O2    17.040538    18.462566     5.941591
O2    17.124691    46.705692     2.722403
O2    10.442975    37.836961     2.729436
O2    10.493146     9.712201     5.933471
O2     1.366280    37.872483     5.941882
O2     1.306325     9.711765     2.662478
O2    15.039690    32.626450     4.385907
O2    15.028923     4.479576     1.155770
O2     5.899413    32.616567     1.141820
O2     5.856525     4.488225     4.426818
O2    12.546129    51.936795     4.426419
O2    12.502841    23.718435     1.139576
O2     3.352532    51.900363     1.170257
O2     3.360883    23.708977     4.386281
O2    10.589669    19.065172     2.657548
O2    10.515285    47.233635     5.943124
O2     1.340070    19.064403     5.921567
O2     1.429051    47.223616     2.672900
O2     7.810794    37.271781     2.661028
O2     7.843109     9.140146     5.933925
O2    17.066957    37.266370     5.925456
O2    17.002799     9.139645     2.655500
O2    12.419440    33.238199     4.299152
O2    12.418614     5.111291     1.096960
O2     3.284479    33.233161     1.086875
O2     3.244612     5.114763     4.367056
O2     5.980473    23.095673     4.298028
O2     5.965837    51.278952     1.114670
O2    15.117843    23.101103     1.082787
O2    15.148112    51.244622     4.353006
O2     3.306454    14.498896     0.913294
O2     3.318642    42.642716     4.230381
O2    12.470529    14.463716     4.207707
O2    12.505578    42.686965     0.907815
O2     5.891968    13.661274     0.919081
O2     5.922730    41.880159     4.226605
O2    15.069820    13.687935     4.216873
O2    15.090878    41.838866     0.912062
O2    10.495537    28.580619     5.880888
O2    10.455189     0.452773     2.667014
O2     1.321563    28.602848     2.613409
O2     1.305329     0.448776     5.931523
O2     7.906974    27.752898     5.881213
O2     7.926195    55.929303     2.668958
O2    17.080650    27.733752     2.614230
O2    17.119577    55.940916     5.936047
O1     5.173639    17.908203     0.447648
H      5.187265    17.030870     0.017474
H      5.670265    18.487320     6.375664
O1    14.507805    46.107091     0.376980
H     14.581548    45.246684     6.461047
H     14.958222    46.746072     6.328996
O1    13.234895    38.438608     0.443096
H     13.225313    39.314440     0.009641
H     12.740543    37.857087     6.371541
O1     8.686665    31.986629     5.364767
H      8.657541    31.102437     4.950324
H      8.199725    32.563971     4.740788
O1     8.561252     3.800171     2.175373
H      8.553789     2.918701     1.755476
H      8.115273     4.382413     1.526472
O1    17.762467    31.966708     2.149349
H     17.772228    31.087402     1.723551
H     17.314862    32.546133     1.498408
O1    17.739106     3.800934     5.443547
H     17.740797     2.921053     5.020406
H     17.295136     4.382889     4.792983
O1     9.716657    24.348880     5.362686
H      9.745548    25.233261     4.948631
H     10.204814    23.772175     4.739111
O1     9.812867    52.569988     2.183796
H      9.810328    53.452403     1.765118
H     10.238943    51.988597     1.520486
O1     0.634480    24.369791     2.146483
H      0.625052    25.249797     1.722116
H      1.079876    23.790737     1.493722
O1     0.604316    52.549920     5.405703
H      0.633135    53.435793     4.995328
H      1.079148    51.972073     4.773385
O1     3.797228    19.498810     4.499873
H      3.054028    19.299796     5.102424
H      4.373372    20.087043     5.031887
O1    14.605698    36.833091     4.500733
H     15.348885    37.031949     5.103465
H     14.030015    36.243993     5.032321
O1     9.976568    33.630026     2.880760
H     10.703922    33.441227     3.505614
H      9.363934    34.190064     3.402089
O1     9.864360     5.361053     6.237983
H     10.660006     5.319906     0.258569
H      9.244673     5.924685     0.206819
O1     0.737579    33.525791     6.219603
H      1.533863    33.465455     0.237659
H      0.145284    34.125665     0.180079
O1     0.689297     5.365210     2.963453
H      1.486705     5.324330     3.527220
H      0.072390     5.931301     3.472803
O1     8.422877    22.708195     2.878175
H      7.695216    22.896722     3.502770
H      9.036523    22.150157     3.400429
O1     8.525005    50.993960     6.254632
H      7.728806    51.049238     0.278132
H      9.120278    50.395194     0.206025
O1    17.666595    22.804581     6.216320
H     16.867310    22.867572     0.234720
H     18.255299    22.206280     0.175979
O1    17.625020    50.920064     2.916016
H     16.875245    51.075666     3.523496
H     18.241945    50.372729     3.445705
O1    10.290633    15.173260     2.439239
H     10.209953    16.065581     2.040199
H     11.169755    15.196077     2.870942
O1    10.325893    43.384052     5.702884
H     10.225669    44.274402     5.302769
H     11.203608    43.429015     6.135191
O1     1.140594    15.203911     5.695555
H      1.043217    16.092572     5.291730
H      2.015017    15.250670     6.134610
O1     1.133874    43.350715     2.439592
H      1.037770    44.242782     2.042970
H      2.013078    43.387289     2.870141
O1     8.116577    41.179249     2.441826
H      8.200621    40.287539     2.041930
H      7.236796    41.153679     2.872229
O1     8.081154    12.984670     5.706663
H      8.171216    12.095074     5.303176
H      7.199696    12.952110     6.132489
O1    17.268749    41.133665     5.700696
H     17.367750    40.245454     5.296166
H     16.390397    41.088022     6.131894
O1    17.257938    12.999486     2.430393
H     17.354870    12.110335     2.027240
H     16.381155    12.957223     2.864805
O1    12.700152    29.295730     4.105768
H     12.799013    30.182640     3.698130
H     11.821324    29.340761     4.537134
O1    12.667168     1.206956     0.882590
H     12.768622     2.100324     0.489271
H     11.782469     1.244327     1.303486
O1     3.523441    29.338063     0.848804
H      3.618156    30.233758     0.459474
H      2.638861    29.368482     1.270175
O1     3.508333     1.206411     4.151224
H      3.620001     2.098163     3.756989
H      2.625033     1.255331     4.573688
O1     5.701481    27.039360     4.106393
H      5.602839    26.152643     3.698319
H      6.580581    26.994630     4.537248
O1     5.719555    55.182449     0.889884
H      5.614906    54.289402     0.496767
H      6.604658    55.141844     1.309485
O1    14.877247    26.997977     0.847589
H     14.783388    26.102693     0.457128
H     15.762215    26.968313     1.268230
O1    14.901919    55.212625     4.154598
H     14.811197    54.324522     3.747411
H     15.784092    55.177913     4.580581
O1     5.926612    20.161391     2.418569
H      6.872420    20.124633     2.177200
H      5.814366    21.048995     2.812588
O1    14.973647    48.262418     2.657082
H     15.903875    48.312599     2.357862
H     14.810753    49.133236     3.069979
O1    12.473857    36.177443     2.414506
H     11.527149    36.217725     2.177080
H     12.584385    35.289337     2.807995
O1    17.063627    34.292234     4.052872
H     16.114927    34.246758     3.824605
H     17.182505    35.195203     4.407153
O1    17.068652     6.119109     0.757156
H     16.127301     6.045559     0.505685
H     17.149330     7.006391     1.157311
O1     7.933248    34.266548     0.723728
H      6.987374    34.189829     0.489573
H      8.007656    35.136973     1.161554
O1     7.902888     6.118715     4.031687
H      6.961595     6.045678     3.779734
H      7.983392     7.004577     4.434982
O1    10.510578    50.246562     4.058464
H     11.452791    50.309849     3.807636
H     10.412593    49.344146     4.420539
O1    10.466321    22.072611     0.720532
H     11.412209    22.149990     0.486645
H     10.392508    21.202327     1.158663
O1     1.320339    50.262274     0.752221
H      2.266351    50.335078     0.517889
H      1.240043    49.388003     1.180545
O1     1.338413    22.042884     4.047210
H      2.287467    22.088984     3.820622
H      1.220051    21.140628     4.403479

