518
-14350.1568890740
Si     4.599769    14.066057     0.000000
Si     4.644943    42.220741     3.285488
Si    13.758439    14.066485     3.272826
Si    13.793609    42.209283     6.538607
Si     9.188095    28.117004     5.009949
Si     9.157608     0.011009     1.746238
Si     0.048843    28.119260     1.742746
Si    18.316415     0.012265     5.019381
Si     9.199858    18.683122     1.726214
Si     9.233806    46.839026     5.004086
Si     0.038249    18.683460     4.998995
Si     0.081590    46.834028     1.728827
Si     9.172248    37.565233     1.755578
Si     9.157478     9.449230     5.001711
Si     0.065001    37.577737     5.004024
Si    18.318084     9.448728     1.728536
Si    13.776289    32.837480     3.451331
Si    13.732095     4.776698     0.182951
Si     4.623427    32.873823     0.194809
Si     4.571744     4.777194     3.456524
Si     4.626075    23.352935     3.453097
Si     4.662763    51.511921     0.186412
Si    13.786541    23.357919     0.178439
Si    13.824271    51.510171     3.457072
Si     2.883810    14.884727     2.437855
Si     2.920438    43.034460     5.723417
Si    12.042584    14.885144     5.710591
Si    12.082179    43.053838     2.427916
Si     6.314392    13.246898     2.438885
Si     6.349897    41.405178     5.725842
Si    15.473015    13.247467     5.711792
Si    15.514568    41.386768     2.425553
Si    10.906879    28.961182     0.897416
Si    10.870957     0.857524     4.182231
Si     1.760551    28.968144     4.178902
Si     1.712371     0.856015     0.909182
Si     7.481347    27.277740     0.901217
Si     7.522806    55.431788     4.182105
Si    16.651314    27.275052     4.176836
Si    16.684028    55.430712     0.908777
Si    10.859303    19.485886     4.164967
Si    10.894512    47.645665     0.896272
Si     1.700124    19.483854     0.891398
Si     1.737361    47.637569     4.168031
Si     7.529267    36.788509     4.192225
Si     7.498532     8.647533     0.893572
Si    16.730282    36.753474     0.897256
Si    16.657398     8.648057     4.166735
Si    12.108781    33.624452     5.898328
Si    12.057022     5.498022     2.633037
Si     2.956905    33.609191     2.645638
Si     2.896542     5.498462     5.906625
Si    15.498286    50.788920     5.907545
Si    15.460317    22.634957     2.629459
Si     6.336409    50.791232     2.637647
Si     6.300443    22.634964     5.903957
Si     7.413779    18.019004     4.163267
Si     7.447187    46.178187     0.894388
Si    16.573674    18.018120     0.889922
Si    16.614085    46.169045     4.166778
Si    10.963702    38.269692     4.190950
Si    10.944341    10.113228     0.893003
Si     1.838881    38.251548     0.897957
Si     1.783999    10.113819     4.166235
Si     6.385787    32.107273     2.640442
Si     6.329558     3.992026     5.902333
Si    15.531527    32.082291     5.907575
Si    15.490053     3.991355     2.628657
Si    12.027651    24.143001     2.623422
Si    12.065343    52.298027     5.901344
Si     2.868012    24.139491     5.897828
Si     2.904199    52.295883     2.631829
Al    14.504613    43.906154     4.047686
Al    14.457109    15.758306     0.794198
Al     5.332136    43.916230     0.806545
Al     5.296962    15.759010     4.067639
Al    13.087286    40.538886     4.048224
Al    13.061233    12.372646     0.794442
Al     3.942266    40.525838     0.807971
Al     3.900861    12.373350     4.067985
Al     8.472914    29.802080     2.504864
Al     8.428624     1.692800     5.786078
Al    17.640415    29.798722     5.782693
Al    17.588867     1.691798     2.512844
Al     9.923831    26.440095     2.505935
Al     9.965400    54.596956     5.786683
Al     0.772504    26.441014     5.782058
Al     0.806200    54.595470     2.513904
Al    17.622575    48.570673     5.774660
Al    17.585625    20.418932     2.497665
Al     8.462190    48.577620     2.501968
Al     8.425422    20.419412     5.771320
Al     9.987995    35.864534     5.809729
Al     9.931666     7.713492     2.501214
Al     0.853807    35.846079     2.505482
Al     0.771328     7.713993     5.774433
Al     5.458635    34.515117     4.246340
Al     5.402513     6.404155     0.957686
Al    14.610875    34.516277     0.952499
Al    14.561345     6.404724     4.230401
Al    12.955177    21.729591     4.226461
Al    12.994318    49.884554     0.958233
Al     3.797221    21.725849     0.954462
Al     3.832076    49.882603     4.234658
Al     9.890257    45.190730     2.511731
Al     9.856715    17.029775     5.781455
Al     0.735264    45.177767     5.784411
Al     0.696889    17.028441     2.508189
Al     8.501382    11.103464     2.509878
Al     8.512065    39.243419     5.802189
Al    17.660042    11.103999     5.783043
Al    17.701165    39.223047     2.510357
Al     3.900055    31.161297     4.244584
Al     3.849278     3.051528     0.960380
Al    13.044061    31.152396     0.949653
Al    13.008186     3.052390     4.233103
Al    14.510382    25.082163     4.228276
Al    14.548550    53.234414     0.959838
Al     5.349559    25.078652     0.957287
Al     5.385055    53.237003     4.236623
Na     8.732995    14.563996     4.059201
Na     8.767414    42.724597     0.794721
Na    17.893438    14.562774     0.785820
Na    17.929106    42.699773     4.062884
Na     9.666423    41.712866     4.071934
Na     9.625057    13.567550     0.786057
Na     0.500350    41.689918     0.784302
Na     0.464744    13.567990     4.059222
Na     5.071849    28.653005     2.556322
Na     5.028290     0.540658     5.829451
Na    14.237052    28.641397     5.822536
Na    14.188718     0.539936     2.555499
Na    13.330841    27.586204     2.542297
Na    13.366097    55.747894     5.828765
Na     4.168445    27.592667     5.828575
Na     4.206073    55.746543     2.556379
Ca     4.274227    18.385073     2.418056
Ca     4.305580    46.537320     5.697467
Ca    13.434581    18.384932     5.688071
Ca    13.463049    46.557156     2.446154
Ca     4.924531     9.744402     2.422230
Ca     4.924300    37.904749     5.664767
Ca    14.083177     9.744836     5.695089
Ca    14.071674    37.897508     2.301708
Ca     9.467070    32.522551     0.871379
Ca     9.422244     4.410403     4.160157
Ca     0.307558    32.546182     4.173019
Ca     0.263513     4.409266     0.886794
Ca     8.937109    23.719885     0.880856
Ca     8.971101    51.878749     4.162260
Ca    18.095656    23.722902     4.156393
Ca    18.134538    51.873830     0.889245
O2     9.578298    45.499329     4.184227
O2     9.543603    17.344674     0.904873
O2     0.426036    45.495710     0.908016
O2     0.381478    17.344844     4.177734
O2     8.815307    10.787856     4.179863
O2     8.848081    38.895276     0.917746
O2    17.975722    10.787337     0.906708
O2    18.037012    38.914990     4.179340
O2    13.371240    31.545788     2.600514
O2    13.354411     3.485123     5.865836
O2     4.247045    31.577636     5.882512
O2     4.195534     3.484521     2.593017
O2     5.001746    24.645541     2.589233
O2     5.038286    52.806121     5.869707
O2    14.162603    24.651725     5.861448
O2    14.199525    52.802248     2.592189
O2     8.972194    19.929953     0.784078
O2     9.009089    48.084124     4.058950
O2    18.129876    19.930528     4.057160
O2    18.170341    48.080730     0.786815
O2     0.226846     8.201636     0.786853
O2     0.311205    36.330190     4.065117
O2     9.385407     8.202110     4.060044
O2     9.448521    36.298719     0.844955
O2    14.171602    34.114652     2.583783
O2    14.155015     6.057576     5.875520
O2     5.046514    34.148129     5.882301
O2     4.996494     6.056906     2.602863
O2     4.202894    22.072692     2.599768
O2     4.236808    50.233654     5.879160
O2    13.359959    22.079849     5.871089
O2    13.401173    50.229073     2.604186
O2    14.118003    43.486306     5.656858
O2    14.075761    15.364015     2.413130
O2     4.955511    43.520853     2.426688
O2     4.915894    15.364556     5.686540
O2    13.438802    40.904319     5.691682
O2    13.441819    12.769289     2.412802
O2     4.333092    40.922385     2.424844
O2     4.281066    12.770094     5.686408
O2     8.829576    29.402665     4.139312
O2     8.786939     1.292664     0.874864
O2    18.000100    29.401141     0.871647
O2    17.945822     1.294151     4.148239
O2     9.556001    26.834237     4.139612
O2     9.609692    54.993370     0.875794
O2     0.418482    26.836612     0.871886
O2     0.448110    54.994569     4.148726
O2     5.924095    17.389660     3.883164
O2     5.957321    45.547818     0.617361
O2    15.083919    17.389029     0.609717
O2    15.123797    45.541911     3.886300
O2    12.424103    38.936471     3.933969
O2    12.434292    10.741883     0.612104
O2     3.324402    38.894918     0.621639
O2     3.273956    10.742559     3.885561
O2     7.829696    31.412011     2.401811
O2     7.771585     3.295566     5.669482
O2    16.978280    31.398558     5.672475
O2    16.931892     3.294620     2.395461
O2    10.585299    24.839548     2.389383
O2    10.623743    52.995058     5.667798
O2     1.427377    24.837529     5.663838
O2     1.462128    52.992334     2.398192
O2    12.385044    20.052258     4.281752
O2    12.420932    48.209353     1.013816
O2     3.226475    20.048836     1.007961
O2     3.262695    48.204927     4.289526
O2     6.019271    36.192643     4.319579
O2     5.972764     8.081543     1.011464
O2    15.230929    36.154694     0.996122
O2    15.131613     8.082067     4.284336
O2    10.619920    34.248897     5.906629
O2    10.561702     6.103264     2.642876
O2     1.469974    34.228577     2.654320
O2     1.401230     6.103720     5.916257
O2    16.992402    50.181426     5.917495
O2    16.955302    22.029224     2.638778
O2     7.832369    50.187373     2.648217
O2     7.795932    22.029951     5.914031
O2    10.562264    43.577159     2.376107
O2    10.522648    15.410941     5.659702
O2     1.400605    43.558544     5.662432
O2     1.363610    15.409888     2.386954
O2     7.834670    12.722112     2.387966
O2     7.867385    40.870600     5.694357
O2    16.993281    12.722630     5.660950
O2    17.027876    40.843354     2.380497
O2     3.273569    29.524732     4.146982
O2     3.223987     1.414589     0.876559
O2    12.415889    29.519781     0.850668
O2    12.382729     1.415569     4.149053
O2    15.138722    26.718024     4.143057
O2    15.172683    54.871777     0.875916
O2     5.971024    26.717484     0.875148
O2     6.010958    54.873911     4.150329
O2     1.866148    18.168966     1.864577
O2     1.902409    46.320722     5.139119
O2    11.025896    18.170570     5.137585
O2    11.058055    46.335279     1.874824
O2     7.332285     9.962896     1.866195
O2     7.336041    38.110660     5.151144
O2    16.490983     9.963358     5.139416
O2    16.555310    38.070849     1.863257
O2     2.734718    32.271414     3.558731
O2     2.681168     4.154167     0.266203
O2    11.891257    32.276758     0.255253
O2    11.840078     4.155062     3.539102
O2    15.677468    23.977866     3.535624
O2    15.717099    52.130645     0.267750
O2     6.519369    23.977516     0.263004
O2     6.553400    52.134585     3.543291
O2    16.495806    47.434635     5.106558
O2    16.458339    19.282530     1.831028
O2     7.333504    47.444222     1.833227
O2     7.298005    19.283678     5.104058
O2    11.115122    37.046313     5.201911
O2    11.059600     8.849849     1.835414
O2     1.979452    36.986256     1.836819
O2     1.899225     8.850294     5.108453
O2     6.600475    33.375725     3.596107
O2     6.535824     5.257219     0.314921
O2    15.723594    33.346369     0.314437
O2    15.694660     5.257597     3.587861
O2    11.822367    22.876739     3.582194
O2    11.861926    51.032523     0.316381
O2     2.664117    22.873030     0.311766
O2     2.699193    51.029249     3.589994
O2     6.288993    14.520792     3.401893
O2     6.325610    42.679565     0.140394
O2    15.449206    14.519970     0.128687
O2    15.501512    42.678500     3.368924
O2    12.101210    41.786757     3.397297
O2    12.069163    13.610329     0.127417
O2     2.945081    41.763354     0.145473
O2     2.908874    13.610898     3.400697
O2     7.465935    28.576650     1.836069
O2     7.424855     0.463922     5.119063
O2    16.635917    28.568944     5.116969
O2    16.585036     0.462368     1.846620
O2    10.926871    27.673892     1.846155
O2    10.968930    55.826993     5.121242
O2     1.775743    27.672081     5.117405
O2     1.810329    55.824916     1.847595
O2     3.896390    16.038766     3.001708
O2     3.929022    44.192398     6.287584
O2    13.055400    16.039160     6.273909
O2    13.100615    44.203511     2.989058
O2     5.301743    12.092995     3.002668
O2     5.332566    40.253315     6.278452
O2    14.460258    12.093519     6.275275
O2    14.487805    40.258164     2.999304
O2     9.879811    30.079349     1.473832
O2     9.838975     1.968524     4.760533
O2     0.729741    30.079144     4.757061
O2     0.680134     1.966807     1.487396
O2     8.517019    26.168660     1.475717
O2     8.555024    54.321740     4.761426
O2    17.681722    26.163283     4.756128
O2    17.715918    54.320434     1.487630
O2     9.773918    20.510132     4.681480
O2     9.809016    48.671941     1.409418
O2     0.615260    20.508601     1.407985
O2     0.651270    48.661483     4.683888
O2     8.653002    35.804954     4.707358
O2     8.584289     7.623784     1.410005
O2    17.838095    35.745426     1.408530
O2    17.743035     7.624251     4.683285
O2     4.063610    34.553345     3.258025
O2     3.994657     6.446236     6.529236
O2    13.206541    34.572303     6.511207
O2    13.155320     6.445762     3.255398
O2    14.361363    21.687859     3.251686
O2    14.397770    49.842862     6.528585
O2     5.202249    21.687579     6.526742
O2     5.238621    49.843386     3.260210
O2     8.430266    16.920858     4.776177
O2     8.462945    45.080502     1.508698
O2    17.589929    16.919450     1.502345
O2    17.627320    45.068979     4.780760
O2     9.914823    39.351717     4.774056
O2     9.928110    11.212536     1.504707
O2     0.815009    39.342068     1.509528
O2     0.767665    11.213026     4.777952
O2     5.324885    31.061834     3.250898
O2     5.266733     2.945224     6.507813
O2    14.468842    31.033042     6.511054
O2    14.427241     2.944531     3.234119
O2    13.090494    25.189814     3.229420
O2    13.129033    53.344699     6.505425
O2     3.930962    25.186433     6.502377
O2     3.965933    53.343709     3.237702
O2     7.881204    18.429221     2.650032
O2     7.913943    46.586526     5.926638
O2    17.038650    18.429852     5.922862
O2    17.084486    46.580274     2.655186
O2    10.478719    37.774708     2.708365
O2    10.475400     9.702838     5.926560
O2     1.391306    37.843554     5.923825
O2     1.316898     9.702443     2.653320
O2    15.048499    32.541805     4.413976
O2    15.011730     4.474597     1.144405
O2     5.908736    32.579419     1.153566
O2     5.851408     4.474896     4.417892
O2    12.543763    51.812213     4.417725
O2    12.506171    23.661570     1.138833
O2     3.382676    51.814739     1.147058
O2     3.346124    23.654566     4.414026
O2    10.530709    18.997462     2.648157
O2    10.564399    47.154125     5.926776
O2     1.369336    18.996759     5.920993
O2     1.413083    47.152267     2.649337
O2     7.829934    37.257912     2.660338
O2     7.825363     9.136617     5.922705
O2    17.067840    37.252623     5.928823
O2    16.986062     9.136048     2.649615
O2    12.448274    33.236069     4.340896
O2    12.401552     5.104262     1.084128
O2     3.295909    33.200583     1.098547
O2     3.241283     5.104814     4.357762
O2     5.956772    23.027563     4.354761
O2     5.992663    51.184985     1.088686
O2    15.115924    23.030010     1.080838
O2    15.154637    51.184018     4.358672
O2     3.302222    14.461996     0.921611
O2     3.348214    42.607049     4.210996
O2    12.460711    14.461952     4.194391
O2    12.504917    42.622539     0.914580
O2     5.896379    13.670539     0.922804
O2     5.947262    41.829307     4.204564
O2    15.055118    13.671395     4.195723
O2    15.094290    41.801867     0.903249
O2    10.480120    28.537665     5.923876
O2    10.449853     0.440525     2.657642
O2     1.341394    28.547736     2.654437
O2     1.289993     0.441100     5.930543
O2     7.892290    27.694494     5.919435
O2     7.944236    55.846571     2.656733
O2    17.073746    27.691017     2.652425
O2    17.103238    55.848400     5.930187
O1    13.075114    38.364890     0.373254
H     12.996712    39.226517     6.463826
H     12.631637    37.724354     6.324995
O1     8.650146    31.929016     5.392873
H      8.621544    31.043470     4.981833
H      8.178780    32.508054     4.759076
O1     8.556646     3.787559     2.163354
H      8.551624     2.905730     1.744259
H      8.118182     4.370014     1.509576
O1    17.779893    31.908859     2.167265
H     17.782566    31.026125     1.749329
H     17.361965    32.491345     1.499770
O1    17.714616     3.788668     5.436473
H     17.710051     2.907109     5.016798
H     17.275635     4.371292     4.783200
O1     9.803585    24.342282     5.431399
H      9.801429    25.221838     5.007606
H     10.244383    23.759302     4.779636
O1     9.842206    52.499405     2.166171
H      9.846947    53.380504     1.745533
H     10.282293    51.916291     1.514037
O1     0.644678    24.341870     2.159345
H      0.651507    25.223340     1.739506
H      1.084652    23.758593     1.507323
O1     0.676065    52.498832     5.437720
H      0.681318    53.380594     5.018494
H      1.112395    51.915757     4.783017
O1     9.971648    33.559507     2.902031
H     10.720689    33.404274     3.510509
H      9.353042    34.105075     3.431598
O1     9.845278     5.357782     6.227730
H     10.643410     5.315372     0.246475
H      9.227678     5.918847     0.191961
O1     0.737471    33.490877     6.240790
H      1.532726    33.435291     0.262551
H      0.142718    34.091807     0.186998
O1     0.687045     5.356459     2.954428
H      1.483534     5.315221     3.519439
H      0.067808     5.918679     3.465140
O1     8.510713    22.777973     2.950142
H      7.713501    22.818509     3.514217
H      9.129130    22.214796     3.460841
O1     8.546133    50.934727     6.231082
H      7.750998    50.975144     0.249265
H      9.166170    50.370299     0.195510
O1    17.669882    22.776320     6.224148
H     16.875442    22.817299     0.243222
H     18.290791    22.213000     0.188699
O1    17.710839    50.926483     2.956732
H     16.915230    50.968151     3.522929
H     18.329244    50.360892     3.464818
O1    10.291725    15.158601     2.420839
H     10.198314    16.047810     2.017348
H     11.168866    15.197757     2.854731
O1    10.323135    43.309598     5.696092
H     10.227452    44.198926     5.293320
H     11.204161    43.347729     6.122102
O1     1.131294    15.159362     5.694090
H      1.037406    16.048582     5.290717
H      2.008369    15.198957     6.128083
O1     1.164364    43.295340     2.420530
H      1.067283    44.184070     2.016614
H      2.041886    43.337551     2.853574
O1     8.113324    41.114612     2.426249
H      8.205135    40.222666     2.028690
H      7.234242    41.081243     2.857225
O1     8.064474    12.973845     5.694811
H      8.158507    12.084480     5.291766
H      7.187351    12.934277     6.128710
O1    17.258105    41.095267     5.686412
H     17.362070    40.204975     5.287243
H     16.385409    41.043372     6.127843
O1    17.224841    12.973096     2.421688
H     17.318843    12.083686     2.018726
H     16.347693    12.933612     2.855536
O1    12.692636    29.267603     4.140135
H     12.784496    30.155332     3.732441
H     11.810622    29.303934     4.566260
O1    12.658682     1.194814     0.869059
H     12.765820     2.087075     0.474728
H     11.774053     1.238334     1.289427
O1     3.542261    29.298296     0.872664
H      3.647953    30.190641     0.478283
H      2.657427    29.340808     1.292587
O1     3.498196     1.195451     4.142752
H      3.605443     2.087616     3.748243
H      2.613719     1.239269     4.563409
O1     5.694344    26.935400     4.136917
H      5.581653    26.044017     3.742197
H      6.577424    26.884942     4.559601
O1     5.737170    55.092945     0.870563
H      5.629345    54.200274     0.477338
H      6.621302    55.048755     1.291870
O1    14.867508    26.933323     0.865446
H     14.764970    26.040685     0.470795
H     15.751965    26.893988     1.286626
O1    14.896104    55.092378     4.141784
H     14.788539    54.200077     3.747661
H     15.780402    55.048238     4.562784
O1    12.625360    36.215542     2.651553
H     11.697176    36.159913     2.347017
H     12.790097    35.346827     3.067973
O1    17.076599    34.235339     4.039328
H     16.134498    34.173430     3.787960
H     17.174507    35.135978     4.405780
O1    17.050580     6.110607     0.741904
H     16.109389     6.037980     0.489588
H     17.129553     6.994262     1.150324
O1     7.936071    34.220028     0.735102
H      6.990478    34.148664     0.498693
H      8.015549    35.092204     1.167819
O1     7.889999     6.111300     4.014591
H      6.948782     6.038397     3.762455
H      7.968730     6.994916     4.423152
O1    10.503330    50.177326     4.020316
H     11.444370    50.250068     3.767468
H     10.423580    49.292675     4.426394
O1    10.470393    22.020274     0.740506
H     11.411183    22.092189     0.486477
H     10.390914    21.135746     1.146933
O1     1.347213    50.173442     0.744026
H      2.288455    50.245667     0.491813
H      1.267448    49.288971     1.150636
O1     1.307255    22.020297     4.013417
H      2.248323    22.091621     3.760320
H      1.227438    21.136727     4.421844

