467
-14176.5663553674
Si     4.559372    13.995234     0.000000
Si     4.566254    42.028420     3.293794
Si    13.661001    13.991014     3.264519
Si    13.689910    42.022562     0.024285
Si     9.118369    28.004559     4.955735
Si     9.130437    55.964548     1.679797
Si     0.017452    28.005404     1.717469
Si     0.036924    55.954456     4.937211
Si     9.124815    18.640418     1.672159
Si     9.114797    46.715250     4.964809
Si    18.193261    18.658871     4.990704
Si    18.221548    46.725924     1.686984
Si     9.117302    37.374621     1.687903
Si     9.124328     9.318523     4.979070
Si     0.043737    37.345174     5.008956
Si    18.200125     9.344733     1.665631
Si    13.724667    32.748444     3.374515
Si    13.616007     4.719992     0.103069
Si     4.525738    32.748101     0.124485
Si     4.594597     4.723152     3.345136
Si     4.513560    23.262131     3.363304
Si     4.577222    51.261073     0.044907
Si    13.715295    23.268732     0.116486
Si    13.660241    51.260094     3.330717
Si     2.842640    14.811598     2.441410
Si     2.859266    42.819411     5.738259
Si    11.951091    14.788949     5.705600
Si    11.972341    42.830951     2.462526
Si     6.274411    13.173854     2.440722
Si     6.281553    41.213642     5.731696
Si    15.369658    13.192099     5.705400
Si    15.402850    41.205372     2.468598
Si    10.833152    28.856807     0.838441
Si    10.802722     0.780235     4.123523
Si     1.727346    28.798868     4.163166
Si     1.714344     0.814255     0.823946
Si     7.408562    27.159556     0.835597
Si     7.409080    55.162027     4.121472
Si    16.510360    27.212891     4.159996
Si    16.525409    55.137157     0.819025
Si    10.816919    19.408125     4.112080
Si    10.855032    47.392595     0.856299
Si     1.700587    19.372436     0.881422
Si     1.754624    47.394730     4.132219
Si     7.422578    36.601046     4.125239
Si     7.415485     8.614166     0.867230
Si    16.540770    36.643230     0.897079
Si    16.505231     8.576862     4.103146
Si    12.001251    33.461602     5.828754
Si    11.915594     5.389275     2.546777
Si     2.830036    33.411640     2.568591
Si     2.873505     5.428215     5.800076
Si    15.399804    50.576519     5.774961
Si    15.409590    22.599712     2.561555
Si     6.308272    50.588033     2.490329
Si     6.235311    22.545116     5.818094
Si     7.370046    17.946312     4.118732
Si     7.384129    45.993496     0.850858
Si    16.442028    17.981119     0.875552
Si    16.489846    45.992361     4.127415
Si    10.871252    38.065223     4.136965
Si    10.881422    10.008115     0.865471
Si     1.800124    38.033618     0.896448
Si     1.747363    10.035940     4.114793
Si     6.286107    31.972037     2.565361
Si     6.315180     3.976564     5.797537
Si    15.445085    32.005438     5.827175
Si    15.374444     3.946184     2.544520
Si    11.953714    24.040922     2.556986
Si    11.926106    51.981575     5.772551
Si     2.791659    24.002201     5.815442
Si     2.840381    51.987431     2.486358
Al    14.383885    43.713921     4.099782
Al    14.349901    15.695072     0.791389
Al     5.273164    43.717255     0.817331
Al     5.257031    15.682397     4.072157
Al    12.988048    40.326872     4.093910
Al    12.974904    12.293713     0.788102
Al     3.888508    40.320344     0.815816
Al     3.859459    12.300216     4.069290
Al     8.393387    29.683812     2.448499
Al     8.397759     1.677573     5.756511
Al    17.531521    29.707101     5.794942
Al    17.495417     1.663997     2.443732
Al     9.846849    26.330248     2.446425
Al     9.816154    54.259225     5.754378
Al     0.705774    26.301261     5.792779
Al     0.747001    54.271837     2.442141
Al    17.520343    48.389271     5.734347
Al    17.479977    20.362918     2.490242
Al     8.417191    48.390103     2.458099
Al     8.381028    20.360127     5.719524
Al     9.857261    35.648672     5.732711
Al     9.842493     7.624037     2.475714
Al     0.759918    35.649697     2.506277
Al     0.733520     7.620138     5.710879
Al     5.325303    34.370804     4.180150
Al     5.324217     6.392818     0.842455
Al    14.451138    34.422511     0.871088
Al    14.410885     6.346094     4.158517
Al    12.913193    21.639220     4.169112
Al    12.966731    49.587335     0.819690
Al     3.791161    21.593097     0.856487
Al     3.869729    49.589441     4.090555
Al     9.819956    44.995813     2.476073
Al     9.805837    16.963039     5.736317
Al     0.719668    44.996850     5.752985
Al     0.674286    16.965410     2.500686
Al     8.441805    11.019403     2.490750
Al     8.432643    39.044632     5.752966
Al    17.516139    11.018533     5.731999
Al    17.567472    39.047717     2.520599
Al     3.822978    31.001688     4.178363
Al     3.867753     3.005342     0.858346
Al    12.994709    31.038663     0.886024
Al    12.905310     2.979688     4.155540
Al    14.416571    25.008200     4.173575
Al    14.367326    52.978294     0.843007
Al     5.247362    24.976925     0.878204
Al     5.271308    52.986289     4.114312
Na     8.683096    14.474702     4.053797
Na     8.717209    42.515288     0.783978
Na    17.791344    14.502527     0.771915
Na    17.813527    42.509962     4.079085
Na     9.552230    41.539641     4.069780
Na     9.533308    13.490197     0.770449
Na     0.454189    41.523596     0.805012
Na     0.434058    13.510961     4.054683
Na     5.013412    28.503806     2.497348
Na     4.947866     0.500103     5.716343
Na    14.079081    28.531492     5.758384
Na    14.089590     0.494828     2.465717
Na    13.227159    27.511907     2.497291
Na    13.258020    55.466994     5.730335
Na     4.158574    27.479847     5.756758
Na     4.155210    55.490602     2.443397
Ca     4.244910    18.314976     2.433245
Ca     4.323913    46.289787     5.616503
Ca    13.406121    18.268231     5.578067
Ca    13.423636    46.291287     2.351072
Ca     4.870982     9.675769     2.418962
Ca     4.833887    37.743316     5.598151
Ca    13.912068     9.723227     5.559555
Ca    13.995149    37.705248     2.441730
Ca     9.385405    32.393766     0.824839
Ca     9.308567     4.232187     3.934441
Ca     0.231795    32.262192     3.971669
Ca     0.261926     4.367848     0.800897
Ca     8.856024    23.626745     0.815228
Ca     8.866887    51.693048     3.989149
Ca    18.011385    23.761344     3.948010
Ca    17.965468    51.680641     0.731910
O2     9.460119    45.404149     4.105703
O2     9.483649    17.316874     0.838393
O2     0.362566    45.417456     0.825361
O2     0.322552    17.332139     4.146146
O2     8.790753    10.645315     4.134987
O2     8.758770    38.698918     0.855557
O2    17.843178    10.668924     0.832924
O2    17.915895    38.671592     4.164310
O2    13.370089    31.437966     2.519511
O2    13.232466     3.429946     5.781683
O2     4.149512    31.455686     5.803565
O2     4.244023     3.412446     2.489141
O2     4.869097    24.573010     2.509971
O2     4.918545    52.567620     5.742409
O2    14.088327    24.550101     5.797301
O2    14.009282    52.571457     2.474089
O2     8.880547    19.903478     0.751898
O2     8.831287    48.000762     4.085695
O2    17.928184    19.926678     4.089801
O2    17.936494    48.013864     0.810564
O2     0.240616     8.081978     0.744798
O2     0.311233    36.076423     4.108701
O2     9.392299     8.050971     4.077626
O2     9.363548    36.112780     0.765823
O2    14.033446    34.031968     2.497579
O2    14.032518     5.996016     5.809535
O2     4.938737    34.025233     5.830498
O2     4.902446     6.008225     2.469734
O2     4.206149    21.978667     2.485019
O2     4.289105    49.970830     5.718430
O2    13.294859    21.981788     5.820847
O2    13.377572    49.975748     2.448449
O2    14.007159    43.318175     5.722040
O2    13.944677    15.297878     2.405578
O2     4.870677    43.331549     2.435762
O2     4.887098    15.282941     5.693038
O2    13.368025    40.723814     5.712907
O2    13.377727    12.683630     2.405006
O2     4.278982    40.723255     2.432064
O2     4.226716    12.696836     5.691415
O2     8.747588    29.285049     4.084037
O2     8.798833     1.289737     0.821161
O2    17.934482    29.312806     0.857780
O2    17.857613     1.269585     4.078389
O2     9.490095    26.725043     4.082338
O2     9.428051    54.661437     0.818480
O2     0.308412    26.697118     0.858236
O2     0.371755    54.672108     4.062426
O2     5.877421    17.315084     3.872508
O2     5.894599    45.347012     0.613584
O2    14.956489    17.332466     0.613906
O2    15.000853    45.345712     3.893820
O2    12.365122    38.695021     3.892869
O2    12.366488    10.657280     0.603611
O2     3.285942    38.680564     0.637059
O2     3.239657    10.667016     3.868095
O2     7.732118    31.283434     2.340232
O2     7.793562     3.312987     5.549216
O2    16.925905    31.341777     5.586135
O2    16.823458     3.258582     2.327334
O2    10.507608    24.730030     2.335107
O2    10.434424    52.627587     5.545728
O2     1.311849    24.667330     5.575411
O2     1.352758    52.633273     2.248023
O2    12.353863    19.958449     4.202754
O2    12.400848    47.918657     0.905902
O2     3.234860    19.919348     0.947791
O2     3.300880    47.920706     4.177899
O2     5.885658    36.050533     4.215829
O2     5.881288     8.066231     0.933836
O2    15.006035    36.096275     0.963999
O2    14.967845     8.026960     4.193455
O2    10.486211    34.025150     5.802816
O2    10.389718     5.957604     2.616149
O2     1.305190    33.982111     2.645955
O2     1.359439     5.995000     5.778938
O2    16.947532    50.054818     5.819328
O2    16.935096    22.029765     2.635044
O2     7.853747    50.059415     2.545721
O2     7.750789    21.982602     5.791086
O2    10.449334    43.356301     2.419158
O2    10.437700    15.327974     5.649995
O2     1.340155    43.352714     5.704282
O2     1.316921    15.332180     2.402571
O2     7.799925    12.652666     2.399585
O2     7.796668    40.677091     5.666554
O2    16.883290    12.652964     5.650644
O2    16.927693    40.682537     2.428927
O2     3.241077    29.344683     4.128252
O2     3.230055     1.366997     0.786240
O2    12.349080    29.406822     0.801031
O2    12.317727     1.325816     4.100954
O2    14.997225    26.665185     4.125903
O2    15.002657    54.612354     0.776374
O2     5.892886    26.608456     0.797087
O2     5.889629    54.631307     4.065159
O2     1.885887    18.052020     1.847156
O2     1.942986    46.055315     5.070115
O2    10.988282    18.078538     5.065688
O2    11.041955    46.055999     1.796801
O2     7.230312     9.934617     1.832507
O2     7.252012    37.928470     5.080734
O2    16.333671     9.906040     5.056157
O2    16.355433    37.964428     1.861147
O2     2.602289    32.043096     3.454331
O2     2.690911     4.106408     0.183875
O2    11.819326    32.142027     0.214682
O2    11.685766     4.020985     3.431156
O2    15.637617    23.967981     3.447105
O2    15.587054    51.913082     0.167818
O2     6.422924    23.873627     0.206488
O2     6.493379    51.926745     3.429476
O2    16.391440    47.271009     5.055515
O2    16.327757    19.258392     1.807125
O2     7.285988    47.272715     1.778241
O2     7.270683    19.219457     5.046504
O2    10.968308    36.789995     5.062559
O2    10.995013     8.730636     1.797542
O2     1.912374    36.755301     1.827637
O2     1.845370     8.761477     5.041739
O2     6.466181    33.235551     3.530264
O2     6.447649     5.259457     0.172431
O2    15.574680    33.292181     0.196390
O2    15.551560     5.214613     3.502575
O2    11.773293    22.773301     3.516841
O2    11.835696    50.702262     0.138252
O2     2.668699    22.724442     0.182593
O2     2.738790    50.706716     3.412880
O2     6.252431    14.453403     3.396058
O2     6.272883    42.475747     0.163150
O2    15.354327    14.459162     0.131757
O2    15.380550    42.481378     3.429385
O2    11.988743    41.554804     3.422492
O2    11.971821    13.531223     0.130694
O2     2.883610    41.547984     0.145658
O2     2.864392    13.528735     3.392836
O2     7.394542    28.452580     1.776949
O2     7.387881     0.448224     5.095935
O2    16.520373    28.478585     5.135048
O2    16.500668     0.426291     1.783201
O2    10.846589    27.561778     1.777731
O2    10.818839    55.491309     5.091962
O2     1.716565    27.532622     5.138385
O2     1.750485    55.496216     1.762415
O2     3.851809    15.957403     3.017795
O2     3.884621    43.963962     6.287329
O2    12.970428    15.944591     6.246762
O2    12.988658    43.976184     3.027663
O2     5.265204    12.025977     3.014473
O2     5.267166    40.054833     6.277363
O2    14.349265    12.035366     6.244195
O2    14.390135    40.056360     3.033912
O2     9.802465    29.965295     1.421183
O2     9.775506     1.926255     4.663247
O2     0.702701    29.948198     4.700580
O2     0.690846     1.930835     1.403683
O2     8.438815    26.049533     1.417017
O2     8.426711    54.011038     4.673519
O2    17.535713    26.063226     4.696160
O2    17.549203    53.997199     1.382456
O2     9.760453    20.438747     4.671041
O2     9.835875    48.410380     1.490305
O2     0.662199    20.391023     1.479970
O2     0.736120    48.410961     4.770332
O2     8.478727    35.568900     4.683041
O2     8.454272     7.595584     1.465832
O2    17.577322    35.623254     1.496733
O2    17.560056     7.544313     4.662154
O2     3.897330    34.358650     3.234167
O2     3.920957     6.434874     6.410204
O2    13.046664    34.469777     6.440353
O2    12.979164     6.336785     3.217997
O2    14.344476    21.650289     3.227771
O2    14.383790    49.553844     6.408063
O2     5.190270    21.534659     6.427504
O2     5.288611    49.568926     3.122339
O2     8.389220    16.849391     4.722826
O2     8.410916    44.898838     1.446640
O2    17.464203    16.885632     1.479077
O2    17.518847    44.899295     4.721593
O2     9.851922    39.160963     4.742873
O2     9.858152    11.101907     1.469985
O2     0.777799    39.128587     1.500378
O2     0.727824    11.132083     4.719610
O2     5.228748    30.914495     3.167315
O2     5.281278     2.891626     6.391332
O2    14.411649    30.922021     6.423438
O2    14.315098     2.891882     3.148816
O2    13.011393    25.095516     3.162277
O2    12.952972    53.073049     6.371810
O2     3.825478    25.083638     6.413684
O2     3.864387    53.082359     3.085234
O2     7.811782    18.354157     2.595598
O2     7.789015    46.401366     5.876121
O2    16.860034    18.379818     5.902582
O2    16.897178    46.409314     2.598655
O2    10.429656    37.659929     2.612850
O2    10.455900     9.596932     5.893159
O2     1.374570    37.622821     5.923831
O2     1.306000     9.628238     2.591429
O2    15.044838    32.426267     4.295316
O2    14.901517     4.403575     1.051601
O2     5.809713    32.440134     1.076893
O2     5.912661     4.404746     4.268424
O2    12.332816    51.574547     4.240459
O2    12.429751    23.577403     1.066736
O2     3.256054    51.570421     0.960760
O2     3.191798    23.582678     4.282698
O2    10.453548    18.953158     2.596029
O2    10.432646    46.942850     5.912738
O2     1.306144    18.884914     5.939918
O2     1.333783    46.954287     2.634085
O2     7.787824    37.057639     2.609774
O2     7.803815     9.089175     5.925279
O2    16.928611    37.116431     5.954809
O2    16.869835     9.029968     2.586860
O2    12.404460    33.011360     4.312794
O2    12.291321     5.020829     1.015232
O2     3.197467    33.044141     1.034398
O2     3.271531     4.981809     4.281549
O2     5.832283    22.997330     4.302868
O2     5.897794    51.027232     0.989052
O2    15.040579    22.967841     1.028406
O2    14.975892    51.025487     4.279871
O2     3.263277    14.401442     0.921058
O2     3.259935    42.396097     4.214183
O2    12.356410    14.347053     4.189979
O2    12.389242    42.415168     0.942985
O2     5.854320    13.586907     0.921561
O2     5.866105    41.658279     4.221342
O2    14.965741    13.632782     4.189371
O2    14.986235    41.626173     0.949486
O2    10.409210    28.435343     5.868173
O2    10.407171     0.354279     2.599184
O2     1.323275    28.361146     2.643779
O2     1.299213     0.385721     5.853935
O2     7.826249    27.571044     5.865815
O2     7.830017    55.598476     2.607550
O2    16.914367    27.647616     2.639732
O2    16.945513    55.544560     5.853988
O1     8.480636    31.765420     5.394082
H      8.483491    30.894655     4.953108
H      8.038333    32.360490     4.754357
O1    17.564270     3.737516     5.376408
H     17.566215     2.862102     4.945027
H     17.134130     4.329476     4.725853
O1     9.753946    24.244132     5.384836
H      9.753322    25.117348     4.948667
H     10.196122    23.651932     4.742501
O1     9.823472    33.292898     2.901372
H     10.632419    33.257591     3.448388
H      9.205513    33.834093     3.435321
O1     0.693672     5.264342     2.878737
H      1.503031     5.233240     3.425333
H      0.075921     5.809533     3.408859
O1     8.414171    22.720326     2.889136
H      7.605624    22.756674     3.436712
H      9.032284    22.179511     3.423225
O1    10.211098    15.112246     2.383813
H     10.099800    15.997039     1.974806
H     11.090678    15.168540     2.810832
O1    10.229570    43.192883     5.676857
H     10.108177    44.085010     5.286257
H     11.112065    43.248346     6.098963
O1     1.110073    15.141877     5.677242
H      0.993906    16.036290     5.290862
H      1.990801    15.192959     6.103167
O1     1.115477    43.195725     2.399063
H      0.981219    44.084553     2.005143
H      1.996308    43.266504     2.822077
O1     8.023595    40.900648     2.404651
H      8.126346    40.014646     1.996093
H      7.140871    40.855838     2.826773
O1     8.004935    12.837128     5.673053
H      8.120117    11.943972     5.283505
H      7.123267    12.786584     6.097205
O1    17.135420    40.869023     5.699444
H     17.256599    39.975893     5.311638
H     16.253173    40.813828     6.121659
O1    17.113921    12.873408     2.382368
H     17.224852    11.989563     1.971286
H     16.233856    12.817180     2.808462
O1    12.576396    29.215301     4.072569
H     12.705724    30.105678     3.680487
H     11.691418    29.278847     4.488953
O1    12.566938     1.158545     0.787741
H     12.670600     2.051906     0.395439
H     11.683036     1.197209     1.209101
O1     3.498321    29.168476     0.809765
H      3.611903    30.060438     0.416665
H      2.613246    29.216145     1.227714
O1     3.441597     1.196617     4.040764
H      3.571903     2.087993     3.651477
H      2.559020     1.261688     4.461734
O1     5.660164    26.795035     4.069002
H      5.531587    25.905393     3.675121
H      6.545371    26.731724     4.484979
O1     5.659033    54.808396     0.760889
H      5.524725    53.919504     0.366856
H      6.543374    54.740448     1.177141
O1    14.741428    26.848197     0.807581
H     14.629345    25.956848     0.412783
H     15.626080    26.801044     1.226508
O1    14.764710    54.794847     4.048302
H     14.639858    53.904987     3.653581
H     15.650350    54.736775     4.463644
O1    16.919988     6.044978     0.690436
H     15.993150     5.992271     0.386551
H     16.990642     6.921820     1.114443
O1     7.837415    34.071029     0.714998
H      6.908242    34.016900     0.418470
H      7.910859    34.948915     1.136481
O1    10.401852    21.946762     0.701661
H     11.330834    22.002418     0.404668
H     10.330857    21.070007     1.125835

