473
-14196.9834845842
Si     4.562266    14.007822     0.000000
Si     4.578930    42.030283     3.286663
Si    13.668210    14.005657     3.263924
Si    13.690093    42.028043     0.024194
Si     9.123723    28.015968     4.952906
Si     9.097000     0.002910     1.695456
Si     0.017647    28.016668     1.715396
Si     0.037501    56.013275     4.932425
Si     9.130071    18.653193     1.671800
Si     9.109870    46.708631     4.986881
Si    18.204194    18.672300     4.989212
Si    18.240514    46.688831     1.691638
Si     9.121085    37.381928     1.684300
Si     9.130674     9.333766     4.981503
Si     0.044082    37.356279     5.006262
Si    18.207142     9.358795     1.664700
Si    13.732338    32.758839     3.371130
Si    13.620572     4.732083     0.104191
Si     4.527715    32.758427     0.122115
Si     4.599416     4.739767     3.347133
Si     4.517039    23.274508     3.361853
Si     4.620466    51.298600     0.085707
Si    13.723143    23.280549     0.115350
Si    13.631335    51.301566     3.345019
Si     2.845016    14.826082     2.440919
Si     2.869339    42.817694     5.726866
Si    11.958015    14.803192     5.704780
Si    11.975039    42.849269     2.463484
Si     6.277850    13.186618     2.440841
Si     6.289124    41.224460     5.727944
Si    15.376939    13.205353     5.704610
Si    15.406983    41.212672     2.465737
Si    10.838744    28.868236     0.835770
Si    10.810028     0.790643     4.139565
Si     1.727912    28.810737     4.160707
Si     1.714494     0.842941     0.815719
Si     7.413524    27.170019     0.833243
Si     7.419159    55.233041     4.137283
Si    16.520164    27.223423     4.157968
Si    16.532744    55.187141     0.810350
Si    10.822200    19.421856     4.111462
Si    10.836650    47.407603     0.878583
Si     1.701244    19.385851     0.880334
Si     1.751479    47.431646     4.140254
Si     7.427157    36.610157     4.121610
Si     7.422036     8.629044     0.870549
Si    16.550304    36.652750     0.895190
Si    16.513255     8.589787     4.101870
Si    12.008860    33.473237     5.825200
Si    11.922199     5.401556     2.548326
Si     2.832208    33.422891     2.566152
Si     2.877568     5.450264     5.801392
Si    15.371390    50.586398     5.791588
Si    15.417337    22.611020     2.560199
Si     6.324174    50.633127     2.531676
Si     6.238646    22.557026     5.816513
Si     7.374588    17.958846     4.118003
Si     7.369769    46.011269     0.872145
Si    16.451754    17.993136     0.874087
Si    16.505653    45.981327     4.139509
Si    10.875258    38.075110     4.132452
Si    10.888101    10.021956     0.868308
Si     1.801155    38.043790     0.893648
Si     1.746325    10.051776     4.112809
Si     6.289081    31.981427     2.562344
Si     6.322076     3.996271     5.798607
Si    15.453209    32.016122     5.823543
Si    15.379106     3.956646     2.545629
Si    11.960993    24.053403     2.555362
Si    11.914756    52.031900     5.788857
Si     2.794383    24.015203     5.813547
Si     2.862042    52.055475     2.524015
Al    14.386206    43.721032     4.097317
Al    14.357982    15.708121     0.790645
Al     5.271678    43.725833     0.812930
Al     5.260220    15.695887     4.071360
Al    12.990068    40.338343     4.092417
Al    12.981993    12.307007     0.787942
Al     3.897635    40.325033     0.810512
Al     3.860986    12.314462     4.068672
Al     8.398325    29.694620     2.445505
Al     8.407122     1.698268     5.770720
Al    17.540923    29.718430     5.792216
Al    17.493751     1.672534     2.428080
Al     9.852541    26.341591     2.443848
Al     9.819640    54.325340     5.771805
Al     0.706685    26.312956     5.790310
Al     0.760506    54.350234     2.423962
Al    17.518955    48.407176     5.739047
Al    17.489649    20.375197     2.488469
Al     8.403094    48.400392     2.483378
Al     8.385691    20.372905     5.718367
Al     9.862834    35.658597     5.728708
Al     9.848932     7.637528     2.478636
Al     0.760536    35.660107     2.503883
Al     0.732947     7.636658     5.709142
Al     5.328337    34.380370     4.176860
Al     5.327609     6.411407     0.843546
Al    14.458951    34.433017     0.867611
Al    14.418126     6.357730     4.159339
Al    12.920587    21.651660     4.167601
Al    12.927440    49.626258     0.837886
Al     3.793703    21.605296     0.855267
Al     3.849092    49.654165     4.142619
Al     9.810254    45.005995     2.498423
Al     9.811204    16.976411     5.735533
Al     0.739997    45.000778     5.752028
Al     0.674759    16.978455     2.499255
Al     8.448478    11.034235     2.493343
Al     8.437318    39.053771     5.749279
Al    17.524356    11.032661     5.729987
Al    17.576753    39.058103     2.517764
Al     3.825287    31.012404     4.175454
Al     3.873161     3.027677     0.858993
Al    13.001990    31.049154     0.882955
Al    12.911949     2.989282     4.156990
Al    14.424217    25.020163     4.171659
Al    14.371908    53.006693     0.853374
Al     5.250651    24.988579     0.876448
Al     5.312092    53.035624     4.143449
Na     8.686705    14.488134     4.053965
Na     8.718776    42.532161     0.787550
Na    17.800017    14.515083     0.770965
Na    17.813579    42.515922     4.081662
Na     9.561877    41.549607     4.072609
Na     9.540197    13.502783     0.770781
Na     0.453508    41.527686     0.797432
Na     0.434715    13.525018     4.053453
Na     5.017588    28.514073     2.495061
Na     4.957494     0.520610     5.728436
Na    14.088006    28.542768     5.755492
Na    14.098751     0.490886     2.474118
Na    13.233481    27.523003     2.494839
Na    13.267732    55.498533     5.733309
Na     4.160038    27.491078     5.754184
Na     4.153114    55.538418     2.462031
Ca     4.245402    18.328418     2.434490
Ca     4.360808    46.265962     5.531128
Ca    13.411793    18.280768     5.577145
Ca    13.394503    46.346669     2.423709
Ca     4.877002     9.689780     2.422994
Ca     4.836859    37.748738     5.592307
Ca    13.921602     9.733562     5.564498
Ca    14.002532    37.717964     2.437941
Ca     9.392009    32.403501     0.821478
Ca     9.318369     4.243589     3.937587
Ca     0.233392    32.272137     3.969052
Ca     0.263300     4.385136     0.803351
Ca     8.860430    23.637686     0.813758
Ca     8.923960    51.772941     3.944673
Ca    18.018346    23.770231     3.951301
Ca    18.003217    51.752841     0.638530
O2     9.447063    45.387678     4.136523
O2     9.489488    17.329734     0.838236
O2     0.421493    45.384723     0.845918
O2     0.323724    17.345520     4.144826
O2     8.797093    10.661043     4.137897
O2     8.763101    38.706277     0.851940
O2    17.850644    10.683027     0.831832
O2    17.925663    38.682615     4.161616
O2    13.377026    31.448271     2.516582
O2    13.238166     3.442856     5.782394
O2     4.151531    31.466925     5.800637
O2     4.247376     3.428521     2.492170
O2     4.873060    24.585329     2.508534
O2     4.965519    52.593051     5.769005
O2    14.095753    24.563100     5.795702
O2    13.990547    52.609512     2.484169
O2     8.885238    19.916137     0.751419
O2     8.837485    47.983620     4.094739
O2    17.938768    19.940133     4.088180
O2    17.950637    47.961472     0.798859
O2     0.237329     8.096080     0.743400
O2     0.312584    36.087603     4.106296
O2     9.398561     8.066370     4.079956
O2     9.367429    36.120008     0.762424
O2    14.041381    34.042104     2.493941
O2    14.038717     6.009075     5.810479
O2     4.941098    34.036344     5.827369
O2     4.906183     6.023984     2.470101
O2     4.209114    21.991126     2.483632
O2     4.249592    50.006136     5.785350
O2    13.303584    21.994380     5.818995
O2    13.325798    50.016703     2.468551
O2    14.011592    43.317960     5.716316
O2    13.952987    15.312616     2.405318
O2     4.864929    43.341464     2.432024
O2     4.891347    15.295973     5.692308
O2    13.360296    40.728984     5.715809
O2    13.384617    12.698695     2.404246
O2     4.303763    40.724192     2.423768
O2     4.227725    12.710674     5.691038
O2     8.752637    29.296383     4.081131
O2     8.806957     1.312412     0.837764
O2    17.943320    29.324042     0.855916
O2    17.857451     1.262338     4.057842
O2     9.495813    26.736460     4.079751
O2     9.419523    54.728677     0.834082
O2     0.309610    26.708821     0.856115
O2     0.408829    54.728026     4.064873
O2     5.881651    17.328246     3.871830
O2     5.886613    45.357209     0.616951
O2    14.966053    17.344965     0.611898
O2    15.009257    45.351905     3.908116
O2    12.367371    38.706901     3.885938
O2    12.373558    10.670332     0.605848
O2     3.288688    38.688376     0.633472
O2     3.238968    10.682306     3.865880
O2     7.735256    31.293498     2.336918
O2     7.801612     3.332633     5.555104
O2    16.934321    31.352779     5.582795
O2    16.828145     3.270017     2.326818
O2    10.514785    24.742093     2.332855
O2    10.428729    52.693364     5.567306
O2     1.313993    24.679431     5.573447
O2     1.401496    52.737784     2.308984
O2    12.359447    19.971661     4.202117
O2    12.372096    47.951629     0.932730
O2     3.235732    19.932305     0.947432
O2     3.294801    47.973519     4.188338
O2     5.890008    36.059665     4.212905
O2     5.886871     8.083454     0.937567
O2    15.015410    36.106410     0.961203
O2    14.976620     8.038459     4.194169
O2    10.493355    34.035815     5.798739
O2    10.396520     5.970918     2.619934
O2     1.307158    33.993067     2.643865
O2     1.362055     6.013132     5.777727
O2    16.892635    50.034573     5.807821
O2    16.942978    22.041432     2.634066
O2     7.853578    50.070328     2.601445
O2     7.754390    21.995022     5.790116
O2    10.449729    43.370754     2.420347
O2    10.444470    15.341983     5.649551
O2     1.354997    43.356779     5.683092
O2     1.319033    15.345996     2.401313
O2     7.803853    12.666519     2.400654
O2     7.803264    40.687567     5.665948
O2    16.890638    12.666668     5.648707
O2    16.932673    40.691087     2.426336
O2     3.241838    29.356142     4.125807
O2     3.229036     1.394390     0.776074
O2    12.354825    29.417946     0.798008
O2    12.325011     1.334775     4.106075
O2    15.006751    26.676481     4.123578
O2    15.017882    54.641472     0.774877
O2     5.897598    26.619573     0.794777
O2     5.903703    54.690221     4.097871
O2     1.885979    18.065622     1.846146
O2     1.945724    46.072510     5.049021
O2    10.993334    18.092222     5.064863
O2    11.026879    46.084503     1.839431
O2     7.237406     9.949234     1.835916
O2     7.256268    37.938283     5.076271
O2    16.342364     9.918681     5.055532
O2    16.365213    37.974152     1.858814
O2     2.604899    32.054341     3.451674
O2     2.696302     4.130041     0.188478
O2    11.827030    32.152986     0.211803
O2    11.693290     4.032206     3.431716
O2    15.644965    23.978773     3.446673
O2    15.568969    51.925335     0.179291
O2     6.425834    23.885014     0.204947
O2     6.538421    51.989655     3.438165
O2    16.416039    47.273653     5.040544
O2    16.337639    19.270351     1.805889
O2     7.258667    47.286880     1.806087
O2     7.275470    19.232327     5.045404
O2    10.973379    36.801139     5.059824
O2    11.001333     8.744317     1.800134
O2     1.912974    36.765620     1.824778
O2     1.844588     8.778360     5.041049
O2     6.468793    33.244751     3.527649
O2     6.451249     5.280128     0.171582
O2    15.582267    33.302621     0.192647
O2    15.557530     5.224781     3.503987
O2    11.781015    22.786603     3.516308
O2    11.803500    50.748076     0.149602
O2     2.671424    22.736613     0.181207
O2     2.713806    50.801752     3.502395
O2     6.255223    14.467146     3.394715
O2     6.275664    42.484012     0.163437
O2    15.361798    14.471439     0.131820
O2    15.383307    42.492016     3.421511
O2    11.995689    41.571013     3.421538
O2    11.978912    13.544173     0.129718
O2     2.892103    41.557550     0.149772
O2     2.866742    13.543578     3.392545
O2     7.399747    28.463073     1.774521
O2     7.396788     0.467474     5.113899
O2    16.530328    28.489503     5.132548
O2    16.496023     0.441345     1.757712
O2    10.851902    27.573626     1.775469
O2    10.830154    55.556174     5.114189
O2     1.717009    27.544421     5.135575
O2     1.761273    55.579724     1.757285
O2     3.854062    15.972029     3.017960
O2     3.896654    43.968241     6.262517
O2    12.977713    15.958727     6.246287
O2    12.986285    43.996357     3.034311
O2     5.268254    12.039357     3.015699
O2     5.271019    40.064428     6.264390
O2    14.356845    12.048507     6.243938
O2    14.395813    40.065110     3.037261
O2     9.807701    29.976862     1.418320
O2     9.785992     1.940768     4.677943
O2     0.703080    29.960067     4.698506
O2     0.683075     1.952499     1.394871
O2     8.444190    26.060244     1.414726
O2     8.444234    54.084568     4.674262
O2    17.545420    26.073863     4.694950
O2    17.571340    54.071271     1.382104
O2     9.765687    20.452530     4.670535
O2     9.801863    48.423775     1.488934
O2     0.662217    20.404457     1.478176
O2     0.741080    48.445314     4.788401
O2     8.483910    35.578719     4.679425
O2     8.460400     7.609770     1.468783
O2    17.587272    35.633094     1.494966
O2    17.570380     7.558288     4.658984
O2     3.899802    34.370089     3.231395
O2     3.923922     6.458950     6.410831
O2    13.054059    34.481921     6.436724
O2    12.986359     6.348968     3.218796
O2    14.351538    21.661553     3.225426
O2    14.337201    49.578013     6.424982
O2     5.193157    21.546866     6.425820
O2     5.266601    49.662840     3.178612
O2     8.393988    16.862278     4.722686
O2     8.399558    44.919748     1.469629
O2    17.474042    16.897835     1.478105
O2    17.529029    44.892508     4.751552
O2     9.855207    39.170642     4.737779
O2     9.865376    11.116507     1.472981
O2     0.778975    39.139042     1.498226
O2     0.726442    11.147773     4.717751
O2     5.231378    30.924239     3.164631
O2     5.288267     2.912383     6.394108
O2    14.419643    30.932973     6.420396
O2    14.321283     2.900818     3.149762
O2    13.018960    25.108307     3.160178
O2    12.951428    53.113665     6.386371
O2     3.828079    25.096810     6.412172
O2     3.912546    53.128694     3.114584
O2     7.817311    18.366479     2.595209
O2     7.775194    46.417642     5.895510
O2    16.871296    18.393170     5.901200
O2    16.930666    46.353227     2.603521
O2    10.432698    37.666973     2.609599
O2    10.462065     9.612029     5.895653
O2     1.375379    37.635247     5.920480
O2     1.302938     9.642484     2.590605
O2    15.052424    32.436296     4.291750
O2    14.905370     4.416366     1.053747
O2     5.811616    32.450278     1.074443
O2     5.919122     4.420534     4.268464
O2    12.294056    51.632338     4.246095
O2    12.437556    23.588746     1.065654
O2     3.317176    51.585398     1.028527
O2     3.195724    23.595759     4.281335
O2    10.458821    18.967196     2.595325
O2    10.426711    46.929688     5.937907
O2     1.307560    18.899336     5.937943
O2     1.335287    47.026932     2.626016
O2     7.790890    37.065334     2.605454
O2     7.810104     9.104721     5.927821
O2    16.939413    37.127267     5.952590
O2    16.876258     9.043934     2.585341
O2    12.412307    33.022752     4.309415
O2    12.295700     5.034805     1.015776
O2     3.199490    33.055553     1.031831
O2     3.277713     5.000592     4.284485
O2     5.835941    23.008969     4.301054
O2     5.947188    51.035561     1.008587
O2    15.048814    22.980223     1.027092
O2    14.926372    51.052027     4.303885
O2     3.266715    14.415948     0.920991
O2     3.268904    42.381813     4.206876
O2    12.363375    14.362658     4.188842
O2    12.393583    42.430695     0.945307
O2     5.857041    13.597936     0.921317
O2     5.881011    41.676390     4.216475
O2    14.972403    13.646948     4.189124
O2    14.987231    41.625038     0.945756
O2    10.414542    28.447421     5.865141
O2    10.405562     0.359559     2.618784
O2     1.323477    28.373859     2.641272
O2     1.292301     0.410666     5.847745
O2     7.831620    27.582406     5.862962
O2     7.823909    55.675724     2.619519
O2    16.924852    27.657922     2.637856
O2    16.955248    55.589555     5.839406
O1     8.485356    31.776409     5.390659
H      8.488322    30.905475     4.950002
H      8.040562    32.370586     4.751849
O1    17.585668     3.742647     5.371679
H     17.588925     2.868633     4.937310
H     17.153980     4.335128     4.722357
O1     9.760870    24.255435     5.383311
H      9.759619    25.128154     4.946136
H     10.205695    23.663336     4.742690
O1     0.794724    52.194147     5.263829
H      0.889106    53.050928     4.806061
H      1.189898    51.535023     4.655808
O1     9.831560    33.301262     2.897756
H     10.641120    33.265967     3.443878
H      9.213910    33.841730     3.432763
O1     0.691287     5.286202     2.880678
H      1.499161     5.253942     3.429531
H      0.073341     5.833443     3.408520
O1     8.417185    22.733947     2.887849
H      7.607820    22.770008     3.434237
H      9.034797    22.193600     3.422978
O1    10.216052    15.124903     2.384416
H     10.105543    16.009649     1.975094
H     11.095453    15.180664     2.811899
O1    10.237106    43.192542     5.687961
H     10.118316    44.085807     5.299441
H     11.119743    43.244961     6.110056
O1     1.110685    15.155009     5.676839
H      0.995631    16.049522     5.290336
H      1.991522    15.204904     6.102709
O1     1.123605    43.164054     2.405123
H      1.013621    44.048526     1.994814
H      2.003056    43.219966     2.832707
O1     8.035066    40.910236     2.402779
H      8.144067    40.025941     1.992087
H      7.153079    40.857501     2.825360
O1     8.009731    12.852103     5.674522
H      8.124813    11.958491     5.285959
H      7.128303    12.801921     6.099211
O1    17.138873    40.874733     5.699482
H     17.255103    39.981502     5.310424
H     16.257356    40.823380     6.123820
O1    17.122670    12.887788     2.382179
H     17.232663    12.003919     1.970851
H     16.242654    12.832316     2.808501
O1    12.583763    29.225869     4.070456
H     12.712350    30.116279     3.678184
H     11.698718    29.288686     4.486827
O1    12.583244     1.156998     0.789906
H     12.692207     2.048844     0.395367
H     11.698289     1.200835     1.208677
O1     3.500805    29.178400     0.808378
H      3.613261    30.070413     0.415078
H      2.615843    29.225078     1.226712
O1     3.452603     1.205718     4.042781
H      3.584799     2.096602     3.652806
H      2.567251     1.270659     4.457924
O1     5.663660    26.807168     4.067614
H      5.535761    25.917348     3.673876
H      6.548810    26.744526     4.483821
O1     5.660014    54.870678     0.775812
H      5.539670    53.979613     0.382643
H      6.545442    54.816564     1.192142
O1    14.749650    26.860129     0.806396
H     14.637957    25.968594     0.411875
H     15.634153    26.813386     1.225697
O1    14.777214    54.827802     4.046765
H     14.642822    53.936364     3.658193
H     15.658903    54.759210     4.468857
O1    16.927820     6.055971     0.684392
H     15.999540     5.999107     0.385624
H     16.997138     6.933899     1.106525
O1     7.841711    34.078498     0.713098
H      6.912531    34.023884     0.416693
H      7.915100    34.956954     1.133346
O1    10.407939    21.959302     0.702693
H     11.336944    22.014908     0.405755
H     10.336356    21.081825     1.125281
O1     1.206546    50.057382     0.922563
H      2.118027    50.023148     0.568368
H      1.075719    49.183659     1.337929

