485
-14237.8117568407
Si     4.577283    14.020407     0.000000
Si     4.619407    42.102024     3.267231
Si    13.693703    14.023467     3.264465
Si    13.726773    42.106680     6.550868
Si     9.156151    28.046089     4.963529
Si     9.124254     0.020128     1.705037
Si     0.047791    28.023841     1.686785
Si    18.248478     0.021598     4.941782
Si     9.150698    18.660273     1.687589
Si     9.159838    46.769324     4.985860
Si    18.255427    18.685900     4.985932
Si     0.064946    46.742708     1.670539
Si     9.165830    37.463524     1.695726
Si     9.149242     9.354097     4.987444
Si     0.050163    37.467868     4.994245
Si    18.243451     9.379956     1.667923
Si    13.734642    32.798486     3.399615
Si    13.642675     4.756482     0.109608
Si     4.590606    32.798756     0.126505
Si     4.612516     4.759153     3.356773
Si     4.571836    23.292349     3.366853
Si     4.665101    51.366051     0.109820
Si    13.737560    23.304921     0.124836
Si    13.695501    51.363266     3.355541
Si     2.860371    14.848698     2.440450
Si     2.904714    42.905992     5.704831
Si    11.983299    14.826084     5.705637
Si    12.014737    42.921518     2.441772
Si     6.292757    13.204828     2.440803
Si     6.327058    41.291840     5.709747
Si    15.405968    13.219856     5.703947
Si    15.446336    41.290635     2.435090
Si    10.868221    28.889482     0.846669
Si    10.836275     0.819066     4.148950
Si     1.753581    28.866741     4.124995
Si     1.713230     0.871721     0.823950
Si     7.439840    27.204835     0.845738
Si     7.470546    55.307269     4.148425
Si    16.566209    27.218704     4.122726
Si    16.595415    55.252897     0.823772
Si    10.833017    19.437126     4.126259
Si    10.869161    47.479003     0.876510
Si     1.702851    19.420816     0.878902
Si     1.757450    47.516819     4.108925
Si     7.488414    36.682615     4.135162
Si     7.439344     8.645853     0.878436
Si    16.606520    36.696072     0.887794
Si    16.550912     8.607616     4.106387
Si    12.048540    33.518653     5.852294
Si    11.947778     5.426309     2.553114
Si     2.904192    33.507599     2.569961
Si     2.890869     5.479007     5.810492
Si    15.417026    50.646577     5.810133
Si    15.424580    22.607944     2.568485
Si     6.360303    50.697771     2.554309
Si     6.265143    22.595384     5.818384
Si     7.386210    17.978663     4.133485
Si     7.402976    46.082934     0.871180
Si    16.493091    17.993801     0.868351
Si    16.556147    46.050577     4.116411
Si    10.931187    38.142403     4.139655
Si    10.907378    10.041555     0.872568
Si     1.813031    38.139765     0.885526
Si     1.751870    10.076316     4.113303
Si     6.344626    32.028648     2.568640
Si     6.336911     4.017502     5.808089
Si    15.482125    32.031318     5.849393
Si    15.406205     3.980934     2.548958
Si    11.974442    24.071242     2.564283
Si    11.970424    52.109051     5.805621
Si     2.840480    24.057218     5.813395
Si     2.901898    52.143611     2.548371
Al    14.430464    43.795562     4.067869
Al    14.386939    15.719176     0.787770
Al     5.307130    43.799151     0.790860
Al     5.274217    15.716950     4.068823
Al    13.037679    40.411395     4.069761
Al    13.006203    12.322676     0.789426
Al     3.925295    40.404497     0.790295
Al     3.871975    12.336237     4.069759
Al     8.434271    29.725804     2.455969
Al     8.430559     1.723968     5.779166
Al    17.572344    29.722451     5.737606
Al    17.520933     1.697645     2.433289
Al     9.874988    26.366262     2.455565
Al     9.876717    54.402377     5.779834
Al     0.750839    26.351205     5.737713
Al     0.787521    54.427610     2.433898
Al    17.568935    48.465534     5.714515
Al    17.516834    20.382676     2.482893
Al     8.439842    48.466381     2.483298
Al     8.399457    20.387809     5.733732
Al     9.922000    35.735344     5.744126
Al     9.868989     7.659050     2.485516
Al     0.797419    35.731422     2.493652
Al     0.740048     7.661214     5.712174
Al     5.405795    34.433428     4.180695
Al     5.341136     6.430518     0.851400
Al    14.529795    34.446579     0.906107
Al    14.445156     6.382040     4.161484
Al    12.926872    21.671066     4.176202
Al    12.967522    49.695172     0.850020
Al     3.802600    21.646571     0.867060
Al     3.862790    49.742633     4.162150
Al     9.842571    45.072143     2.497250
Al     9.824354    16.991211     5.750912
Al     0.746808    45.071207     5.733804
Al     0.685183    16.997293     2.495477
Al     8.466429    11.053505     2.497576
Al     8.491990    39.130068     5.758665
Al    17.561428    11.054099     5.730442
Al    17.609768    39.133985     2.496938
Al     3.868934    31.076880     4.176858
Al     3.881557     3.049085     0.869634
Al    13.014520    31.078394     0.902527
Al    12.941307     3.015735     4.163277
Al    14.444348    25.028308     4.175880
Al    14.426769    53.075651     0.867753
Al     5.283138    25.023287     0.883310
Al     5.366636    53.109286     4.163141
Na     8.699356    14.510111     4.058061
Na     8.742698    42.607297     0.777623
Na    17.833085    14.528000     0.770781
Na    17.868581    42.587898     4.048692
Na     9.607333    41.614608     4.060552
Na     9.564424    13.517976     0.775235
Na     0.484349    41.600722     0.776286
Na     0.443770    13.545220     4.051300
Na     5.047054    28.575384     2.489352
Na     4.976071     0.549036     5.743407
Na    14.141081    28.573078     5.759116
Na    14.137352     0.517885     2.483567
Na    13.259209    27.524207     2.492847
Na    13.331543    55.581068     5.743542
Na     4.183162    27.542162     5.754598
Na     4.171279    55.610238     2.484022
Ca     4.234378    18.369574     2.472072
Ca     4.347240    46.378647     5.584893
Ca    13.424761    18.307450     5.599391
Ca    13.413528    46.429883     2.438606
Ca     4.891468     9.712567     2.425588
Ca     4.905541    37.790117     5.643512
Ca    13.960325     9.749985     5.578753
Ca    14.015115    37.819831     2.338107
Ca     9.418760    32.441943     0.831780
Ca     9.350373     4.281730     3.968300
Ca     0.273879    32.340253     3.957622
Ca     0.268714     4.404502     0.807838
Ca     8.885768    23.653570     0.829000
Ca     8.959818    51.854326     3.956426
Ca    18.037047    23.756776     3.969096
Ca    18.040023    51.725091     0.805996
O2     9.494266    45.441685     4.142629
O2     9.505087    17.331890     0.858250
O2     0.425263    45.418313     0.838553
O2     0.347589    17.356753     4.146676
O2     8.814646    10.679702     4.141934
O2     8.822377    38.796063     0.867268
O2    17.883463    10.703375     0.834949
O2    17.929209    38.788516     4.157448
O2    13.377714    31.497697     2.536505
O2    13.269175     3.468853     5.788868
O2     4.210861    31.509333     5.807998
O2     4.254687     3.448063     2.503827
O2     4.900246    24.609182     2.512242
O2     5.037860    52.653842     5.787865
O2    14.111479    24.598826     5.808958
O2    14.052552    52.672763     2.500740
O2     8.910035    19.918368     0.760122
O2     8.893345    48.036457     4.083545
O2    17.988359    19.946560     4.076844
O2    18.067777    48.003961     0.748231
O2     0.241535     8.117850     0.746373
O2     0.317348    36.207165     4.081893
O2     9.418453     8.084815     4.087943
O2     9.398060    36.207664     0.764496
O2    14.120911    34.082954     2.544613
O2    14.055871     6.039161     5.811771
O2     5.015764    34.078861     5.827120
O2     4.923003     6.040954     2.477850
O2     4.260625    22.006857     2.489953
O2     4.249572    50.083978     5.813279
O2    13.320739    22.027793     5.821278
O2    13.385147    50.079164     2.478500
O2    14.048414    43.399183     5.686343
O2    13.985557    15.327277     2.403953
O2     4.915459    43.407982     2.410128
O2     4.908757    15.310644     5.687851
O2    13.409951    40.805313     5.693016
O2    13.403737    12.717020     2.406204
O2     4.324719    40.801403     2.404497
O2     4.238767    12.727699     5.693458
O2     8.791424    29.327369     4.090532
O2     8.828649     1.325222     0.844383
O2    17.942722    29.307504     0.811170
O2    17.876041     1.301010     4.069167
O2     9.522116    26.764203     4.091687
O2     9.480655    54.794343     0.846834
O2     0.408056    26.725873     0.829049
O2     0.431505    54.822949     4.069850
O2     5.892598    17.351890     3.880466
O2     5.917921    45.434765     0.606865
O2    15.005474    17.350925     0.602832
O2    15.060668    45.423928     3.869762
O2    12.417490    38.779703     3.870670
O2    12.393782    10.687296     0.608746
O2     3.304229    38.772208     0.618307
O2     3.244784    10.706176     3.864552
O2     7.788338    31.331430     2.348476
O2     7.819595     3.356566     5.567770
O2    16.942205    31.340965     5.635355
O2    16.853000     3.294247     2.323716
O2    10.529448    24.764377     2.342052
O2    10.488583    52.770132     5.563893
O2     1.360806    24.718094     5.585221
O2     1.455055    52.830201     2.324074
O2    12.366993    19.991119     4.225865
O2    12.404271    48.024406     0.945705
O2     3.233755    19.977862     0.955271
O2     3.295339    48.065056     4.199786
O2     5.961332    36.116977     4.235821
O2     5.903746     8.101348     0.946799
O2    15.077456    36.129899     0.965317
O2    15.012925     8.058936     4.198932
O2    10.550457    34.118273     5.851443
O2    10.421810     5.994527     2.629817
O2     1.407510    34.108998     2.632001
O2     1.374483     6.040038     5.785473
O2    16.933642    50.085887     5.787181
O2    16.935756    22.022702     2.642546
O2     7.886867    50.130291     2.629307
O2     7.769102    22.007156     5.827088
O2    10.489057    43.440026     2.403183
O2    10.467627    15.360967     5.654138
O2     1.389282    43.440763     5.647436
O2     1.335538    15.368748     2.393081
O2     7.818818    12.684470     2.405229
O2     7.843748    40.758088     5.658500
O2    16.920933    12.684886     5.645607
O2    16.968021    40.764937     2.389278
O2     3.261489    29.426477     4.098846
O2     3.229999     1.419560     0.785020
O2    12.383331    29.442466     0.816870
O2    12.351226     1.361988     4.113521
O2    15.053810    26.674114     4.091431
O2    15.078619    54.704487     0.785410
O2     5.923079    26.657008     0.806363
O2     5.956020    54.762790     4.114292
O2     1.885458    18.103645     1.850136
O2     1.927135    46.188654     5.063950
O2    11.002443    18.112175     5.084938
O2    11.052867    46.159470     1.843138
O2     7.255469     9.967798     1.841097
O2     7.314758    38.000478     5.104966
O2    16.381091     9.936643     5.059635
O2    16.413421    38.037721     1.822155
O2     2.676216    32.149053     3.470278
O2     2.707919     4.153560     0.198179
O2    11.842953    32.183188     0.221015
O2    11.721855     4.060634     3.443147
O2    15.647661    23.963368     3.472602
O2    15.600491    51.971082     0.196183
O2     6.455189    23.918330     0.206681
O2     6.586381    52.064695     3.441893
O2    16.458405    47.324904     5.042464
O2    16.377367    19.266121     1.803335
O2     7.288387    47.359478     1.804052
O2     7.282080    19.251801     5.062226
O2    11.043037    36.879252     5.082804
O2    11.020520     8.764955     1.805972
O2     1.923426    36.860280     1.806790
O2     1.850037     8.802720     5.041274
O2     6.544783    33.298761     3.522882
O2     6.463487     5.300039     0.176013
O2    15.656366    33.287211     0.267834
O2    15.584154     5.243943     3.514740
O2    11.785234    22.803881     3.522439
O2    11.845715    50.826072     0.175932
O2     2.664642    22.811834     0.246986
O2     2.724103    50.879756     3.513689
O2     6.268988    14.490497     3.387604
O2     6.304691    42.558586     0.130354
O2    15.387985    14.480814     0.130638
O2    15.425105    42.561692     3.400263
O2    12.041195    41.642873     3.399492
O2    12.005663    13.559511     0.128172
O2     2.924525    41.640041     0.127628
O2     2.880381    13.568954     3.396089
O2     7.427326    28.500121     1.785377
O2     7.421977     0.493486     5.120157
O2    16.561278    28.508080     5.064414
O2    16.523235     0.464252     1.764727
O2    10.878736    27.594841     1.786256
O2    10.884691    55.633660     5.122480
O2     1.754087    27.579190     5.073971
O2     1.785591    55.660030     1.765147
O2     3.865280    15.998216     3.019414
O2     3.922183    44.060991     6.253789
O2    13.002946    15.981167     6.250185
O2    13.027286    44.069834     3.009596
O2     5.281044    12.060136     3.018780
O2     5.310477    40.135524     6.258281
O2    14.387236    12.063310     6.248772
O2    14.432761    40.139228     2.997598
O2     9.840848    30.001812     1.425727
O2     9.811781     1.968287     4.689262
O2     0.717060    29.988631     4.684269
O2     0.681393     1.980731     1.405776
O2     8.465094    26.092104     1.428744
O2     8.495591    54.158282     4.689418
O2    17.594331    26.094111     4.697473
O2    17.627164    54.143346     1.405865
O2     9.769087    20.468397     4.671658
O2     9.827974    48.497202     1.472150
O2     0.654933    20.440774     1.463085
O2     0.699729    48.547430     4.666594
O2     8.564835    35.657410     4.666831
O2     8.479011     7.627661     1.477273
O2    17.650417    35.687903     1.486930
O2    17.608759     7.577131     4.664795
O2     3.994605    34.446713     3.217496
O2     3.937465     6.487758     6.420408
O2    13.135413    34.482372     6.466453
O2    13.016547     6.375312     3.214807
O2    14.342413    21.661352     3.214927
O2    14.370117    49.637663     6.420099
O2     5.174434    21.615791     6.398903
O2     5.293154    49.748035     3.218007
O2     8.403226    16.880842     4.741968
O2     8.425925    44.988215     1.476513
O2    17.516343    16.901162     1.477324
O2    17.575467    44.954354     4.723914
O2     9.908561    39.238444     4.742190
O2     9.884217    11.136145     1.477571
O2     0.792417    39.231999     1.499677
O2     0.731374    11.171500     4.719891
O2     5.282924    30.979164     3.174720
O2     5.303767     2.935092     6.408371
O2    14.428960    30.966359     6.442012
O2    14.347452     2.924181     3.151723
O2    13.033370    25.124140     3.171131
O2    13.004076    53.191127     6.404956
O2     3.870208    25.141661     6.409521
O2     3.961091    53.199442     3.150934
O2     7.838660    18.385222     2.614081
O2     7.829311    46.490800     5.899773
O2    16.926066    18.403051     5.899473
O2    17.002328    46.454988     2.594322
O2    10.486166    37.725062     2.619061
O2    10.479719     9.634566     5.901188
O2     1.367972    37.759683     5.910792
O2     1.305273     9.667285     2.592296
O2    15.032196    32.505750     4.352583
O2    14.927459     4.450112     1.061403
O2     5.882697    32.487321     1.072756
O2     5.931482     4.435221     4.277498
O2    12.376501    51.687132     4.276007
O2    12.447268    23.610469     1.072423
O2     3.379682    51.673400     1.060635
O2     3.270717    23.579766     4.320064
O2    10.481347    18.974925     2.608862
O2    10.480905    46.998674     5.931887
O2     1.324999    18.931109     5.933930
O2     1.393946    47.060193     2.592922
O2     7.835281    37.161851     2.620385
O2     7.828603     9.123689     5.933326
O2    16.982039    37.143914     5.924599
O2    16.913733     9.060953     2.589319
O2    12.406734    33.095567     4.314228
O2    12.314524     5.053882     1.019706
O2     3.276391    33.111438     1.039995
O2     3.292708     5.027641     4.294402
O2     5.909095    23.038524     4.286322
O2     5.992054    51.067449     1.020874
O2    15.058733    22.999394     1.037232
O2    15.015566    51.094733     4.292910
O2     3.285827    14.432636     0.923946
O2     3.316066    42.471894     4.189510
O2    12.390196    14.389524     4.188844
O2    12.431199    42.501574     0.922017
O2     5.873610    13.607500     0.918472
O2     5.919864    41.728791     4.193497
O2    14.996318    13.658467     4.189352
O2    15.027295    41.710054     0.917914
O2    10.450741    28.473620     5.873774
O2    10.429291     0.383812     2.629810
O2     1.340488    28.441380     2.600979
O2     1.290056     0.454726     5.853115
O2     7.862832    27.621713     5.874981
O2     7.877298    55.737786     2.628030
O2    16.997404    27.619570     2.597666
O2    17.016587    55.669354     5.852450
O1     8.563021    31.819505     5.382502
H      8.557220    30.940337     4.958253
H      8.130116    32.406528     4.729087
O1    17.557460    31.868201     2.018840
H     17.470348    31.004784     1.571989
H     17.160754    32.517575     1.401411
O1    17.607050     3.782482     5.377825
H     17.610835     2.911618     4.936963
H     17.155057     4.374684     4.742212
O1     9.763645    24.280245     5.389251
H      9.770452    25.156808     4.960025
H     10.196250    23.688618     4.739770
O1     0.854694    24.137199     2.078702
H      0.932101    25.000826     1.626503
H      1.259235    23.494200     1.459745
O1     0.701197    52.342660     5.375659
H      0.698577    53.214134     4.935908
H      1.155693    51.751444     4.741021
O1     9.845531    33.385945     2.902227
H     10.639101    33.341405     3.470878
H      9.222886    33.942357     3.415134
O1     0.713130     5.298284     2.883422
H      1.524774     5.263588     3.426527
H      0.097135     5.838402     3.420652
O1     8.469741    22.729173     2.898591
H      7.667730    22.768076     3.455453
H      9.088491    22.175142     3.418415
O1    17.591589    50.828842     2.880337
H     16.779262    50.865084     3.422309
H     18.207884    50.292693     3.421098
O1    10.237485    15.132375     2.395205
H     10.130263    16.018390     1.987851
H     11.116126    15.184923     2.824597
O1    10.273894    43.249938     5.680107
H     10.155369    44.142612     5.290296
H     11.154141    43.305244     6.106445
O1     1.120115    15.164433     5.678702
H      1.010515    16.058211     5.288903
H      2.000605    15.210637     6.105720
O1     1.158323    43.220263     2.389682
H      1.055458    44.105078     1.978483
H      2.037092    43.269732     2.819429
O1     8.072396    40.990835     2.398880
H      8.181705    40.104592     1.992685
H      7.193109    40.937270     2.826903
O1     8.031873    12.874036     5.678944
H      8.145718    11.980360     5.290126
H      7.151667    12.824089     6.106255
O1    17.187614    40.986472     5.683289
H     17.279349    40.096310     5.281388
H     16.307774    40.951768     6.112412
O1    17.157997    12.908093     2.386764
H     17.262997    12.023470     1.975672
H     16.278318    12.857461     2.814494
O1    12.627125    29.237939     4.077039
H     12.741867    30.129553     3.683707
H     11.742205    29.288713     4.495771
O1    12.613566     1.177789     0.800523
H     12.723596     2.070064     0.407049
H     11.729402     1.222719     1.220806
O1     3.520491    29.228753     0.798599
H      3.641551    30.123116     0.412798
H      2.638840    29.283824     1.222759
O1     3.464992     1.227464     4.061290
H      3.590826     2.117810     3.667901
H      2.580317     1.288428     4.478754
O1     5.679281    26.852809     4.065882
H      5.545943    25.962704     3.674420
H      6.565045    26.786187     4.480522
O1     5.693125    54.946750     0.799817
H      5.583749    54.054497     0.406199
H      6.577320    54.902651     1.220165
O1    14.790592    26.881670     0.801772
H     14.671360    25.988245     0.413191
H     15.668717    26.824713     1.232954
O1    14.840724    54.897093     4.060466
H     14.715553    54.006859     3.666727
H     15.725857    54.837207     4.477186
O1    17.127358    34.059519     4.218947
H     16.201508    34.082882     3.903348
H     17.272274    34.941790     4.611184
O1    16.963045     6.074992     0.704305
H     16.033854     6.019299     0.408064
H     17.037278     6.955920     1.119194
O1     7.894599    34.142083     0.683931
H      6.958886    34.072367     0.411252
H      7.962206    35.016171     1.114291
O1    10.428407    21.968278     0.693870
H     11.360522    22.032269     0.408484
H     10.360408    21.091922     1.119605
O1     1.342111    50.049230     0.703085
H      2.271792    50.105762     0.408344
H      1.269419    49.170625     1.123103

