480
-14227.5741333722
Si     4.571449    14.019443     0.000000
Si     4.601776    42.089799     3.262619
Si    13.689455    14.019998     3.262954
Si    13.704149    42.092372     6.545940
Si     9.145408    28.023373     4.951904
Si     9.119490     0.014140     1.701762
Si    18.261089    28.037773     1.689896
Si    -0.001753     0.014826     4.939133
Si     9.144955    18.662575     1.672120
Si     9.139050    46.756638     4.980965
Si    18.236415    18.686949     4.984222
Si     0.011668    -0.000129     1.666044
Si     9.145239    37.449603     1.689235
Si     9.144064     9.350818     4.984564
Si     0.037293    37.453784     4.989469
Si    18.234828     9.374678     1.667682
Si    13.710183    32.789998     3.389390
Si    13.636249     4.751988     0.107274
Si     4.576218    32.782231     0.121892
Si     4.610324     4.755040     3.354404
Si     4.534111    23.287448     3.354302
Si     4.648142    51.356317     0.105949
Si    13.742685    23.288350     0.109465
Si    13.673079    51.352774     3.351752
Si     2.853952    14.841399     2.440044
Si     2.886700    42.890777     5.699949
Si    11.978341    14.820157     5.703198
Si    11.993417    42.907275     2.436647
Si     6.287822    13.199431     2.440799
Si     6.308406    41.278400     5.705198
Si    15.399446    13.217931     5.703515
Si    15.424669    41.276977     2.430743
Si    10.853781    28.874239     0.836248
Si    10.830939     0.811590     4.146018
Si     1.738529    28.845189     4.130734
Si     1.713308     0.865435     0.822021
Si     7.426961    27.183276     0.833328
Si     7.451144    55.297285     4.144661
Si    16.549648    27.215619     4.129071
Si    16.572473    55.243466     0.820784
Si    10.836159    19.434163     4.111183
Si    10.849923    47.466636     0.872406
Si     1.706822    19.399572     0.875153
Si     1.741808    47.503645     4.104962
Si     7.467536    36.669031     4.127560
Si     7.435697     8.642358     0.874967
Si    16.584777    36.683015     0.882785
Si    16.541193     8.603482     4.105294
Si    12.024085    33.504536     5.841856
Si    11.940826     5.420594     2.550570
Si     2.888974    33.489104     2.565134
Si     2.887639     5.471861     5.807895
Si    15.394111    50.635182     5.806434
Si    15.436352    22.612693     2.553418
Si     6.342784    50.686851     2.550510
Si     6.250987    22.570943     5.809646
Si     7.387432    17.970835     4.118070
Si     7.384292    46.071209     0.866113
Si    16.480565    18.000566     0.868947
Si    16.532364    46.038035     4.111617
Si    10.910101    38.127467     4.133804
Si    10.903316    10.037809     0.870773
Si     1.799589    38.125083     0.882103
Si     1.750720    10.069640     4.114106
Si     6.327918    32.008758     2.564666
Si     6.333642     4.011663     5.805908
Si    15.459301    32.023304     5.837992
Si    15.398887     3.975981     2.546922
Si    11.976576    24.058703     2.547413
Si    11.948237    52.096692     5.801936
Si     2.808915    24.033396     5.804749
Si     2.885028    52.131746     2.544695
Al    14.408305    43.781587     4.063692
Al    14.381569    15.718869     0.788190
Al     5.289869    43.786365     0.787006
Al     5.270183    15.710557     4.069174
Al    13.015876    40.397013     4.064379
Al    13.001420    12.319659     0.787935
Al     3.909796    40.390913     0.785530
Al     3.869114    12.329886     4.068692
Al     8.417597    29.704728     2.445143
Al     8.425656     1.717188     5.776163
Al    17.554671    29.718380     5.749091
Al    17.512195     1.691566     2.430990
Al     9.867264    26.347649     2.443328
Al     9.856079    54.391172     5.776324
Al     0.728332    26.335174     5.753689
Al     0.772487    54.417120     2.431214
Al    17.544483    48.452979     5.710305
Al    17.517001    20.383231     2.481924
Al     8.420728    48.454468     2.478956
Al     8.399433    20.385919     5.716989
Al     9.899834    35.720939     5.737242
Al     9.864269     7.654766     2.482617
Al     0.783201    35.715336     2.489189
Al     0.737835     7.654623     5.711872
Al     5.391205    34.414543     4.176686
Al     5.339149     6.425544     0.849541
Al    14.505245    34.436903     0.896021
Al    14.437652     6.376674     4.159773
Al    12.940359    21.659033     4.160189
Al    12.946641    49.683712     0.846066
Al     3.802632    21.619536     0.849206
Al     3.845483    49.730332     4.157919
Al     9.823223    45.059547     2.492371
Al     9.825194    16.989192     5.735645
Al     0.731091    45.057855     5.729241
Al     0.680437    16.991069     2.494151
Al     8.462257    11.049601     2.494969
Al     8.471123    39.115516     5.752282
Al    17.551827    11.048908     5.730546
Al    17.587851    39.120053     2.492991
Al     3.851607    31.056680     4.172505
Al     3.880561     3.043548     0.867000
Al    12.995606    31.068311     0.892697
Al    12.933808     3.009782     4.160437
Al    14.441140    25.023374     4.162036
Al    14.405571    53.065004     0.864868
Al     5.263090    25.003699     0.868431
Al     5.349275    53.097875     4.159909
Na     8.697785    14.502570     4.053458
Na     8.725118    42.593789     0.772775
Na    17.825376    14.525395     0.769753
Na    17.845657    42.573740     4.044505
Na     9.586066    41.600369     4.055251
Na     9.558364    13.515373     0.771222
Na     0.469258    41.586497     0.771992
Na     0.441229    13.539334     4.052132
Na     5.030380    28.555405     2.482361
Na     4.971658     0.541004     5.740787
Na    14.122393    28.565493     5.754807
Na    14.129366     0.511333     2.480984
Na    13.249581    27.524802     2.488856
Na    13.310459    55.569156     5.740369
Na     4.165038    27.519032     5.745369
Na     4.155491    55.598619     2.481174
Ca     4.250033    18.346764     2.439065
Ca     4.332621    46.361518     5.574532
Ca    13.426015    18.294655     5.580064
Ca    13.395108    46.413645     2.428999
Ca     4.889605     9.703184     2.429045
Ca     4.885678    37.772704     5.638754
Ca    13.950983     9.745521     5.575554
Ca    13.993534    37.804609     2.334167
Ca     9.397586    32.426503     0.824109
Ca     9.342590     4.272629     3.960589
Ca     0.258441    32.320191     3.947086
Ca     0.267970     4.397893     0.805434
Ca     8.868978    23.647776     0.810767
Ca     8.942237    51.842410     3.951391
Ca    18.027172    23.755223     3.985737
Ca    18.017769    51.713417     0.803298
O2     9.473651    45.429404     4.137341
O2     9.504649    17.337976     0.840178
O2     0.409659    45.406976     0.833622
O2     0.330306    17.360556     4.139403
O2     8.810146    10.677274     4.139891
O2     8.803491    38.782613     0.860887
O2    17.875761    10.698385     0.834778
O2    17.907402    38.774973     4.153503
O2    13.358124    31.487484     2.526621
O2    13.260937     3.463499     5.785878
O2     4.194325    31.492912     5.802156
O2     4.254247     3.444305     2.500531
O2     4.890324    24.597811     2.500799
O2     5.020038    52.643205     5.784672
O2    14.114055    24.577211     5.790262
O2    14.030204    52.662868     2.497748
O2     8.900015    19.924408     0.750381
O2     8.872925    48.024340     4.079403
O2    17.969974    19.955727     4.083440
O2    18.043760    47.992931     0.744608
O2     0.241265     8.112360     0.746428
O2     0.304520    36.193461     4.077056
O2     9.412503     8.082286     4.084130
O2     9.376472    36.193768     0.757733
O2    14.091425    34.075338     2.533653
O2    14.048687     6.033530     5.809976
O2     5.003495    34.061277     5.824111
O2     4.920619     6.037999     2.476656
O2     4.222354    22.004002     2.476712
O2     4.231151    50.073434     5.808708
O2    13.330690    22.006296     5.808825
O2    13.363623    50.069138     2.474155
O2    14.025532    43.385665     5.682210
O2    13.978618    15.325723     2.403879
O2     4.896743    43.396915     2.406518
O2     4.902343    15.310513     5.690105
O2    13.388226    40.791366     5.687442
O2    13.402166    12.713649     2.403901
O2     4.309616    40.789383     2.399081
O2     4.235430    12.726102     5.691104
O2     8.778089    29.302843     4.077945
O2     8.825536     1.320224     0.841756
O2    17.917230    29.342304     0.836252
O2    17.867069     1.294656     4.066770
O2     9.516123    26.741418     4.081100
O2     9.460231    54.784692     0.843095
O2     0.338970    26.751406     0.813814
O2     0.416031    54.812521     4.067045
O2     5.893590    17.342335     3.870958
O2     5.899736    45.422258     0.601909
O2    14.994286    17.353730     0.605827
O2    15.037432    45.410403     3.865097
O2    12.396335    38.765187     3.865125
O2    12.389757    10.683985     0.607339
O2     3.290872    38.757677     0.615893
O2     3.244054    10.698841     3.866657
O2     7.771112    31.310225     2.342982
O2     7.815759     3.350250     5.564724
O2    16.917756    31.332661     5.618399
O2    16.845504     3.288866     2.321869
O2    10.530400    24.748174     2.326032
O2    10.466686    52.758580     5.560777
O2     1.328189    24.695665     5.559892
O2     1.438355    52.819131     2.321162
O2    12.374522    19.981497     4.202434
O2    12.384945    48.012363     0.941050
O2     3.240405    19.947676     0.944680
O2     3.279609    48.052179     4.195140
O2     5.942057    36.100192     4.229058
O2     5.900620     8.096834     0.943778
O2    15.054530    36.119383     0.957348
O2    15.003380     8.054473     4.197028
O2    10.525800    34.103054     5.843316
O2    10.415206     5.989688     2.627110
O2     1.393253    34.092894     2.627217
O2     1.371370     6.033084     5.783459
O2    16.910415    50.073968     5.782464
O2    16.962646    22.045752     2.629779
O2     7.869137    50.118963     2.624781
O2     7.766711    22.007363     5.790450
O2    10.468126    43.426883     2.398332
O2    10.463896    15.356937     5.648558
O2     1.371659    43.426700     5.643383
O2     1.327479    15.359925     2.398878
O2     7.814354    12.680445     2.401308
O2     7.824918    40.744454     5.653043
O2    16.913793    12.681052     5.646723
O2    16.946314    40.751246     2.385032
O2     3.247518    29.404505     4.100457
O2     3.229977     1.413716     0.783594
O2    12.367358    29.431083     0.808309
O2    12.345526     1.355452     4.110792
O2    15.035704    26.672391     4.097811
O2    15.055958    54.694530     0.782142
O2     5.910988    26.634553     0.788105
O2     5.936927    54.752189     4.110417
O2     1.890546    18.080049     1.841879
O2     1.911938    46.174931     5.059178
O2    11.006366    18.105651     5.065683
O2    11.034053    46.146547     1.838254
O2     7.251840     9.963100     1.839284
O2     7.293292    37.986413     5.098265
O2    16.370825     9.932642     5.058664
O2    16.391734    38.023975     1.818126
O2     2.659836    32.128549     3.462416
O2     2.706481     4.147407     0.195171
O2    11.821861    32.170657     0.211582
O2    11.714182     4.054062     3.439143
O2    15.660701    23.973911     3.449554
O2    15.579691    51.960425     0.193837
O2     6.436045    23.897684     0.195688
O2     6.569248    52.053549     3.438658
O2    16.434214    47.312314     5.037830
O2    16.365981    19.276449     1.802567
O2     7.269456    47.347770     1.799042
O2     7.289209    19.245058     5.044526
O2    11.022032    36.864915     5.077695
O2    11.016356     8.761065     1.803891
O2     1.908916    36.844767     1.802103
O2     1.848463     8.796020     5.041911
O2     6.530118    33.279232     3.518413
O2     6.461845     5.294401     0.175833
O2    15.633845    33.278329     0.260147
O2    15.577192     5.239276     3.512470
O2    11.799475    22.793139     3.510237
O2    11.824775    50.814578     0.171571
O2     2.680782    22.751316     0.174723
O2     2.706632    50.866921     3.508464
O2     6.264500    14.481272     3.392709
O2     6.287878    42.545410     0.127780
O2    15.383599    14.480885     0.130349
O2    15.403317    42.547821     3.396427
O2    12.019303    41.628521     3.394108
O2    11.999617    13.556415     0.127954
O2     2.908004    41.625791     0.122468
O2     2.875841    13.559746     3.392714
O2     7.411818    28.478241     1.773070
O2     7.416726     0.487004     5.117116
O2    16.551557    28.486177     5.094799
O2    16.514203     0.458866     1.761696
O2    10.867387    27.579292     1.775591
O2    10.864851    55.622607     5.119918
O2     1.738849    27.555960     5.078659
O2     1.770993    55.649688     1.762930
O2     3.862575    15.988178     3.017278
O2     3.904408    44.045656     6.248305
O2    12.998596    15.975362     6.246214
O2    13.006127    44.055384     3.004253
O2     5.277830    12.052775     3.017386
O2     5.292157    40.121507     6.252236
O2    14.379606    12.061627     6.245906
O2    14.411037    40.125489     2.992465
O2     9.822701    29.983424     1.413802
O2     9.806178     1.960902     4.685469
O2     0.708279    29.971523     4.693951
O2     0.681511     1.974508     1.403699
O2     8.455212    26.072201     1.418160
O2     8.476245    54.148283     4.684578
O2    17.579765    26.075185     4.676664
O2    17.603852    54.133984     1.402821
O2     9.779695    20.465866     4.668767
O2     9.809333    48.484979     1.468657
O2     0.663388    20.416204     1.469772
O2     0.684564    48.534429     4.663167
O2     8.544895    35.644404     4.657779
O2     8.475783     7.623990     1.472464
O2    17.626547    35.673187     1.482986
O2    17.598329     7.572701     4.663959
O2     3.979404    34.426063     3.215286
O2     3.934234     6.480429     6.417990
O2    13.111177    34.469699     6.453398
O2    13.009113     6.369188     3.213371
O2    14.367864    21.660346     3.211329
O2    14.347436    49.625970     6.415946
O2     5.202361    21.562960     6.417689
O2     5.275936    49.736915     3.214081
O2     8.406378    16.874036     4.724436
O2     8.407345    44.976619     1.470896
O2    17.503913    16.906179     1.473645
O2    17.551863    44.941948     4.718373
O2     9.887371    39.223763     4.735527
O2     9.880356    11.132647     1.475538
O2     0.779202    39.217716     1.495764
O2     0.730400    11.165325     4.719943
O2     5.266161    30.959440     3.170456
O2     5.300288     2.928789     6.404604
O2    14.407014    30.956861     6.430170
O2    14.340139     2.919356     3.149404
O2    13.035697    25.113104     3.151222
O2    12.981786    53.178650     6.401286
O2     3.839892    25.116974     6.404684
O2     3.943867    53.187414     3.147848
O2     7.832788    18.376748     2.595918
O2     7.807757    46.478023     5.894076
O2    16.904784    18.407611     5.897115
O2    16.977233    46.443202     2.589173
O2    10.465528    37.709592     2.613205
O2    10.474680     9.630189     5.898697
O2     1.355267    37.745289     5.905999
O2     1.305274     9.661085     2.592620
O2    15.007240    32.501992     4.343473
O2    14.920736     4.445141     1.059245
O2     5.867279    32.468291     1.068884
O2     5.929250     4.431899     4.275562
O2    12.353215    51.675980     4.271606
O2    12.455050    23.591853     1.058524
O2     3.362288    51.663684     1.056200
O2     3.217191    23.608630     4.277316
O2    10.473972    18.978418     2.595010
O2    10.459454    46.985334     5.927767
O2     1.316301    18.916435     5.930636
O2     1.377820    47.047608     2.589088
O2     7.813653    37.149740     2.613039
O2     7.822921     9.120871     5.930061
O2    16.960817    37.130008     5.920255
O2    16.904526     9.057156     2.588590
O2    12.380187    33.081666     4.303172
O2    12.307979     5.049607     1.017011
O2     3.262041    33.096813     1.034448
O2     3.289734     5.021836     4.291419
O2     5.854995    23.017300     4.290685
O2     5.974600    51.057644     1.017491
O2    15.069760    22.990338     1.021351
O2    14.992600    51.084987     4.289854
O2     3.276726    14.429922     0.921001
O2     3.297144    42.457632     4.184066
O2    12.385187    14.381993     4.187064
O2    12.409560    42.487869     0.916671
O2     5.866289    13.608260     0.920874
O2     5.901890    41.718386     4.189675
O2    14.992508    13.657731     4.188330
O2    15.006070    41.697638     0.913726
O2    10.438413    28.454546     5.862639
O2    10.424770     0.376185     2.626776
O2     1.322847    28.426473     2.605817
O2     1.289140     0.447598     5.850739
O2     7.852975    27.596444     5.863114
O2     7.857435    55.729415     2.624472
O2    16.962026    27.642466     2.609180
O2    16.992056    55.659186     5.849400
O1     8.547388    31.796522     5.373992
H      8.543953    30.917743     4.948917
H      8.117567    32.384009     4.718902
O1    17.518599    31.879861     2.014401
H     17.425082    31.016735     1.568432
H     17.126256    32.532065     1.397565
O1    17.597516     3.775531     5.374942
H     17.601071     2.904655     4.934126
H     17.147122     4.368249     4.738702
O1     9.779322    24.263577     5.381546
H      9.781898    25.136764     4.945380
H     10.224423    23.670756     4.741854
O1     0.684013    52.331882     5.372580
H      0.681839    53.203684     4.933512
H      1.135608    51.740327     4.736189
O1     9.819308    33.371400     2.895016
H     10.613426    33.329253     3.463075
H      9.196352    33.928083     3.407267
O1     0.711378     5.293014     2.880761
H      1.522890     5.258451     3.424035
H      0.094916     5.832424     3.418146
O1     8.429345    22.746328     2.884558
H      7.618690    22.782580     3.429006
H      9.045531    22.205350     3.420589
O1    17.570793    50.815451     2.877647
H     16.759358    50.851613     3.420954
H     18.187307    50.277523     3.416418
O1    10.232116    15.134976     2.386832
H     10.123493    16.020077     1.977736
H     11.111027    15.189125     2.815557
O1    10.252812    43.236812     5.674103
H     10.133817    44.129584     5.284706
H     11.133239    43.292224     6.100042
O1     1.115046    15.169002     5.675870
H      1.002042    16.063153     5.287872
H      1.995956    15.217409     6.101860
O1     1.142093    43.207940     2.384212
H      1.038448    44.092739     1.973212
H      2.020981    43.257962     2.813636
O1     8.052452    40.976683     2.392867
H      8.162488    40.090675     1.986357
H      7.172854    40.922451     2.820148
O1     8.024148    12.869595     5.676554
H      8.137316    11.975571     5.288338
H      7.142986    12.821301     6.102069
O1    17.163180    40.971623     5.678272
H     17.256095    40.081431     5.276712
H     16.283210    40.935986     6.107020
O1    17.149073    12.903389     2.384621
H     17.256586    12.018889     1.973930
H     16.269413    12.850402     2.812039
O1    12.609151    29.231356     4.070370
H     12.722916    30.123191     3.677241
H     11.723893    29.280925     4.488448
O1    12.607720     1.172597     0.796844
H     12.718198     2.064820     0.403402
H     11.723187     1.217624     1.216324
O1     3.505871    29.211696     0.795527
H      3.625020    30.105000     0.406698
H      2.626480    29.268189     1.224381
O1     3.463108     1.222187     4.057674
H      3.589826     2.112520     3.664564
H      2.578121     1.283566     4.474429
O1     5.667353    26.836023     4.056780
H      5.536225    25.947036     3.661945
H      6.551738    26.769376     4.474178
O1     5.676283    54.936145     0.796119
H      5.566132    54.043945     0.402611
H      6.560529    54.891284     1.216233
O1    14.769068    26.874178     0.795335
H     14.657497    25.981647     0.402881
H     15.655325    26.830035     1.211352
O1    14.818706    54.886113     4.056731
H     14.692758    53.995909     3.663177
H     15.703749    54.825410     4.473493
O1    17.110204    34.046249     4.222742
H     16.185488    34.074442     3.904139
H     17.257751    34.926634     4.617950
O1    16.955147     6.070275     0.700718
H     16.025915     6.014904     0.404552
H     17.028792     6.949912     1.118437
O1     7.875345    34.127135     0.671992
H      6.938890    34.056762     0.402083
H      7.942761    35.000233     1.104456
O1    10.420456    21.969764     0.703933
H     11.348975    22.025220     0.405498
H     10.348969    21.092080     1.126101
O1     1.327676    50.037160     0.698243
H      2.256984    50.093187     0.402254
H      1.255237    49.158663     1.118571

