458
-14145.9840073060
Si     4.551536    13.981267     0.000000
Si     4.566275    42.029141     3.271168
Si    13.663234    13.971462     3.271156
Si    13.677994    42.019338     0.000012
Si     9.114756    28.000298     4.945642
Si     9.104458     0.037737     1.634563
Si     0.021999    28.000299     1.707152
Si     0.011641     0.037825     4.914171
Si     9.117462    18.628617     1.667570
Si     9.110228    46.721281     4.933407
Si    18.177878    18.653826     4.990606
Si     0.017799    46.725941     1.660109
Si     9.112054    37.371981     1.667577
Si     9.119282     9.279320     4.933426
Si     0.051636    37.346763     4.990621
Si     0.026194     9.274663     1.660098
Si    13.716776    32.745059     3.358547
Si    13.666172     4.739185     0.018691
Si     4.525225    32.741951     0.108776
Si     4.573221     4.740817     3.295780
Si     4.512739    23.255537     3.358542
Si     4.563261    51.261448     0.018707
Si    13.704293    23.258648     0.108772
Si    13.656328    51.259746     3.295756
Si     2.838586    14.794483     2.445070
Si     2.860093    42.818460     5.715785
Si    11.948012    14.784505     5.709640
Si    11.962356    42.829155     2.438329
Si     6.267166    13.171437     2.438321
Si     6.281495    41.216084     5.709655
Si    15.369410    13.182117     5.715776
Si    15.390933    41.206114     2.445084
Si    10.826404    28.848185     0.826302
Si    10.817514     0.843057     4.076420
Si     1.732733    28.791565     4.151587
Si     1.724923     0.843137     0.800175
Si     7.403117    27.152408     0.826300
Si     7.412003    55.157505     4.076414
Si    16.496782    27.209031     4.151584
Si    16.504587    55.157451     0.800179
Si    10.811176    19.399532     4.106495
Si    10.850046    47.392904     0.822840
Si     1.704022    19.360000     0.879058
Si     1.758418    47.392309     4.105135
Si     7.418339    36.601059     4.106498
Si     7.379486     8.607695     0.822853
Si    16.525497    36.640594     0.879068
Si    16.471109     8.608247     4.105122
Si    11.993863    33.459216     5.813355
Si    11.926388     5.412556     2.463575
Si     2.830089    33.406178     2.553785
Si     2.832919     5.411296     5.740584
Si    15.396631    50.589299     5.740563
Si    15.399427    22.594414     2.553783
Si     6.303099    50.587992     2.463610
Si     6.235647    22.541373     5.813351
Si     7.364468    17.937583     4.116468
Si     7.379255    45.993178     0.819949
Si    16.426376    17.972253     0.877190
Si    16.474166    45.996023     4.103029
Si    10.865046    38.063013     4.116478
Si    10.850275    10.007410     0.819972
Si     1.803147    38.028335     0.877209
Si     1.755349    10.004579     4.103018
Si     6.284985    31.968473     2.550369
Si     6.303606     4.013259     5.738896
Si    15.436262    32.004873     5.811874
Si    15.396494     4.013624     2.461955
Si    11.944531    24.032119     2.550364
Si    11.925926    51.987302     5.738867
Si     2.793252    23.995721     5.811867
Si     2.832982    51.986974     2.461957
Al    14.371908    43.715421     4.075392
Al    14.341084    15.683653     0.794708
Al     5.270327    43.714751     0.793054
Al     5.251035    15.673440     4.072240
Al    12.978482    40.327156     4.072250
Al    12.959192    12.285837     0.793039
Al     3.888439    40.316934     0.794718
Al     3.857611    12.285175     4.075377
Al     8.388671    29.677486     2.437216
Al     8.408809     1.734513     5.710474
Al    17.519033    29.703764     5.784703
Al    17.501628     1.734498     2.434322
Al     9.840847    26.323106     2.437216
Al     9.820716    54.266036     5.710471
Al     0.710478    26.296831     5.784703
Al     0.727848    54.266110     2.434319
Al    17.507011    48.393697     5.707869
Al    17.466061    20.354956     2.489371
Al     8.412368    48.391339     2.425000
Al     8.377226    20.353031     5.714754
Al     9.852287    35.647564     5.714761
Al     9.817154     7.609259     2.425021
Al     0.763455    35.645636     2.489385
Al     0.722517     7.606897     5.707853
Al     5.325244    34.368262     4.164055
Al     5.269244     6.411238     0.787574
Al    14.439426    34.417695     0.853491
Al    14.362165     6.411611     4.066566
Al    12.904271    21.632329     4.164049
Al    12.960316    49.589338     0.787546
Al     3.790095    21.582898     0.853484
Al     3.867354    49.588940     4.066570
Al     9.815217    44.997783     2.445675
Al     9.800770    16.955751     5.732912
Al     0.723436    44.998017     5.728984
Al     0.677712    16.955081     2.501461
Al     8.414310    11.002814     2.445691
Al     8.428742    39.044844     5.732919
Al    17.506076    11.002572     5.728974
Al    17.551807    39.045516     2.501476
Al     3.823127    30.998100     4.165472
Al     3.868317     3.016083     0.807988
Al    12.984385    31.032741     0.871891
Al    12.960239     3.016596     4.086602
Al    14.406390    25.002491     4.165471
Al    14.361213    52.984499     0.807967
Al     5.245136    24.967852     0.871889
Al     5.269265    52.983977     4.086617
Na     8.685661    14.461969     4.045972
Na     8.713946    42.511518     0.759320
Na    17.775062    14.482053     0.782159
Na    17.799626    42.509419     4.056385
Na     9.543852    41.538621     4.045976
Na     9.515580    13.489070     0.759317
Na     0.454458    41.518540     0.782175
Na     0.429885    13.491171     4.056370
Na     5.010095    28.496539     2.486977
Na     4.971151     0.525223     5.683104
Na    14.067326    28.526714     5.747835
Na    14.064283     0.526505     2.405476
Na    13.219423    27.504048     2.486976
Na    13.258379    55.475360     5.683095
Na     4.162186    27.473875     5.747833
Na     4.165213    55.474070     2.405483
Ca     4.249284    18.298345     2.419809
Ca     4.331918    46.279646     5.573719
Ca    13.398978    18.259661     5.578789
Ca    13.419475    46.287701     2.313792
Ca     4.810054     9.712874     2.313810
Ca     4.830540    37.740912     5.578819
Ca    13.897653     9.720870     5.573823
Ca    13.980238    37.702246     2.419830
Ca     9.377506    32.385239     0.809350
Ca     9.356883     4.305708     3.947939
Ca     0.229497    32.248635     3.942774
Ca     0.264792     4.306314     0.673509
Ca     8.852015    23.615355     0.809349
Ca     8.872629    51.694899     3.947879
Ca    18.000017    23.751950     3.942776
Ca    17.964700    51.694235     0.673595
O2     9.455134    45.410722     4.073946
O2     9.475608    17.304546     0.834357
O2     0.363891    45.416853     0.799335
O2     0.327013    17.327648     4.145541
O2     8.774383    10.589879     4.073967
O2     8.753911    38.696052     0.834365
O2    17.865619    10.583763     0.799339
O2    17.902505    38.672943     4.145556
O2    13.362390    31.434243     2.504287
O2    13.318620     3.428937     5.715332
O2     4.150251    31.455549     5.789444
O2     4.227476     3.430868     2.435837
O2     4.867128    24.566354     2.504284
O2     4.910924    52.571663     5.715360
O2    14.079260    24.545051     5.789443
O2    14.002068    52.569696     2.435813
O2     8.872993    19.891053     0.746261
O2     8.825298    48.006780     4.054282
O2    17.912032    19.922459     4.090629
O2    17.917075    48.012855     0.783058
O2     0.312428     7.987760     0.783028
O2     0.317481    36.078131     4.090642
O2     9.404212     7.993821     4.054297
O2     9.356526    36.109546     0.746266
O2    14.023843    34.028523     2.480834
O2    13.950768     6.024335     5.695024
O2     4.943049    34.024042     5.815606
O2     4.858047     6.027150     2.417448
O2     4.205675    21.972080     2.480827
O2     4.278602    49.976310     5.695032
O2    13.286461    21.976558     5.815599
O2    13.371517    49.973414     2.417424
O2    13.995041    43.320930     5.698020
O2    13.947858    15.276781     2.409299
O2     4.868096    43.333509     2.413085
O2     4.868496    15.275253     5.690451
O2    13.361024    40.725342     5.690459
O2    13.361416    12.667099     2.413063
O2     4.281666    40.723822     2.409303
O2     4.234475    12.679664     5.698004
O2     8.744042    29.280344     4.072908
O2     8.798817     1.339673     0.774021
O2    17.920463    29.308789     0.847587
O2    17.891191     1.339633     4.053618
O2     9.485473    26.720251     4.072907
O2     9.430728    54.660864     0.774030
O2     0.309058    26.691804     0.847586
O2     0.338166    54.661136     4.053529
O2     5.871285    17.306256     3.872502
O2     5.890831    45.344335     0.584155
O2    14.940709    17.324450     0.619285
O2    14.985802    45.348483     3.869714
O2    12.358231    38.694340     3.872514
O2    12.338703    10.656242     0.584170
O2     3.288814    38.676138     0.619306
O2     3.243713    10.652113     3.869702
O2     7.730723    31.278738     2.327249
O2     7.793275     3.367179     5.506674
O2    16.915683    31.338873     5.571823
O2    16.886187     3.367186     2.230923
O2    10.498795    24.721859     2.327249
O2    10.436255    52.633382     5.506638
O2     1.313830    24.661722     5.571820
O2     1.343266    52.633395     2.230965
O2    12.347514    19.950913     4.196981
O2    12.395708    47.919751     0.869731
O2     3.238383    19.907579     0.944159
O2     3.304876    47.918402     4.149791
O2     5.882003    36.049677     4.196986
O2     5.833831     8.080831     0.869760
O2    14.991135    36.093020     0.944168
O2    14.924655     8.082143     4.149781
O2    10.479301    34.023561     5.785506
O2    10.380391     5.939370     2.508148
O2     1.305252    33.977044     2.629364
O2     1.286598     5.936963     5.786947
O2    16.942970    50.063653     5.786947
O2    16.924262    22.023548     2.629356
O2     7.849120    50.061233     2.508096
O2     7.750211    21.977033     5.785499
O2    10.440215    43.356707     2.393754
O2    10.433329    15.321727     5.644422
O2     1.341299    43.352802     5.682648
O2     1.314362    15.318803     2.406721
O2     7.789307    12.643890     2.393753
O2     7.796180    40.678862     5.644426
O2    16.888204    12.647776     5.682622
O2    16.915157    40.681789     2.406739
O2     3.245640    29.339586     4.117253
O2     3.246010     1.373290     0.756373
O2    12.341729    29.399891     0.788678
O2    12.338332     1.373697     4.032792
O2    14.983875    26.661004     4.117249
O2    14.983498    54.627298     0.756377
O2     5.887792    26.600708     0.788675
O2     5.891183    54.626871     4.032778
O2     1.890428    18.038467     1.843243
O2     1.947949    46.051919     5.040907
O2    10.982201    18.071820     5.062053
O2    11.037867    46.055919     1.762846
O2     7.191663     9.944673     1.762865
O2     7.247313    37.928770     5.062061
O2    16.281584     9.948620     5.040923
O2    16.339091    37.962125     1.843256
O2     2.601609    32.036696     3.437823
O2     2.645504     4.073627     0.124205
O2    11.808149    32.135651     0.200299
O2    11.737679     4.075124     3.403225
O2    15.627907    23.963895     3.437826
O2    15.584046    51.926973     0.124182
O2     6.421373    23.864949     0.200297
O2     6.491810    51.925445     3.403233
O2    16.376461    47.276382     5.029295
O2    16.313589    19.250878     1.807420
O2     7.281346    47.272871     1.747021
O2     7.266401    19.212014     5.042769
O2    10.963112    36.788581     5.042779
O2    10.948190     8.727716     1.747046
O2     1.915930    36.749714     1.807439
O2     1.853053     8.724224     5.029287
O2     6.466290    33.234773     3.511635
O2     6.400123     5.294107     0.108829
O2    15.562823    33.287120     0.178859
O2    15.493062     5.295672     3.385891
O2    11.763226    22.765818     3.511624
O2    11.829437    50.706464     0.108808
O2     2.666701    22.713474     0.178848
O2     2.736519    50.704807     3.385710
O2     6.251482    14.445477     3.401236
O2     6.270237    42.472661     0.140606
O2    15.347817    14.457541     0.123630
O2    15.369286    42.483353     3.404826
O2    11.978032    41.555114     3.401245
O2    11.959279    13.527916     0.140575
O2     2.881701    41.543036     0.123633
O2     2.860230    13.517244     3.404811
O2     7.388821    28.446827     1.766283
O2     7.406895     0.502831     5.045090
O2    16.506855    28.474341     5.127841
O2    16.499629     0.502995     1.768639
O2    10.840696    27.553771     1.766286
O2    10.822620    55.497736     5.045100
O2     1.722658    27.526254     5.127843
O2     1.729894    55.497553     1.768585
O2     3.851254    15.942625     3.010235
O2     3.886393    43.963526     6.262035
O2    12.961812    15.943071     6.254802
O2    12.978663    43.975557     3.000550
O2     5.250859    12.025035     3.000539
O2     5.267697    40.057507     6.254810
O2    14.343122    12.037046     6.262032
O2    14.378263    40.057967     3.010246
O2     9.796607    29.957453     1.408517
O2     9.797600     1.990567     4.629796
O2     0.707714    29.941244     4.686775
O2     0.705329     1.990635     1.354151
O2     8.432913    26.043146     1.408515
O2     8.431916    54.009995     4.629798
O2    17.521799    26.059351     4.686773
O2    17.524191    54.009929     1.354099
O2     9.755119    20.431304     4.664436
O2     9.832116    48.410812     1.458985
O2     0.668905    20.380017     1.480197
O2     0.743741    48.410308     4.745717
O2     8.474396    35.569286     4.664437
O2     8.397426     7.589792     1.458984
O2    17.560615    35.620582     1.480208
O2    17.485791     7.590237     4.745679
O2     3.895532    34.353755     3.221265
O2     3.848732     6.430368     6.378289
O2    13.038200    34.468775     6.424384
O2    12.941335     6.432064     3.101819
O2    14.333984    21.646836     3.221260
O2    14.380828    49.570215     6.378270
O2     5.191311    21.531813     6.424380
O2     5.288273    49.568433     3.101955
O2     8.383184    16.840920     4.720914
O2     8.407226    44.900072     1.415388
O2    17.448230    16.876742     1.480146
O2    17.502424    44.902950     4.697828
O2     9.846332    39.159675     4.720924
O2     9.822308    11.100516     1.415413
O2     0.781292    39.123851     1.480163
O2     0.727088    11.097651     4.697819
O2     5.228249    30.912322     3.154299
O2     5.276314     2.919532     6.334192
O2    14.402472    30.922566     6.408219
O2    14.368807     2.920741     3.058099
O2    13.001267    25.088269     3.154297
O2    12.953212    53.081040     6.334163
O2     3.827039    25.078028     6.408215
O2     3.860655    53.079828     3.058165
O2     7.803949    18.343303     2.591610
O2     7.784412    46.406875     5.845200
O2    16.845509    18.375683     5.904028
O2    16.879020    46.410439     2.572685
O2    10.425567    37.657288     2.591620
O2    10.445092     9.593702     5.845228
O2     1.384003    37.624901     5.904046
O2     1.350492     9.590158     2.572677
O2    15.038642    32.424619     4.278366
O2    14.991457     4.424142     0.930479
O2     5.809748    32.433015     1.060318
O2     5.898287     4.426294     4.208135
O2    12.331266    51.574263     4.208113
O2    12.419768    23.567589     1.060311
O2     3.237956    51.576619     0.930420
O2     3.190871    23.575976     4.278358
O2    10.446142    18.942390     2.591228
O2    10.427911    46.949718     5.881071
O2     1.311550    18.880177     5.938878
O2     1.335645    46.954283     2.607182
O2     7.783372    37.058208     2.591231
O2     7.801592     9.050882     5.881080
O2    16.917960    37.120417     5.938889
O2    16.893867     9.046303     2.607173
O2    12.397749    33.007152     4.298344
O2    12.349192     4.969529     0.966876
O2     3.198710    33.040333     1.019836
O2     3.255333     4.969695     4.243105
O2     5.831764    22.993450     4.298342
O2     5.880174    51.031003     0.966950
O2    15.030805    22.960271     1.019835
O2    14.974229    51.030878     4.243077
O2     3.254045    14.373899     0.925181
O2     3.259147    42.394974     4.191301
O2    12.363011    14.337687     4.199460
O2    12.377413    42.410221     0.919334
O2     5.852114    13.590378     0.919325
O2     5.866491    41.662920     4.199483
O2    14.970352    13.605616     4.191299
O2    14.975480    41.626699     0.925195
O2    10.406233    28.431904     5.857131
O2    10.406441     0.415735     2.557583
O2     1.329933    28.353946     2.631697
O2     1.313595     0.416136     5.837083
O2     7.823278    27.568690     5.857129
O2     7.823091    55.584812     2.557576
O2    16.899584    27.646651     2.631695
O2    16.915867    55.584531     5.837110
O1     8.480569    31.761079     5.378868
H      8.481663    30.888715     4.941066
H      8.043215    32.355524     4.735241
O1     9.748940    24.239516     5.378867
H      9.747849    25.111880     4.941068
H     10.186288    23.645072     4.735236
O1     9.814509    33.291688     2.884863
H     10.621665    33.255415     3.434468
H      9.195583    33.833859     3.416722
O1     8.415013    22.708904     2.884862
H      7.607858    22.745176     3.434471
H      9.033939    22.166727     3.416715
O1    10.211493    15.102575     2.380067
H     10.106565    15.988953     1.972882
H     11.094350    15.148992     2.801651
O1    10.223755    43.198074     5.648895
H     10.101225    44.089179     5.256375
H     11.107041    43.254827     6.069193
O1     1.108436    15.131028     5.676591
H      0.985311    16.024442     5.290094
H      1.990359    15.187982     6.099149
O1     1.117811    43.195688     2.373762
H      0.982301    44.083979     1.979120
H      1.998899    43.267786     2.795983
O1     8.018019    40.898017     2.380077
H      8.122947    40.011644     1.972892
H      7.135159    40.851605     2.801654
O1     8.005753    12.802520     5.648897
H      8.128283    11.911416     5.256380
H      7.122469    12.745773     6.069195
O1    17.121073    40.869561     5.676604
H     17.244202    39.976147     5.290107
H     16.239148    40.812607     6.099161
O1    17.111696    12.804915     2.373752
H     17.247205    11.916624     1.979109
H     16.230606    12.732822     2.795970
O1    12.568775    29.212138     4.059064
H     12.699189    30.101990     3.666254
H     11.683668    29.276938     4.474962
O1    12.557605     1.211868     0.730793
H     12.685220     2.102726     0.339347
H     11.673729     1.272703     1.149081
O1     3.499267    29.162394     0.796040
H      3.613688    30.053717     0.401834
H      2.614119    29.211340     1.213653
O1     3.465127     1.212778     4.008449
H      3.593296     2.103486     3.616832
H      2.581231     1.274178     4.426654
O1     5.660740    26.788458     4.059063
H      5.530327    25.898601     3.666253
H      6.545848    26.723657     4.474963
O1     5.671910    54.788737     0.730811
H      5.544311    53.897873     0.339356
H      6.555780    54.727901     1.149114
O1    14.730254    26.838205     0.796039
H     14.615833    25.946882     0.401832
H     15.615401    26.789259     1.213654
O1    14.764374    54.787807     4.008428
H     14.636210    53.897094     3.616811
H     15.648305    54.726434     4.426563
O1     7.833925    34.066805     0.693667
H      6.904827    34.012244     0.396922
H      7.905828    34.943189     1.118508
O1    10.395598    21.933789     0.693663
H     11.324693    21.988355     0.396912
H     10.323696    21.057404     1.118502

