437
-14074.7182361161
Si     4.531332    13.952334     0.000000
Si     4.521935    41.855427     3.273672
Si    13.593575    13.951791     3.280370
Si    13.610746    41.868099     0.016521
Si     9.059757    27.910039     4.924282
Si     9.056146    55.802772     1.634933
Si    18.126049    27.908411     1.645010
Si    18.118378    55.804506     4.915361
Si     9.043280    18.657420     1.660704
Si     9.027100    46.556282     4.934913
Si    18.105114    18.656464     4.940750
Si    18.106863    46.555744     1.641196
Si     9.080134    37.161042     1.669309
Si     9.077336     9.242021     4.937710
Si     0.015517    37.151018     4.945940
Si     0.014563     9.241861     1.657943
Si    13.610937    32.622493     3.308114
Si    13.613901     4.703502     0.017131
Si     4.546644    32.618476     0.023684
Si     4.545858     4.703311     3.296408
Si     4.508653    23.203217     3.300844
Si     4.502421    51.097072     0.009203
Si    13.576464    23.202526     0.023323
Si    13.569200    51.099012     3.291816
Si     2.818507    14.753584     2.441933
Si     2.790620    42.642815     5.707954
Si    11.880750    14.752885     5.722286
Si    11.888557    42.652358     2.445956
Si     6.240650    13.150550     2.444132
Si     6.223646    41.053291     5.719096
Si    15.302933    13.150253     5.724460
Si    15.316729    41.063552     2.467705
Si    10.775338    28.712816     0.809893
Si    10.770569     0.797126     4.079778
Si     1.703575    28.715476     4.090548
Si     1.708471     0.800013     0.800923
Si     7.352599    27.109782     0.806040
Si     7.342921    55.003344     4.076372
Si    16.413203    27.110389     4.085921
Si    16.411035    55.007771     0.796816
Si    10.783130    19.327244     4.108673
Si    10.778050    47.224714     0.823936
Si     1.720496    19.328635     0.829424
Si     1.717149    47.218112     4.090222
Si     7.335480    36.488709     4.112823
Si     7.339464     8.578714     0.823095
Si    16.406939    36.498376     0.831583
Si    16.401182     8.578183     4.102716
Si    11.868057    33.285576     5.753163
Si    11.870312     5.369521     2.461655
Si     2.803332    33.283418     2.467049
Si     2.802117     5.369486     5.740719
Si    15.311248    50.429708     5.740739
Si    15.317630    22.534841     2.471655
Si     6.245298    50.430910     2.457505
Si     6.248926    22.534070     5.749112
Si     7.317165    17.934416     4.105472
Si     7.310189    45.826579     0.819356
Si    16.385905    17.935383     0.826313
Si    16.376162    45.849272     4.085168
Si    10.804702    37.883523     4.117076
Si    10.807317     9.970041     0.825592
Si     1.737765    37.870175     0.834188
Si     1.738087     9.969855     4.104973
Si     6.272142    31.891427     2.470266
Si     6.269509     3.977958     5.743805
Si    15.333939    31.894315     5.756381
Si    15.337675     3.979254     2.464715
Si    11.851105    23.927910     2.467842
Si    11.843549    51.821622     5.736535
Si     2.782469    23.928316     5.745180
Si     2.778724    51.823454     2.454072
Al    14.298377    43.553186     4.091404
Al    14.288974    15.650363     0.801088
Al     5.199279    43.551309     0.795059
Al     5.220107    15.649770     4.079989
Al    12.910001    40.161657     4.099933
Al    12.904999    12.254086     0.799726
Al     3.821465    40.157243     0.788700
Al     3.835907    12.253689     4.078620
Al     8.369795    29.608349     2.443549
Al     8.366489     1.693206     5.713986
Al    17.430985    29.610173     5.723516
Al    17.435583     1.696305     2.434719
Al     9.754337    26.212842     2.444567
Al     9.745082    54.105605     5.714768
Al     0.685395    26.213840     5.725015
Al     0.682628    54.109898     2.436155
Al    17.420266    48.237698     5.695435
Al    17.418209    20.333894     2.432822
Al     8.342063    48.227295     2.426432
Al     8.349420    20.332637     5.711935
Al     9.766475    35.485361     5.720450
Al     9.771265     7.572376     2.429886
Al     0.695314    35.483135     2.450196
Al     0.702398     7.572268     5.709295
Al     5.235236    34.286232     4.073937
Al     5.240227     6.376288     0.788919
Al    14.307090    34.294543     0.801037
Al    14.301326     6.376097     4.069252
Al    12.883271    21.529123     4.074108
Al    12.884628    49.422112     0.783416
Al     3.820992    21.530341     0.792184
Al     3.811046    49.424238     4.059338
Al     9.744690    44.829881     2.448716
Al     9.748885    16.934024     5.732896
Al     0.674801    44.831389     5.710856
Al     0.686827    16.935024     2.453657
Al     8.373523    10.970341     2.449482
Al     8.365861    38.879799     5.739070
Al    17.435593    10.969904     5.728963
Al    17.451429    38.881592     2.463534
Al     3.840294    30.891029     4.094402
Al     3.842639     2.978462     0.807894
Al    12.908315    30.893871     0.819689
Al    12.904121     2.977143     4.088035
Al    14.282933    24.927562     4.095812
Al    14.281618    52.823571     0.805679
Al     5.221433    24.928027     0.813824
Al     5.211294    52.822264     4.082213
Na     8.655532    14.442937     4.049060
Na     8.650766    42.335779     0.773547
Na    17.724374    14.444205     0.769521
Na    17.811741    42.511436     3.763824
Na     9.474607    41.365119     4.056872
Na     9.469821    13.465086     0.769936
Na     0.314938    41.255355     0.585744
Na     0.400853    13.465074     4.049695
Na     4.932621    28.397464     2.412692
Na     4.931611     0.485681     5.683864
Na    13.998149    28.401989     5.695326
Na    13.999345     0.486430     2.404918
Na    13.189848    27.422441     2.415582
Na    13.179208    55.315685     5.684294
Na     4.119259    27.421123     5.692003
Na     4.118965    55.318192     2.403572
Ca     4.292171    18.218054     2.298535
Ca     4.298434    46.108192     5.545461
Ca    13.354785    18.217277     5.578574
Ca    13.352384    46.084313     2.262607
Ca     4.766270     9.692917     2.290787
Ca     4.752993    37.579398     5.583765
Ca    13.828035     9.693027     5.570143
Ca    13.852458    37.592583     2.332009
Ca     9.304269    32.172648     0.662965
Ca     9.300513     4.263627     3.939566
Ca     0.245897    32.199128     3.982131
Ca     0.239182     4.267891     0.662761
Ca     8.829760    23.652892     0.651476
Ca     8.821773    51.545895     3.919225
Ca    17.893185    23.658176     3.925735
Ca    17.891822    51.560737     0.632060
O2     9.378192    45.250395     4.072789
O2     9.391806    17.347687     0.800977
O2     0.315436    45.243043     0.778913
O2     0.323300    17.346547     4.081467
O2     8.733454    10.550891     4.075764
O2     8.730665    38.470771     0.809079
O2    17.802055    10.550524     0.795695
O2    17.861355    38.449571     4.062807
O2    13.265456    31.313430     2.446398
O2    13.263173     3.392427     5.715706
O2     4.201086    31.306788     5.721770
O2     4.202160     3.393182     2.435600
O2     4.857526    24.511981     2.440320
O2     4.845103    52.403941     5.707348
O2    13.918537    24.509808     5.721597
O2    13.920560    52.408339     2.432875
O2     8.759947    19.942656     0.781964
O2     8.736810    47.842975     4.059827
O2    17.821825    19.941148     4.061561
O2    17.836050    47.842382     0.762578
O2     0.301192     7.954683     0.781442
O2     0.281334    35.841933     4.086786
O2     9.363465     7.955072     4.060949
O2     9.365417    35.876460     0.790007
O2    13.897848    33.909610     2.431842
O2    13.892009     5.988250     5.698384
O2     4.820735    33.904693     5.704207
O2     4.830358     5.988994     2.418139
O2     4.224014    21.917173     2.422957
O2     4.209734    49.809317     5.691607
O2    13.284462    21.915022     5.705548
O2    13.283662    49.814782     2.412994
O2    13.904125    43.172836     5.712949
O2    13.893191    15.254817     2.419281
O2     4.800840    43.168582     2.417051
O2     4.824518    15.254352     5.698275
O2    13.286083    40.568236     5.718157
O2    13.296263    12.647477     2.419599
O2     4.225439    40.562065     2.401144
O2     4.227062    12.647158     5.698487
O2     8.761790    29.213339     4.062765
O2     8.764632     1.296251     0.772992
O2    17.827185    29.208619     0.781060
O2    17.828506     1.297405     4.052354
O2     9.359375    26.606044     4.063808
O2     9.356588    54.498424     0.775081
O2     0.299375    26.603427     0.786820
O2     0.287193    54.498998     4.056539
O2     5.829224    17.284211     3.876810
O2     5.818607    45.180973     0.585739
O2    14.897951    17.284870     0.598181
O2    14.893690    45.192167     3.864988
O2    12.296054    38.529103     3.893387
O2    12.295046    10.619696     0.594894
O2     3.227207    38.517804     0.603852
O2     3.225804    10.619332     3.873806
O2     7.759898    31.242505     2.238166
O2     7.757515     3.328260     5.513249
O2    16.823216    31.246498     5.527118
O2    16.826565     3.331130     2.234754
O2    10.363536    24.578480     2.239151
O2    10.355136    52.471316     5.508940
O2     1.295719    24.580014     5.515657
O2     1.292016    52.476044     2.226903
O2    12.328425    19.855233     4.149925
O2    12.324963    47.749344     0.859632
O2     3.265839    19.856641     0.869715
O2     3.261697    47.746777     4.129520
O2     5.790325    35.959251     4.152527
O2     5.794326     8.049892     0.866014
O2    14.861577    35.968058     0.877532
O2    14.855927     8.049606     4.146329
O2    10.322005    33.812627     5.798798
O2    10.325396     5.898364     2.505260
O2     1.259522    33.811937     2.515337
O2     1.257287     5.898574     5.784523
O2    16.860852    49.908645     5.777847
O2    16.863401    22.007448     2.511471
O2     7.789954    49.902077     2.496998
O2     7.794409    22.006007     5.790149
O2    10.367825    43.188601     2.411755
O2    10.361426    15.287032     5.679364
O2     1.263170    43.170386     5.639984
O2     1.299308    15.287993     2.399108
O2     7.760281    12.616718     2.401311
O2     7.744374    40.524475     5.684267
O2    16.822534    12.616354     5.681517
O2    16.844430    40.539088     2.399363
O2     3.224587    29.245722     4.044472
O2     3.228466     1.332161     0.756621
O2    12.294642    29.247029     0.768818
O2    12.290302     1.330536     4.036465
O2    14.894149    26.574642     4.046023
O2    14.892718    54.471025     0.754268
O2     5.833528    26.574828     0.762549
O2     5.823380    54.469043     4.033884
O2     1.911635    17.990225     1.768433
O2     1.907501    45.879518     5.030218
O2    10.973871    17.988656     5.047319
O2    10.969338    45.881946     1.756598
O2     7.148394     9.918550     1.759045
O2     7.142230    37.826116     5.051558
O2    16.210455     9.918421     5.038088
O2    16.219583    37.829247     1.784432
O2     2.617320    31.948133     3.410775
O2     2.618196     4.032167     0.120175
O2    11.683938    31.945222     0.128184
O2    11.679740     4.030670     3.399744
O2    15.508823    23.875241     3.407102
O2    15.507498    51.771506     0.116548
O2     6.446860    23.874489     0.126580
O2     6.437361    51.770534     3.393595
O2    16.286188    47.126592     5.012645
O2    16.288115    19.219133     1.747211
O2     7.213784    47.109704     1.741631
O2     7.219237    19.217569     5.027225
O2    10.897313    36.599552     5.037543
O2    10.903295     8.689211     1.751494
O2     1.826581    36.612391     1.789409
O2     1.834311     8.689344     5.031333
O2     6.369324    33.169237     3.400022
O2     6.372709     5.259617     0.110085
O2    15.436878    33.176198     0.121802
O2    15.433998     5.260302     3.389693
O2    11.753664    22.644525     3.389823
O2    11.755883    50.536973     0.096044
O2     2.691435    22.646162     0.108235
O2     2.681061    50.539327     3.375278
O2     6.225191    14.418549     3.416376
O2     6.203482    42.320667     0.134415
O2    15.294200    14.419208     0.137452
O2    15.336793    42.326893     3.456043
O2    11.905982    41.382237     3.414606
O2    11.901245    13.484525     0.133901
O2     2.794832    41.368028     0.110883
O2     2.832231    13.484145     3.412739
O2     7.365796    28.378032     1.777789
O2     7.362258     0.463542     5.046572
O2    16.427037    28.382301     5.052612
O2    16.430354     0.467450     1.767361
O2    10.759308    27.443945     1.781359
O2    10.749178    55.338003     5.052098
O2     1.688908    27.446538     5.062580
O2     1.687317    55.342022     1.774747
O2     3.838271    15.900903     2.991789
O2     3.800200    43.792643     6.273347
O2    12.900465    15.900287     6.272064
O2    12.917702    43.792565     2.998498
O2     5.220256    12.002135     2.992578
O2     5.195555    39.908885     6.256641
O2    14.282532    12.001804     6.272806
O2    14.300303    39.916660     3.018086
O2     9.754184    29.860201     1.358239
O2     9.750869     1.945410     4.628727
O2     0.687673    29.864993     4.643375
O2     0.688733     1.948537     1.349170
O2     8.372677    25.962059     1.355435
O2     8.362906    53.855592     4.626030
O2    17.433820    25.963944     4.637230
O2    17.432700    53.861069     1.345824
O2     9.771442    20.346935     4.750234
O2     9.769125    48.242344     1.472870
O2     0.709255    20.348582     1.471219
O2     0.706841    48.241632     4.727412
O2     8.346037    35.469165     4.756248
O2     8.351087     7.559779     1.466091
O2    17.417044    35.474592     1.470923
O2    17.413179     7.559599     4.745799
O2     3.820116    34.302362     3.102915
O2     3.814926     6.388167     6.381940
O2    12.879665    34.303765     6.396539
O2    12.882513     6.388531     3.103305
O2    14.307341    21.515069     3.115625
O2    14.305418    49.407000     6.387252
O2     5.237507    21.514432     6.391575
O2     5.235455    49.411199     3.102432
O2     8.344023    16.841474     4.700521
O2     8.337227    44.734385     1.416106
O2    17.412872    16.842731     1.421685
O2    17.409569    44.752073     4.667732
O2     9.775207    38.975901     4.711988
O2     9.779476    11.063580     1.418247
O2     0.702394    38.981624     1.389984
O2     0.710366    11.063484     4.697643
O2     5.245086    30.796281     3.061420
O2     5.242147     2.883688     6.336369
O2    14.308266    30.798505     6.349033
O2    14.310967     2.884582     3.057745
O2    12.878506    25.020031     3.062851
O2    12.869415    52.914351     6.333634
O2     3.810439    25.019952     6.340335
O2     3.807409    52.914543     3.048635
O2     7.714894    18.341703     2.570160
O2     7.697899    46.234076     5.842983
O2    16.776516    18.340452     5.849881
O2    16.773417    46.247329     2.546640
O2    10.404727    37.479130     2.581959
O2    10.402844     9.556470     5.851080
O2     1.349518    37.434966     5.864907
O2     1.339823     9.556510     2.571520
O2    14.933769    32.305966     4.223510
O2    14.939276     4.389822     0.930810
O2     5.872164    32.309005     0.938419
O2     5.871266     4.389715     4.210080
O2    12.240717    51.417676     4.200162
O2    12.247987    23.519538     0.932410
O2     3.173684    51.415239     0.917855
O2     3.180195    23.519626     4.209957
O2    10.356701    18.883940     2.613406
O2    10.337962    46.785951     5.888807
O2     1.286926    18.883504     5.893942
O2     1.288843    46.767347     2.596862
O2     7.763679    36.932048     2.617992
O2     7.759917     9.016074     5.885622
O2    16.826239    36.938900     5.895739
O2    16.828089     9.015690     2.605538
O2    12.292391    32.849266     4.255004
O2    12.296226     4.928500     0.965191
O2     3.226425    32.840456     0.969535
O2     3.227893     4.928030     4.244268
O2     5.821785    22.975177     4.253464
O2     5.815086    50.869986     0.962200
O2    14.889220    22.974620     0.976119
O2    14.880827    50.868823     4.246099
O2     3.226890    14.322524     0.922697
O2     3.213068    42.218312     4.192878
O2    12.289090    14.321713     4.203085
O2    12.288611    42.244604     0.920735
O2     5.833762    13.581353     0.924985
O2     5.825706    41.492611     4.197174
O2    14.896087    13.581123     4.205330
O2    14.892591    41.543970     0.976620
O2    10.361880    28.280530     5.849791
O2    10.363361     0.364084     2.561158
O2     1.294012    28.281401     2.573108
O2     1.294229     0.364216     5.842216
O2     7.754870    27.539237     5.846337
O2     7.750839    55.431763     2.556485
O2    16.819988    27.534004     2.564519
O2    16.812218    55.434714     5.836101
O1    10.153313    15.131335     2.369348
H     10.021077    16.021815     1.978647
H     11.037362    15.196547     2.786466
O1    10.142949    43.031736     5.658048
H     10.026079    43.922646     5.263570
H     11.028180    43.081522     6.075487
O1     1.084485    15.130653     5.649099
H      0.952410    16.021200     5.258509
H      1.968507    15.195692     6.066287
O1     1.207109    43.031461     2.174947
H      1.090253    43.936859     1.816340
H      2.097326    43.066286     2.581947
O1     7.967753    40.681880     2.378073
H      8.102234    39.791383     1.988027
H      7.084820    40.613774     2.796811
O1     7.969071    12.770901     5.647374
H      8.101554    11.881063     5.255321
H      7.083928    12.705999     6.062308
O1    17.038228    12.771326     2.367653
H     17.170827    11.881589     1.975418
H     16.153068    12.706251     2.782542
O1    12.502615    29.092697     4.014086
H     12.637051    29.983222     3.624178
H     11.617718    29.158819     4.429290
O1    12.503643     1.176006     0.724572
H     12.636705     2.066140     0.333340
H     11.618644     1.241408     1.139686
O1     3.437458    29.090846     0.733295
H      3.570844    29.980489     0.341108
H      2.552264    29.156901     1.147973
O1     3.435533     1.176049     4.004164
H      3.568989     2.066144     3.612973
H      2.550480     1.241814     4.419083
O1     5.617090    26.730244     4.011807
H      5.486270    25.839781     3.620648
H      6.501493    26.666693     4.428461
O1     5.613288    54.623730     0.721604
H      5.481050    53.733770     0.329772
H      6.497614    54.558449     1.138218
O1    14.684135    26.730887     0.732866
H     14.552572    25.840714     0.341301
H     15.567836    26.665896     1.150851
O1    14.676162    54.626960     4.002903
H     14.545165    53.736748     3.611199
H     15.560105    54.562633     4.420384

