461
-14156.2086114181
Si     4.557785    13.982597     0.000000
Si     4.568189    42.023476     3.277013
Si    13.666912    13.975664     3.270123
Si    13.686526    42.015616     0.005268
Si     9.118993    27.997409     4.948617
Si     9.105280     0.015987     1.643545
Si     0.022868    27.998279     1.709518
Si    18.178232     0.057593     4.905176
Si     9.122625    18.629555     1.669724
Si     9.113667    46.713654     4.941189
Si    18.187778    18.652233     4.989183
Si    18.215624    46.721975     1.666303
Si     9.116632    37.368152     1.673033
Si     9.124581     9.286261     4.949818
Si     0.050099    37.341421     4.995818
Si     0.018618     9.280146     1.657671
Si    13.723121    32.742573     3.362487
Si    13.636009     4.741792     0.026686
Si     4.528562    32.740505     0.112888
Si     4.590463     4.727865     3.308343
Si     4.516191    23.254806     3.360021
Si     4.565540    51.261858     0.027772
Si    13.712282    23.259573     0.110770
Si    13.668246    51.252666     3.299092
Si     2.842357    14.797059     2.443919
Si     2.861485    42.811645     5.721373
Si    11.951682    14.782018     5.708441
Si    11.969422    42.823491     2.443425
Si     6.272404    13.170191     2.439418
Si     6.283178    41.208285     5.715926
Si    15.371797    13.177446     5.715038
Si    15.398667    41.198532     2.450734
Si    10.832649    28.846705     0.829730
Si    10.813397     0.822820     4.086158
Si     1.733166    28.789301     4.154709
Si     1.718886     0.845025     0.787147
Si     7.408887    27.150466     0.828333
Si     7.421604    55.149270     4.084182
Si    16.506125    27.205011     4.153407
Si    16.516730    55.141232     0.789516
Si    10.816104    19.398894     4.109629
Si    10.854844    47.387885     0.831936
Si     1.705397    19.361047     0.878572
Si     1.760218    47.385620     4.111653
Si     7.422809    36.595468     4.111141
Si     7.393902     8.609500     0.837862
Si    16.535579    36.635861     0.883130
Si    16.484271     8.588709     4.104408
Si    11.999598    33.455015     5.817175
Si    11.920043     5.390981     2.466052
Si     2.832633    33.403094     2.557818
Si     2.853479     5.418603     5.752838
Si    15.403600    50.576342     5.743841
Si    15.406478    22.591594     2.555917
Si     6.303602    50.581020     2.472886
Si     6.237994    22.538668     5.815205
Si     7.368792    17.936944     4.117573
Si     7.384220    45.986232     0.826583
Si    16.436884    17.970501     0.874067
Si    16.484682    45.987317     4.107674
Si    10.870104    38.058072     4.122556
Si    10.863568    10.004936     0.836839
Si     1.804600    38.024054     0.882682
Si     1.751053    10.014421     4.099088
Si     6.288289    31.964436     2.554294
Si     6.314389     4.002479     5.753160
Si    15.442850    31.999650     5.815636
Si    15.374910     3.994696     2.466877
Si    11.951554    24.030673     2.552214
Si    11.931972    51.972740     5.741144
Si     2.795344    23.993910     5.813048
Si     2.835787    51.986585     2.472386
Al    14.380413    43.708033     4.081239
Al    14.349680    15.682342     0.794568
Al     5.273977    43.708823     0.799500
Al     5.254521    15.673561     4.072831
Al    12.985213    40.320684     4.076677
Al    12.966974    12.284756     0.791449
Al     3.891511    40.311426     0.799526
Al     3.860548    12.287849     4.073344
Al     8.393966    29.674974     2.440300
Al     8.410299     1.716603     5.720510
Al    17.527269    29.699763     5.787519
Al    17.487343     1.721797     2.412722
Al     9.846500    26.321052     2.439774
Al     9.828666    54.251357     5.718614
Al     0.710762    26.293575     5.786550
Al     0.737569    54.271555     2.415133
Al    17.516494    48.383567     5.714396
Al    17.475120    20.353091     2.487903
Al     8.415611    48.384904     2.432956
Al     8.381189    20.351591     5.717289
Al     9.856587    35.642405     5.719821
Al     9.828552     7.612270     2.442436
Al     0.764115    35.641236     2.493774
Al     0.730528     7.608970     5.704164
Al     5.327899    34.363570     4.168781
Al     5.294125     6.403936     0.801361
Al    14.447847    34.413800     0.857763
Al    14.370566     6.386766     4.080095
Al    12.911149    21.630034     4.165459
Al    12.971071    49.579262     0.789253
Al     3.793787    21.582548     0.853974
Al     3.866868    49.585368     4.075318
Al     9.820210    44.991215     2.453085
Al     9.804968    16.954598     5.734986
Al     0.724343    44.990678     5.733629
Al     0.678880    16.954746     2.499283
Al     8.425626    11.005795     2.461235
Al     8.432906    39.038995     5.738647
Al    17.510762    10.998898     5.727131
Al    17.561999    39.040171     2.506723
Al     3.825793    30.994352     4.168685
Al     3.874349     3.016893     0.818316
Al    12.992571    31.029827     0.874606
Al    12.947921     2.999829     4.096300
Al    14.413681    24.999811     4.168254
Al    14.367379    52.973329     0.811325
Al     5.249501    24.966957     0.873904
Al     5.273667    52.981147     4.096175
Na     8.687655    14.462240     4.049776
Na     8.718156    42.505441     0.765487
Na    17.783809    14.480654     0.779691
Na    17.808647    42.500776     4.061949
Na     9.550199    41.531679     4.051818
Na     9.525402    13.485725     0.763397
Na     0.457086    41.512099     0.787221
Na     0.429897    13.492013     4.055134
Na     5.014509    28.492623     2.489834
Na     4.970683     0.529962     5.683504
Na    14.075185    28.521539     5.750830
Na    14.057979     0.508092     2.409210
Na    13.225880    27.500239     2.489246
Na    13.266011    55.461773     5.686626
Na     4.162943    27.469785     5.750190
Na     4.170817    55.474705     2.405721
Ca     4.250868    18.297648     2.420707
Ca     4.335403    46.271159     5.577767
Ca    13.405481    18.252066     5.573735
Ca    13.424214    46.277506     2.319724
Ca     4.822370     9.703486     2.332814
Ca     4.836157    37.730730     5.590047
Ca    13.925212     9.695488     5.611803
Ca    13.992321    37.691087     2.433751
Ca     9.384529    32.381148     0.812247
Ca     9.347530     4.299106     3.962908
Ca     0.231873    32.243672     3.947461
Ca     0.256402     4.300749     0.635765
Ca     8.857354    23.613305     0.811555
Ca     8.873144    51.689044     3.951862
Ca    18.006044    23.744959     3.950680
Ca    17.955369    51.657039     0.731073
O2     9.460730    45.403529     4.081761
O2     9.481693    17.306391     0.835752
O2     0.365170    45.414911     0.802431
O2     0.328335    17.326550     4.143733
O2     8.782300    10.600020     4.093011
O2     8.758434    38.692782     0.840448
O2    17.860913    10.592842     0.803486
O2    17.910995    38.668403     4.151466
O2    13.369257    31.432598     2.507010
O2    13.317129     3.423476     5.720741
O2     4.152189    31.452619     5.792668
O2     4.243389     3.415324     2.449731
O2     4.871812    24.565991     2.506559
O2     4.917334    52.568901     5.725601
O2    14.085901    24.544758     5.792946
O2    14.011612    52.566279     2.442683
O2     8.877752    19.892684     0.749247
O2     8.827435    47.998784     4.062112
O2    17.921352    19.921027     4.089308
O2    17.929390    48.012087     0.792045
O2     0.304441     8.001228     0.772168
O2     0.315837    36.073665     4.094552
O2     9.408280     8.004109     4.066395
O2     9.361785    36.106668     0.750665
O2    14.031243    34.026886     2.485713
O2    13.917942     6.027700     5.704706
O2     4.944430    34.021174     5.820669
O2     4.881035     6.011714     2.427936
O2     4.208750    21.972183     2.481352
O2     4.273720    49.976306     5.703484
O2    13.293412    21.976366     5.816310
O2    13.391571    49.968237     2.415661
O2    14.004353    43.315488     5.704723
O2    13.956384    15.282444     2.411255
O2     4.871453    43.328292     2.419781
O2     4.875219    15.274770     5.691788
O2    13.366020    40.721177     5.694487
O2    13.367474    12.674260     2.408567
O2     4.283235    40.719158     2.414124
O2     4.235565    12.681182     5.696487
O2     8.748411    29.277894     4.076233
O2     8.804974     1.316940     0.781059
O2    17.929383    29.307095     0.850619
O2    17.819818     1.370223     4.065480
O2     9.490454    26.718017     4.075415
O2     9.444660    54.642088     0.784659
O2     0.311906    26.691058     0.849059
O2     0.342800    54.714723     4.016482
O2     5.875630    17.306104     3.873167
O2     5.895657    45.337940     0.590251
O2    14.951821    17.321971     0.614309
O2    14.996490    45.340216     3.872764
O2    12.364060    38.688127     3.878690
O2    12.352348    10.651215     0.596005
O2     3.290763    38.671044     0.624462
O2     3.241151    10.657768     3.864797
O2     7.734250    31.275647     2.330396
O2     7.802493     3.350907     5.523797
O2    16.922505    31.334558     5.574464
O2    16.860777     3.347221     2.245627
O2    10.505674    24.720522     2.329737
O2    10.442862    52.618363     5.507558
O2     1.315235    24.658982     5.573423
O2     1.343156    52.630846     2.248124
O2    12.353033    19.949187     4.199489
O2    12.401840    47.912061     0.878790
O2     3.239992    19.908154     0.944935
O2     3.305466    47.913951     4.158899
O2     5.886359    36.044402     4.202295
O2     5.852173     8.075974     0.890412
O2    15.001264    36.088472     0.949309
O2    14.940063     8.054038     4.155332
O2    10.484789    34.019036     5.790881
O2    10.386527     5.942940     2.541672
O2     1.307482    33.973369     2.634161
O2     1.321579     5.961384     5.789618
O2    16.949479    50.051458     5.796403
O2    16.931422    22.020957     2.630392
O2     7.850029    50.053997     2.516583
O2     7.753012    21.975329     5.787848
O2    10.447183    43.350962     2.399849
O2    10.437379    15.320608     5.647651
O2     1.342507    43.345886     5.689262
O2     1.317557    15.319657     2.403868
O2     7.795926    12.644989     2.398449
O2     7.798320    40.672370     5.649855
O2    16.888871    12.641506     5.674371
O2    16.923433    40.675752     2.411534
O2     3.246407    29.336752     4.120923
O2     3.238317     1.377036     0.747296
O2    12.348315    29.397760     0.792145
O2    12.334662     1.353813     4.048257
O2    14.992961    26.657794     4.118543
O2    14.995610    54.612865     0.748613
O2     5.893307    26.599519     0.790404
O2     5.899385    54.622414     4.038712
O2     1.891046    18.039311     1.842189
O2     1.949370    46.044385     5.045845
O2    10.987075    18.069958     5.063484
O2    11.042358    46.050061     1.770696
O2     7.205784     9.943228     1.781865
O2     7.252198    37.922626     5.067570
O2    16.296468     9.924859     5.047969
O2    16.349877    37.956282     1.848928
O2     2.604553    32.033228     3.440967
O2     2.665967     4.087951     0.142403
O2    11.816741    32.132704     0.202346
O2    11.725103     4.054616     3.406377
O2    15.634808    23.959558     3.442618
O2    15.588914    51.908842     0.138175
O2     6.425436    23.864218     0.202162
O2     6.492660    51.919119     3.411374
O2    16.386629    47.265242     5.037511
O2    16.323508    19.248768     1.804982
O2     7.286091    47.266262     1.753067
O2     7.270768    19.211386     5.043984
O2    10.967792    36.783370     5.048356
O2    10.966869     8.724679     1.764025
O2     1.917058    36.745625     1.813063
O2     1.848302     8.738051     5.027398
O2     6.468825    33.229633     3.517365
O2     6.424974     5.286200     0.120488
O2    15.571285    33.283063     0.183971
O2    15.520033     5.235071     3.460386
O2    11.770603    22.763806     3.512523
O2    11.838297    50.695155     0.112319
O2     2.670913    22.712971     0.178435
O2     2.737179    50.699122     3.388740
O2     6.253644    14.445763     3.400232
O2     6.273626    42.466503     0.147307
O2    15.354198    14.452198     0.126859
O2    15.376723    42.475379     3.411043
O2    11.985204    41.548005     3.403954
O2    11.965772    13.522790     0.133071
O2     2.885367    41.537595     0.127737
O2     2.864141    13.520349     3.403508
O2     7.394589    28.444641     1.768668
O2     7.403867     0.489032     5.052696
O2    16.516032    28.470617     5.129363
O2    16.495451     0.482058     1.756106
O2    10.846210    27.552467     1.769731
O2    10.831741    55.482976     5.055741
O2     1.722517    27.523497     5.129962
O2     1.747465    55.480141     1.723047
O2     3.853766    15.945447     3.011824
O2     3.887826    43.956433     6.268479
O2    12.967267    15.938311     6.255755
O2    12.985945    43.969185     3.007739
O2     5.256771    12.023902     3.003130
O2     5.269764    40.049301     6.261381
O2    14.349674    12.028892     6.262758
O2    14.386494    40.050156     3.016605
O2     9.802624    29.956156     1.412212
O2     9.795753     1.971550     4.636607
O2     0.708046    29.938868     4.691091
O2     0.700775     1.974229     1.372378
O2     8.438789    26.041264     1.410529
O2     8.437883    53.998806     4.639566
O2    17.530725    26.055426     4.689586
O2    17.538008    53.996797     1.345234
O2     9.760789    20.430726     4.669141
O2     9.837548    48.405688     1.469418
O2     0.669258    20.380645     1.479286
O2     0.742407    48.401660     4.750722
O2     8.479330    35.563912     4.668568
O2     8.417359     7.591842     1.465504
O2    17.571740    35.615964     1.482859
O2    17.502684     7.564770     4.732921
O2     3.898231    34.350464     3.225704
O2     3.881984     6.431760     6.382175
O2    13.044436    34.464050     6.428624
O2    12.980802     6.380637     3.076590
O2    14.340740    21.643238     3.221954
O2    14.384113    49.554154     6.371475
O2     5.193339    21.529058     6.425774
O2     5.289760    49.561709     3.113396
O2     8.387687    16.840588     4.722376
O2     8.411940    44.893336     1.423052
O2    17.458788    16.875399     1.477800
O2    17.513623    44.894097     4.701048
O2     9.851698    39.154915     4.727985
O2     9.837158    11.098352     1.434939
O2     0.782963    39.119828     1.486282
O2     0.722558    11.106014     4.697231
O2     5.231157    30.908077     3.157487
O2     5.283753     2.911865     6.348057
O2    14.408928    30.917073     6.411663
O2    14.347390     2.900369     3.056856
O2    13.008489    25.086440     3.157044
O2    12.958219    53.067001     6.337573
O2     3.828499    25.076162     6.411023
O2     3.862227    53.078295     3.071643
O2     7.809042    18.343193     2.593120
O2     7.787723    46.397172     5.852092
O2    16.855353    18.373023     5.902009
O2    16.891645    46.406466     2.579054
O2    10.429141    37.653494     2.598066
O2    10.449690     9.591271     5.864322
O2     1.381564    37.618812     5.910329
O2     1.340491     9.598490     2.571252
O2    15.043877    32.421575     4.283189
O2    14.943566     4.464255     0.971852
O2     5.812531    32.431471     1.065097
O2     5.919808     4.411372     4.218363
O2    12.342477    51.559287     4.211689
O2    12.427095    23.568128     1.061611
O2     3.242016    51.581600     0.940242
O2     3.194502    23.575900     4.279688
O2    10.450625    18.943874     2.594009
O2    10.430152    46.944014     5.890104
O2     1.311550    18.880082     5.937935
O2     1.339360    46.949388     2.612292
O2     7.787294    37.053255     2.595742
O2     7.805323     9.056673     5.895238
O2    16.924726    37.114662     5.942991
O2    16.896630     9.037335     2.606399
O2    12.403217    33.005258     4.301204
O2    12.298434     4.953361     0.953132
O2     3.201470    33.038805     1.023381
O2     3.280268     4.961451     4.258869
O2     5.834721    22.991259     4.300134
O2     5.880757    51.023063     0.976281
O2    15.038159    22.960809     1.022719
O2    14.988372    51.026338     4.246105
O2     3.260746    14.378021     0.924631
O2     3.260447    42.390293     4.196271
O2    12.364332    14.343324     4.195147
O2    12.385523    42.408603     0.923571
O2     5.857463    13.587446     0.919646
O2     5.867271    41.656182     4.206317
O2    14.970125    13.607823     4.193925
O2    14.982346    41.620468     0.931496
O2    10.410047    28.429258     5.860685
O2    10.407889     0.390940     2.567077
O2     1.330174    28.353780     2.634420
O2     1.286169     0.452932     5.816420
O2     7.827312    27.565369     5.859634
O2     7.837489    55.572588     2.565641
O2    16.910104    27.642748     2.633759
O2    16.926413    55.571245     5.828192
O1     8.482933    31.758041     5.382208
H      8.484333    30.886030     4.943664
H      8.042327    32.352215     4.740574
O1    17.334644     3.926713     5.322557
H     17.261863     3.067910     4.860619
H     16.937371     4.576558     4.705911
O1     9.754114    24.236651     5.381832
H      9.752720    25.108880     4.943758
H     10.192747    23.642490     4.738793
O1     9.823184    33.285865     2.887569
H     10.631411    33.249313     3.435572
H      9.204542    33.825881     3.421891
O1     8.418760    22.708830     2.887280
H      7.611045    22.744322     3.436128
H      9.037143    22.165923     3.419019
O1    10.214039    15.102425     2.381956
H     10.108805    15.988442     1.974062
H     11.095436    15.150613     2.806415
O1    10.227375    43.189968     5.656191
H     10.105718    44.081372     5.264071
H     11.110179    43.245988     6.077618
O1     1.107399    15.129311     5.676933
H      0.986953    16.022923     5.290031
H      1.989458    15.183658     6.099623
O1     1.117755    43.190247     2.379100
H      0.983095    44.078620     1.984384
H      1.998783    43.261502     2.801655
O1     8.021939    40.893446     2.387192
H      8.126182    40.007191     1.979516
H      7.139286    40.847281     2.809244
O1     8.008318    12.807944     5.657391
H      8.128932    11.915967     5.266382
H      7.125341    12.753204     6.078539
O1    17.128422    40.863401     5.683247
H     17.250722    39.969986     5.296442
H     16.246591    40.806994     6.106082
O1    17.117051    12.813063     2.373767
H     17.249979    11.925149     1.977379
H     16.235725    12.742981     2.795764
O1    12.575902    29.208511     4.062636
H     12.705515    30.098349     3.669524
H     11.690666    29.272464     4.478442
O1    12.556596     1.200669     0.734612
H     12.686692     2.092469     0.346207
H     11.670902     1.261574     1.149248
O1     3.502746    29.160026     0.799646
H      3.616202    30.051475     0.405452
H      2.617602    29.207903     1.217440
O1     3.453107     1.208428     4.009721
H      3.588840     2.100323     3.622885
H      2.579599     1.283185     4.446952
O1     5.664116    26.786619     4.062466
H      5.534427    25.896775     3.669350
H      6.548875    26.722027     4.479131
O1     5.679493    54.792803     0.734580
H      5.550640    53.902113     0.343144
H      6.562703    54.730396     1.154109
O1    14.739539    26.837706     0.799497
H     14.625881    25.946291     0.405224
H     15.624190    26.789009     1.218192
O1    14.775042    54.781473     4.009045
H     14.645847    53.889479     3.620762
H     15.661510    54.722687     4.421968
O1     7.840070    34.062692     0.699008
H      6.910525    34.007622     0.403726
H      7.912248    34.939041     1.123853
O1    10.402769    21.934025     0.697642
H     11.331312    21.988161     0.399086
H     10.330887    21.056969     1.121130

