446
-14105.2281602703
Si     4.540300    13.965922     0.000000
Si     4.534128    41.934308     3.271871
Si    13.619095    13.964403     3.278643
Si    13.629492    41.930850     6.557544
Si     9.081106    27.927330     4.905597
Si     9.079671     0.014589     1.637041
Si     0.008272    27.913310     1.650134
Si     0.000649     0.013920     4.915739
Si     9.064820    18.672589     1.658756
Si     9.065305    46.631428     4.936187
Si    18.140303    18.668523     4.941997
Si    18.146438    46.635656     1.655569
Si     9.092241    37.265080     1.664382
Si     9.096479     9.259296     4.937513
Si     0.031612    37.238873     4.961569
Si     0.017788     9.259804     1.659380
Si    13.677825    32.646837     3.311634
Si    13.636046     4.719440     0.018836
Si     4.513526    32.652046     0.054958
Si     4.556881     4.719391     3.297803
Si     4.520410    23.211137     3.299866
Si     4.527249    51.173287     0.017255
Si    13.609046    23.214008     0.017820
Si    13.604673    51.173103     3.295940
Si     2.827829    14.768377     2.442795
Si     2.827208    42.728243     5.717764
Si    11.907734    14.768942     5.721282
Si    11.913961    42.732516     2.439697
Si     6.252471    13.161235     2.442299
Si     6.247873    41.134688     5.710514
Si    15.331328    13.162185     5.721060
Si    15.339126    41.116022     2.443579
Si    10.797482    28.740873     0.786521
Si    10.791680     0.817854     4.079783
Si     1.711006    28.713799     4.092569
Si     1.712672     0.818295     0.800571
Si     7.369191    27.097732     0.787026
Si     7.370839    55.075199     4.079323
Si    16.445551    27.120656     4.093177
Si    16.449664    55.074913     0.800258
Si    10.805799    19.341295     4.103856
Si    10.807209    47.301517     0.824436
Si     1.723024    19.338004     0.830307
Si     1.728974    47.301954     4.101402
Si     7.362133    36.524116     4.113220
Si     7.355542     8.590803     0.825373
Si    16.462011    36.548470     0.848875
Si    16.434313     8.590557     4.105097
Si    11.937982    33.349267     5.759064
Si    11.895125     5.389029     2.464549
Si     2.804593    33.313411     2.501313
Si     2.815882     5.388622     5.743516
Si    15.346123    50.503282     5.741651
Si    15.345245    22.545192     2.463995
Si     6.268178    50.503867     2.463087
Si     6.260619    22.535070     5.744911
Si     7.337055    17.943061     4.102787
Si     7.337962    45.906624     0.822826
Si    16.413040    17.945065     0.829228
Si    16.419454    45.907250     4.099839
Si    10.820975    37.967633     4.116813
Si    10.824237     9.986434     0.824287
Si     1.767998    37.938666     0.847781
Si     1.745092     9.986010     4.104153
Si     6.266329    31.897116     2.496622
Si     6.284501     3.993309     5.742442
Si    15.389071    31.915448     5.758700
Si    15.363540     3.993666     2.463526
Si    11.880265    23.941829     2.462968
Si    11.877586    51.898449     5.740754
Si     2.790137    23.931037     5.743971
Si     2.799378    51.899633     2.461738
Al    14.321291    43.623294     4.076669
Al    14.312590    15.663456     0.798943
Al     5.230583    43.629009     0.793593
Al     5.234782    15.661803     4.077671
Al    12.934285    40.232418     4.075722
Al    12.925344    12.268385     0.798486
Al     3.854727    40.229999     0.794460
Al     3.846644    12.267380     4.077629
Al     8.372435    29.603011     2.411430
Al     8.385904     1.711861     5.714997
Al    17.470968    29.615023     5.730283
Al    17.464629     1.711872     2.435877
Al     9.788794    26.228408     2.413861
Al     9.776660    54.180601     5.714830
Al     0.690562    26.214573     5.727252
Al     0.697788    54.180919     2.435492
Al    17.451902    48.305089     5.705468
Al    17.447463    20.343082     2.434535
Al     8.372457    48.304322     2.428333
Al     8.369852    20.340514     5.708358
Al     9.805042    35.540330     5.714712
Al     9.790243     7.588247     2.429162
Al     0.732784    35.548868     2.456973
Al     0.711029     7.587823     5.708956
Al     5.275923    34.296668     4.117201
Al     5.250528     6.391788     0.789869
Al    14.381257    34.323329     0.806894
Al    14.329477     6.391521     4.068786
Al    12.909952    21.543150     4.068085
Al    12.912088    49.500724     0.787709
Al     3.828493    21.535250     0.790459
Al     3.833301    49.501775     4.066692
Al     9.772935    44.907300     2.448293
Al     9.771314    16.946586     5.727598
Al     0.694444    44.908591     5.726093
Al     0.688677    16.944456     2.454342
Al     8.390160    10.984555     2.449734
Al     8.373242    38.950617     5.728689
Al    17.468573    10.984506     5.729478
Al    17.488012    38.946535     2.473914
Al     3.815015    30.914133     4.113638
Al     3.850469     2.995201     0.809707
Al    12.941295    30.936167     0.820096
Al    12.929366     2.994783     4.088667
Al    14.311114    24.942838     4.088697
Al    14.311912    52.897832     0.808450
Al     5.224026    24.929302     0.810925
Al     5.233693    52.897860     4.087288
Na     8.671725    14.453330     4.047803
Na     8.675321    42.420306     0.763014
Na    17.748498    14.454865     0.770392
Na    17.749727    42.415999     4.051066
Na     9.500673    41.442049     4.051746
Na     9.489236    13.477368     0.768871
Na     0.415845    41.432037     0.773079
Na     0.410271    13.476542     4.049272
Na     4.958573    28.424934     2.421187
Na     4.949358     0.503360     5.685670
Na    14.028420    28.441639     5.685729
Na    14.028454     0.503611     2.406657
Na    13.208476    27.447605     2.411630
Na    13.213098    55.389445     5.685441
Na     4.127336    27.422947     5.694472
Na     4.134011    55.390248     2.406815
Ca     4.293547    18.228818     2.305987
Ca     4.301476    46.195166     5.574232
Ca    13.375484    18.235511     5.586479
Ca    13.379804    46.188841     2.298186
Ca     4.784959     9.700316     2.303238
Ca     4.751689    37.692252     5.498847
Ca    13.862854     9.702395     5.578959
Ca    13.903766    37.615800     2.377356
Ca     9.318758    32.194459     0.608097
Ca     9.325117     4.281156     3.943677
Ca     0.197699    32.167711     3.894399
Ca     0.245812     4.281144     0.664445
Ca     8.819872    23.629271     0.700595
Ca     8.839785    51.615588     3.937106
Ca    17.910309    23.657694     3.941251
Ca    17.916638    51.613503     0.661735
O2     9.411867    45.321874     4.075831
O2     9.409779    17.364081     0.796534
O2     0.333942    45.326103     0.794898
O2     0.328820    17.358209     4.082334
O2     8.750319    10.568889     4.077142
O2     8.697432    38.569275     0.818082
O2    17.828847    10.569129     0.798908
O2    17.852079    38.558616     4.110007
O2    13.324844    31.338624     2.448503
O2    13.289361     3.408916     5.716510
O2     4.161939    31.354852     5.739371
O2     4.210475     3.409742     2.437442
O2     4.865933    24.522881     2.441928
O2     4.873962    52.481915     5.714683
O2    13.955090    24.522821     5.715701
O2    13.951329    52.482842     2.435944
O2     8.780220    19.960521     0.782100
O2     8.779627    47.917203     4.058174
O2    17.855691    19.953940     4.063465
O2    17.861638    47.921973     0.777819
O2     0.303382     7.973721     0.781386
O2     0.304309    35.963394     4.070387
O2     9.381512     7.973263     4.059264
O2     9.382076    35.992043     0.772109
O2    13.979933    33.933198     2.437037
O2    13.920656     6.004401     5.698197
O2     4.884260    33.939607     5.761105
O2     4.841808     6.005311     2.419555
O2     4.241335    21.926423     2.417954
O2     4.241522    49.886663     5.696806
O2    13.320702    21.927530     5.697514
O2    13.320025    49.887294     2.417476
O2    13.939307    43.234985     5.700352
O2    13.920453    15.266751     2.417354
O2     4.823470    43.238415     2.409971
O2     4.843620    15.267757     5.697190
O2    13.323741    40.634587     5.691563
O2    13.316782    12.661185     2.418302
O2     4.251273    40.623609     2.414147
O2     4.237664    12.662621     5.696806
O2     8.730046    29.229660     4.052181
O2     8.777792     1.317172     0.776089
O2    17.874293    29.218775     0.789162
O2    17.856100     1.316435     4.054851
O2     9.403795    26.645554     4.026658
O2     9.385069    54.575254     0.776427
O2     0.299112    26.606980     0.790083
O2     0.306514    54.574886     4.054948
O2     5.848516    17.294649     3.871699
O2     5.848045    45.259933     0.591251
O2    14.924053    17.297587     0.597900
O2    14.932687    45.256677     3.866964
O2    12.316759    38.599231     3.888367
O2    12.312639    10.634988     0.593096
O2     3.250335    38.594271     0.599242
O2     3.233977    10.633893     3.873754
O2     7.729080    31.213960     2.287624
O2     7.773396     3.345417     5.511660
O2    16.870889    31.250461     5.531422
O2    16.852312     3.345528     2.232748
O2    10.391434    24.588690     2.229920
O2    10.388986    52.546997     5.510386
O2     1.301472    24.580573     5.516047
O2     1.310619    52.547516     2.230932
O2    12.350269    19.870839     4.148961
O2    12.352843    47.828687     0.867299
O2     3.269254    19.864056     0.874818
O2     3.274680    47.829676     4.145896
O2     5.819798    35.980685     4.158403
O2     5.809839     8.063478     0.869753
O2    14.927179    36.001922     0.897785
O2    14.888525     8.063356     4.148740
O2    10.419765    33.907684     5.778380
O2    10.349481     5.916422     2.508628
O2     1.275353    33.875895     2.566304
O2     1.270222     5.915914     5.787900
O2    16.892086    49.976594     5.784520
O2    16.890363    22.015649     2.514176
O2     7.813856    49.976302     2.507351
O2     7.806690    22.009890     5.790062
O2    10.392980    43.263611     2.397062
O2    10.387669    15.301462     5.677586
O2     1.308360    43.261824     5.677861
O2     1.307349    15.299936     2.400671
O2     7.772766    12.629294     2.398497
O2     7.763067    40.595939     5.658541
O2    16.851398    12.629418     5.678428
O2    16.861623    40.587668     2.400658
O2     3.226687    29.258713     4.064862
O2     3.232934     1.350379     0.757484
O2    12.310943    29.291788     0.752204
O2    12.311896     1.349916     4.036328
O2    14.925843    26.589130     4.039852
O2    14.929475    54.542571     0.756894
O2     5.849095    26.568344     0.744248
O2     5.850715    54.542745     4.036175
O2     1.912581    17.999503     1.768506
O2     1.919080    45.962543     5.038553
O2    10.995263    18.002828     5.042425
O2    10.996731    45.962648     1.762061
O2     7.166188     9.929296     1.763532
O2     7.166599    37.882276     5.022475
O2    16.244639     9.929526     5.042596
O2    16.268757    37.873168     1.808159
O2     2.587882    31.954837     3.403738
O2     2.626672     4.050802     0.123935
O2    11.741128    32.013112     0.141635
O2    11.705609     4.050618     3.403062
O2    15.533312    23.886334     3.399246
O2    15.535764    51.842142     0.122637
O2     6.446977    23.867695     0.134477
O2     6.457665    51.842908     3.400391
O2    16.321346    47.187580     5.026066
O2    16.316387    19.226892     1.753170
O2     7.241392    47.188143     1.747098
O2     7.239692    19.222653     5.029853
O2    10.909090    36.673727     5.016016
O2    10.921044     8.704967     1.749026
O2     1.877601    36.660946     1.779059
O2     1.841787     8.704062     5.028178
O2     6.412851    33.153016     3.471439
O2     6.381484     5.275581     0.109091
O2    15.506991    33.199988     0.121958
O2    15.460425     5.275308     3.387830
O2    11.779200    22.659546     3.386867
O2    11.781247    50.617098     0.106808
O2     2.695854    22.649501     0.109684
O2     2.702464    50.617752     3.385892
O2     6.237585    14.430336     3.412832
O2     6.234501    42.392842     0.137841
O2    15.316194    14.432771     0.132929
O2    15.319825    42.387782     3.411693
O2    11.930252    41.459446     3.404692
O2    11.922484    13.500367     0.134178
O2     2.846748    41.461304     0.133934
O2     2.843546    13.498027     3.411756
O2     7.375194    28.368202     1.753158
O2     7.382591     0.480880     5.049559
O2    16.458576    28.386354     5.069328
O2    16.461424     0.480863     1.770216
O2    10.793399    27.449554     1.731201
O2    10.779871    55.411907     5.049937
O2     1.695792    27.445951     5.065570
O2     1.700825    55.412208     1.770462
O2     3.847977    15.915592     2.994878
O2     3.850784    43.877158     6.259446
O2    12.927137    15.916911     6.272405
O2    12.932070    43.878882     2.997073
O2     5.232822    12.013307     2.993864
O2     5.226224    39.980958     6.247802
O2    14.311135    12.014554     6.272249
O2    14.324777    39.966222     3.000780
O2     9.767622    29.864026     1.356400
O2     9.771925     1.965572     4.631264
O2     0.684205    29.859340     4.628815
O2     0.692823     1.965840     1.352225
O2     8.393082    25.957384     1.345556
O2     8.390954    53.927439     4.630360
O2    17.462356    25.968790     4.642577
O2    17.469447    53.927148     1.351899
O2     9.789095    20.358467     4.742516
O2     9.793671    48.320325     1.465232
O2     0.710292    20.357577     1.470510
O2     0.714995    48.320388     4.741859
O2     8.368503    35.508378     4.763664
O2     8.369360     7.571709     1.465381
O2    17.490882    35.530814     1.465245
O2    17.447549     7.571441     4.745946
O2     3.857832    34.282376     3.155857
O2     3.829694     6.407570     6.383647
O2    12.972183    34.355445     6.393491
O2    12.908797     6.408100     3.104664
O2    14.330026    21.527115     3.103310
O2    14.333129    49.483534     6.382011
O2     5.246154    21.512625     6.379178
O2     5.254766    49.484790     3.103814
O2     8.365349    16.849875     4.696043
O2     8.364962    44.812963     1.418077
O2    17.439486    16.850790     1.424156
O2    17.447389    44.814031     4.693749
O2     9.798610    39.056933     4.727302
O2     9.796783    11.079613     1.419128
O2     0.737982    39.029398     1.443607
O2     0.717678    11.079089     4.699227
O2     5.216841    30.823656     3.087198
O2     5.257320     2.899793     6.337267
O2    14.352353    30.830943     6.350350
O2    14.336282     2.900228     3.058360
O2    12.904022    25.037181     3.059349
O2    12.905111    52.991511     6.335651
O2     3.817201    25.023685     6.339374
O2     3.826703    52.992622     3.057114
O2     7.739138    18.357582     2.570980
O2     7.738642    46.315348     5.847380
O2    16.814226    18.354018     5.853892
O2    16.821057    46.320989     2.567873
O2    10.403666    37.598533     2.576903
O2    10.422420     9.574247     5.849417
O2     1.366808    37.529758     5.870911
O2     1.343672     9.575391     2.571197
O2    15.014412    32.321574     4.215616
O2    14.961991     4.404355     0.930682
O2     5.817280    32.358665     0.996718
O2     5.882763     4.404205     4.209709
O2    12.278347    51.488048     4.207479
O2    12.286653    23.528232     0.933189
O2     3.201480    51.488835     0.929083
O2     3.192371    23.521786     4.210435
O2    10.382179    18.899539     2.606662
O2    10.380947    46.859087     5.885956
O2     1.298770    18.895668     5.891413
O2     1.305666    46.862338     2.603980
O2     7.782984    36.929138     2.600311
O2     7.779899     9.031164     5.886355
O2    16.873761    37.019114     5.913695
O2    16.859425     9.031202     2.608400
O2    12.379730    32.885919     4.269679
O2    12.319579     4.947306     0.967917
O2     3.188780    32.913818     0.979514
O2     3.240329     4.947240     4.246744
O2     5.837102    22.983658     4.249663
O2     5.843556    50.944244     0.966170
O2    14.927187    22.981630     0.964206
O2    14.920744    50.945105     4.245390
O2     3.237548    14.340891     0.923268
O2     3.228889    42.291518     4.197560
O2    12.316758    14.338227     4.202641
O2    12.325901    42.312103     0.919484
O2     5.842603    13.590670     0.923591
O2     5.840756    41.576932     4.195376
O2    14.922299    13.590252     4.201644
O2    14.928211    41.547658     0.925823
O2    10.382284    28.327204     5.818494
O2    10.382165     0.388436     2.560854
O2     1.317284    28.277699     2.570237
O2     1.303151     0.388459     5.839352
O2     7.787227    27.523241     5.827319
O2     7.780005    55.504003     2.560192
O2    16.862827    27.554755     2.577490
O2    16.859120    55.502819     5.839028
O1     8.309882    31.752831     5.241986
H      8.217499    30.895856     4.784552
H      7.928553    32.414378     4.627928
O1    10.171742    15.144208     2.369073
H     10.041332    16.034525     1.977346
H     11.056278    15.207477     2.785598
O1    10.180144    43.108800     5.649848
H     10.054226    43.999234     5.256953
H     11.063420    43.169091     6.069561
O1     1.092466    15.141354     5.651248
H      0.961892    16.032178     5.260729
H      1.976342    15.204784     6.069085
O1     1.089677    43.106040     2.367568
H      0.952729    43.994552     1.973958
H      1.973304    43.177403     2.784498
O1     7.984008    40.787690     2.375719
H      8.091076    39.901879     1.967693
H      7.100954    40.738656     2.796767
O1     7.988410    12.787258     5.648766
H      8.118293    11.896797     5.257203
H      7.104008    12.724498     6.065632
O1    17.068014    40.760071     5.660596
H     17.196359    39.868531     5.271280
H     16.183743    40.699110     6.077873
O1    17.067335    12.787610     2.370735
H     17.197354    11.897271     1.978947
H     16.183187    12.724442     2.788076
O1    12.525058    29.127597     4.003907
H     12.664875    30.019873     3.619449
H     11.646377    29.201936     4.430907
O1    12.527202     1.191869     0.729025
H     12.657557     2.082359     0.337664
H     11.643037     1.255238     1.146277
O1     3.453940    29.097640     0.739570
H      3.569818    29.989644     0.347582
H      2.568884    29.147585     1.157092
O1     3.448101     1.191903     4.008024
H      3.578244     2.082438     3.616704
H      2.563901     1.255010     4.425248
O1     5.625515    26.746563     4.006924
H      5.493336    25.856247     3.615725
H      6.512141    26.683591     4.419064
O1     5.634868    54.701271     0.728579
H      5.505099    53.810933     0.336718
H      6.519096    54.638355     1.145785
O1    14.701648    26.757361     0.727344
H     14.565256    25.868805     0.333467
H     15.586868    26.687959     1.141497
O1    14.713838    54.700624     4.007320
H     14.583681    53.810235     3.615687
H     15.598063    54.637434     4.424492
O1     7.911634    33.898034     0.897119
H      7.002591    33.940012     0.537579
H      8.045400    34.768577     1.318072

