407
-13974.9995564885
Si     4.503073    13.926667     0.000000
Si     4.414773    41.853404     3.220259
Si    13.474381    13.929621     3.228151
Si    13.487278    41.840920     6.517730
Si     8.997156    27.916380     4.898704
Si     8.911014     0.014993     1.570643
Si    17.955414    27.902636     1.593526
Si    17.891766     0.032431     4.876488
Si     8.948905    18.648087     1.594498
Si     8.889088    46.560192     4.843046
Si    17.906860    18.657600     4.882450
Si    17.852341    46.538989     1.566333
Si     9.013790    37.167331     1.553560
Si     9.053698     9.193665     4.874236
Si     0.071867    37.179678     4.838006
Si     0.057808     9.205086     1.582182
Si    13.558438    32.637034     3.231677
Si    13.505404     4.655463     6.449235
Si     4.530275    32.619902     6.493045
Si     4.528583     4.666383     3.179096
Si     4.451838    23.188207     3.251452
Si     4.395352    51.076342     6.452676
Si    13.442885    23.190324     6.499162
Si    13.408159    51.083550     3.176986
Si     2.792606    14.706421     2.441038
Si     2.684721    42.577269     5.664986
Si    11.757314    14.702187     5.662829
Si    11.753787    42.633863     2.401927
Si     6.219178    13.162587     2.435521
Si     6.168669    41.076213     5.636788
Si    15.196428    13.163908     5.658468
Si    15.229932    41.125714     2.391792
Si    10.704651    28.686538     0.780862
Si    10.675299     0.758997     3.995524
Si     1.741765    28.658210     4.020608
Si     1.714932     0.750780     0.747671
Si     7.276689    27.135231     0.784378
Si     7.229073    54.977963     4.004403
Si    16.239531    27.131944     4.030718
Si    16.196055    55.010684     0.752952
Si    10.712038    19.291550     4.039508
Si    10.639373    47.197324     0.734318
Si     1.726600    19.283184     0.772448
Si     1.672283    47.148296     4.026971
Si     7.271336    36.498201     4.002792
Si     7.269744     8.576581     0.775035
Si    16.252282    36.553632     0.745270
Si    16.228484     8.573102     4.036718
Si    11.787022    33.276516     5.686678
Si    11.764285     5.304771     2.354233
Si     2.760284    33.245934     2.390856
Si     2.799618     5.309141     5.640462
Si    15.142942    50.462112     5.633313
Si    15.193481    22.552348     2.387971
Si     6.128680    50.432675     2.354501
Si     6.217963    22.550005     5.697290
Si     7.245798    17.949902     4.049091
Si     7.183977    45.820073     0.740308
Si    16.206030    17.930873     0.780280
Si    16.148216    45.898862     4.028213
Si    10.732545    37.871241     4.000318
Si    10.726187     9.929683     0.769203
Si     1.771307    37.808000     0.737340
Si     1.761555     9.918178     4.030827
Si     6.236435    31.909546     2.384342
Si     6.249064     4.032182     5.633645
Si    15.235672    31.917228     5.683488
Si    15.217703     4.028909     2.348356
Si    11.727071    23.894117     2.397745
Si    11.682489    51.731511     5.633101
Si     2.762678    23.899222     5.705860
Si     2.680430    51.712681     2.359414
Al    14.168527    43.564079     4.031289
Al    14.141755    15.631061     0.745854
Al     5.108202    43.525794     0.741341
Al     5.196096    15.634716     4.077248
Al    12.796509    40.175974     4.041148
Al    12.792513    12.230938     0.749420
Al     3.760069    40.136966     0.730959
Al     3.814118    12.232555     4.080586
Al     8.298867    29.610011     2.422120
Al     8.236553     1.703861     5.637309
Al    17.289170    29.600430     5.670815
Al    17.220294     1.716467     2.387985
Al     9.683406    26.213297     2.422420
Al     9.674501    54.036341     5.633410
Al     0.693243    26.194835     5.666056
Al     0.694601    54.044898     2.388859
Al    17.235931    48.263830     5.624564
Al    17.252089    20.321597     2.390449
Al     8.220254    48.225208     2.348702
Al     8.301000    20.344373     5.651112
Al     9.691716    35.472668     5.607247
Al     9.690159     7.523713     2.381578
Al     0.685222    35.453846     2.342598
Al     0.716893     7.515988     5.634953
Al     5.182891    34.297289     3.991098
Al     5.160912     6.393105     0.684837
Al    14.189989    34.327169     0.740954
Al    14.132127     6.382375     3.952255
Al    12.780181    21.506545     3.999859
Al    12.759522    49.375238     0.682040
Al     3.801845    21.502424     0.763095
Al     3.760490    49.346711     3.957378
Al     9.601163    44.813870     2.368585
Al     9.673666    16.916822     5.663152
Al     0.591744    44.770149     5.656126
Al     0.680841    16.909668     2.408461
Al     8.320294    10.946903     2.403939
Al     8.301292    38.891479     5.625641
Al    17.274422    10.944442     5.652802
Al    17.332086    38.937007     2.376215
Al     3.815077    30.877304     4.007728
Al     3.859102     2.908059     0.717408
Al    12.812757    30.898880     0.764051
Al    12.834339     2.905868     3.985897
Al    14.152793    24.925310     4.013533
Al    14.050061    52.855997     0.709540
Al     5.165500    24.925725     0.777587
Al     5.067835    52.830886     3.990026
Na     8.725786    14.635260     3.658908
Na     8.652265    42.445414     0.486115
Na    17.693927    14.548785     0.481236
Na    17.915191    43.229096     2.616985
Na     9.251936    41.189208     3.658719
Na     9.241931    13.303590     0.478758
Na    17.868307    40.516426     5.911713
Na     0.286048    13.226633     3.656394
Na     4.766768    28.592982     2.015017
Na     4.470467     1.350495     4.226868
Na    13.735606    28.552251     5.373947
Na    13.387505     1.335356     0.963257
Na    13.216911    27.209583     2.005243
Na    13.441144    54.401977     4.207685
Na     4.248818    27.266716     5.386307
Na     4.506611    54.393299     0.962998
Ca     4.293555    18.149012     2.195170
Ca     4.262420    45.993867     5.389325
Ca    13.320797    18.162648     5.413252
Ca    13.174082    46.077983     2.218029
Ca     4.688985     9.759809     2.133516
Ca     4.705015    37.633641     5.425485
Ca    13.613364     9.716800     5.389752
Ca    13.683265    37.711864     2.128587
Ca     9.193756    32.110017     0.509493
Ca     9.241803     4.207270     3.853591
Ca     0.140369    32.087219     3.717592
Ca     0.247752     4.157448     0.509535
Ca     8.782457    23.713577     0.522786
Ca     8.645419    51.506945     3.890725
Ca    17.790840    23.629064     3.823445
Ca    17.670987    51.618133     0.501873
O2     9.180555    45.266732     3.957199
O2     9.285638    17.336144     0.729880
O2     0.159777    45.176598     0.733552
O2     0.245817    17.363917     3.992837
O2     8.759582    10.482052     3.982579
O2     8.664469    38.480192     0.696801
O2    17.645642    10.512547     0.715179
O2    17.769224    38.542024     4.007278
O2    13.257492    31.342768     2.349037
O2    13.262352     3.289075     5.624559
O2     4.192423    31.312469     5.623530
O2     4.283947     3.300690     2.353408
O2     4.738595    24.486435     2.369153
O2     4.638381    52.442053     5.626323
O2    13.767550    24.502565     5.631803
O2    13.638715    52.446781     2.344047
O2     8.683966    19.939365     0.724880
O2     8.611374    47.874559     3.995124
O2    17.641601    19.973906     4.035220
O2    17.652978    47.831055     0.683519
O2     0.338430     7.913024     0.717927
O2     0.250588    35.888703     3.949576
O2     9.333025     7.876017     4.034690
O2     9.283191    35.880932     0.677423
O2    13.830213    33.948778     2.384468
O2    13.679191     5.943065     5.553421
O2     4.804914    33.913571     5.628059
O2     4.711278     5.953299     2.286175
O2     4.187423    21.876846     2.401017
O2     4.212993    49.786970     5.560747
O2    13.182471    21.896484     5.629616
O2    13.217016    49.790826     2.290815
O2    13.781010    43.128329     5.634997
O2    13.700435    15.242746     2.356584
O2     4.712694    43.163610     2.367961
O2     4.804094    15.234816     5.692943
O2    13.176433    40.523221     5.673755
O2    13.240631    12.615337     2.360327
O2     4.181432    40.548971     2.336612
O2     4.212705    12.615825     5.701412
O2     8.696723    29.225119     4.042036
O2     8.583833     1.308160     0.703785
O2    17.725368    29.222509     0.730628
O2    17.600827     1.336840     4.010066
O2     9.293115    26.608203     4.040452
O2     9.310148    54.431390     0.699797
O2     0.235272    26.593129     0.717069
O2     0.318685    54.435236     4.008694
O2     5.765446    17.282254     3.852143
O2     5.696735    45.163065     0.514741
O2    14.720780    17.273136     0.556173
O2    14.667014    45.239216     3.839073
O2    12.214671    38.534456     3.785270
O2    12.212203    10.591521     0.554083
O2     3.252198    38.465803     0.539134
O2     3.239900    10.591222     3.834802
O2     7.719397    31.250375     2.179542
O2     7.731810     3.379099     5.427021
O2    16.716121    31.242988     5.474958
O2    16.703583     3.382419     2.151281
O2    10.251103    24.566586     2.192371
O2    10.191692    52.365613     5.419471
O2     1.271893    24.551066     5.489765
O2     1.200699    52.374490     2.163994
O2    12.257995    19.820326     4.053518
O2    12.193311    47.710058     0.776587
O2     3.268953    19.817662     0.799561
O2     3.227107    47.660132     4.043970
O2     5.723006    35.975478     4.033048
O2     5.714491     8.067146     0.787423
O2    14.708142    36.024355     0.757821
O2    14.675535     8.059919     4.053820
O2    10.237193    33.794671     5.683723
O2    10.220540     5.834688     2.387581
O2     1.210201    33.768440     2.418297
O2     1.248626     5.829793     5.669641
O2    16.697844    49.947309     5.683964
O2    16.731411    22.010974     2.415460
O2     7.673061    49.907567     2.381130
O2     7.767542    22.026833     5.710798
O2    10.224294    43.161662     2.326899
O2    10.237108    15.244855     5.593602
O2     1.175689    43.121608     5.593515
O2     1.269372    15.246966     2.369268
O2     7.739442    12.614933     2.374453
O2     7.698122    40.547005     5.556649
O2    16.715933    12.620041     5.593163
O2    16.739485    40.577337     2.309292
O2     3.261877    29.201419     3.954377
O2     3.233696     1.277700     0.651628
O2    12.225046    29.234015     0.716744
O2    12.198041     1.281294     3.901615
O2    14.716723    26.596837     3.952786
O2    14.675083    54.487523     0.661081
O2     5.755587    26.588930     0.721014
O2     5.706531    54.455761     3.914652
O2     1.922463    17.945201     1.715515
O2     1.842412    45.825965     4.993295
O2    10.915569    17.949392     4.972245
O2    10.829540    45.859608     1.677351
O2     7.071814     9.926875     1.701121
O2     7.076845    37.836638     4.942445
O2    16.027098     9.925746     4.954927
O2    16.083099    37.865779     1.727968
O2     2.565178    31.891550     3.305004
O2     2.627463     3.998066     0.072001
O2    11.570171    31.935996     0.074671
O2    11.605772     4.006408     3.355283
O2    15.394317    23.889320     3.328759
O2    15.285079    51.779525     0.051840
O2     6.405597    23.887978     0.084900
O2     6.294268    51.730098     3.357897
O2    16.079664    47.165782     4.963385
O2    16.118999    19.187659     1.737195
O2     7.103704    47.077972     1.693741
O2     7.166868    19.231208     4.969556
O2    10.818957    36.588687     4.919534
O2    10.805826     8.667133     1.715062
O2     1.850265    36.544558     1.681056
O2     1.839878     8.635299     4.946536
O2     6.316780    33.187928     3.308224
O2     6.316601     5.296444     0.019647
O2    15.306627    33.186949     0.065102
O2    15.293971     5.293296     3.290686
O2    11.639987    22.620785     3.329995
O2    11.601570    50.475389     0.032596
O2     2.672359    22.633305     0.096749
O2     2.605069    50.450276     3.303189
O2     6.249322    14.428365     3.420877
O2     6.160284    42.331795     0.070557
O2    15.187247    14.427671     0.083849
O2    15.254533    42.431364     3.311151
O2    11.731990    41.378466     3.400992
O2    11.748643    13.441164     0.094461
O2     2.671512    41.281964     0.045892
O2     2.763828    13.449875     3.438000
O2     7.250055    28.393657     1.778176
O2     7.143036     0.581023     4.918863
O2    16.240571    28.392263     5.017919
O2    16.117275     0.590342     1.695467
O2    10.735361    27.422248     1.768153
O2    10.764003    55.158803     4.911220
O2     1.741622    27.394202     5.000160
O2     1.797883    55.165737     1.684470
O2     3.823059    15.845953     2.973052
O2     3.728736    43.709479     6.210162
O2    12.784621    15.849361     6.188203
O2    12.775984    43.774523     2.942321
O2     5.181099    12.031728     2.968724
O2     5.157989    39.925738     6.188087
O2    14.165609    12.022363     6.185530
O2    14.193929    39.999065     2.966969
O2     9.669689    29.820066     1.316020
O2     9.662529     1.893151     4.591652
O2     0.711061    29.801323     4.545789
O2     0.694119     1.891095     1.320018
O2     8.312735    26.000689     1.315917
O2     8.241037    53.842666     4.600179
O2    17.259470    25.980138     4.558453
O2    17.220518    53.870457     1.319221
O2     9.723990    20.323411     4.693288
O2     9.643573    48.220557     1.391616
O2     0.730966    20.307926     1.427909
O2     0.698337    48.220757     4.634238
O2     8.268866    35.467520     4.645980
O2     8.249706     7.553796     1.453904
O2    17.235337    35.478119     1.335867
O2    17.212777     7.549235     4.705742
O2     3.749061    34.270761     3.053031
O2     3.784783     6.387458     6.224864
O2    12.764546    34.307640     6.358322
O2    12.755592     6.384127     2.927902
O2    14.192255    21.526035     3.030878
O2    14.153812    49.390603     6.220610
O2     5.233930    21.518415     6.358452
O2     5.137948    49.357304     2.934637
O2     8.285710    16.851922     4.612888
O2     8.224928    44.709840     1.288008
O2    17.248351    16.820989     1.318244
O2    17.196922    44.781166     4.531766
O2     9.695799    38.965345     4.580682
O2     9.686455    11.041069     1.310177
O2     0.717536    38.918481     1.240128
O2     0.723840    11.016150     4.599814
O2     5.203249    30.808822     2.955970
O2     5.200667     2.917384     6.145028
O2    14.187999    30.814380     6.224551
O2    14.164544     2.918595     2.858921
O2    12.769731    24.991993     2.956271
O2    12.723081    52.857468     6.141321
O2     3.801250    25.010842     6.248488
O2     3.739527    52.822382     2.860624
O2     7.608961    18.337766     2.496369
O2     7.553039    46.255600     5.757384
O2    16.561604    18.370694     5.794127
O2    16.501106    46.281583     2.468319
O2    10.352246    37.482924     2.453217
O2    10.402139     9.506267     5.776123
O2     1.435129    37.413336     5.732000
O2     1.400060     9.536849     2.475751
O2    14.913491    32.328734     4.127972
O2    14.852089     4.420483     0.792964
O2     5.860328    32.299880     0.836830
O2     5.879450     4.423979     4.081276
O2    12.067297    51.327095     4.089956
O2    12.092132    23.490642     0.849438
O2     3.031197    51.317231     0.800520
O2     3.105795    23.478645     4.160762
O2    10.258409    18.840604     2.555917
O2    10.206665    46.771613     5.795262
O2     1.284809    18.848723     5.838605
O2     1.222963    46.666951     2.544335
O2     7.707543    36.953646     2.515954
O2     7.750812     8.997005     5.843136
O2    16.707778    37.060237     5.823749
O2    16.691639     9.006917     2.550309
O2    12.263333    32.835270     4.209703
O2    12.189206     4.789362     0.876101
O2     3.211754    32.815826     0.900171
O2     3.222591     4.807040     4.158698
O2     5.760491    22.991168     4.214364
O2     5.694250    50.945026     0.876791
O2    14.747889    23.006217     0.901070
O2    14.727184    50.945504     4.141810
O2     3.198429    14.227323     0.945085
O2     3.106686    42.148130     4.145761
O2    12.157729    14.236929     4.150041
O2    12.179361    42.154477     0.912217
O2     5.817889    13.626541     0.932271
O2     5.741049    41.515527     4.129748
O2    14.796818    13.624294     4.142689
O2    14.799806    41.515318     0.870353
O2    10.309142    28.221001     5.833949
O2    10.220072     0.374497     2.482815
O2     1.346200    28.202382     2.503043
O2     1.272093     0.347972     5.791841
O2     7.690252    27.610708     5.839699
O2     7.683794    55.364527     2.491728
O2    16.642517    27.605049     2.521480
O2    16.655577    55.422374     5.797746
O1    10.235384    15.142102     2.073866
H     10.091489    16.052767     1.740153
H     11.140771    15.184061     2.443583
O1     7.729101    40.671894     2.077409
H      7.836793    39.759150     1.735442
H      6.823577    40.666431     2.450525
O1    16.712297    12.713597     2.069960
H     16.858239    11.803751     1.734444
H     15.810983    12.665497     2.449022
O1     3.256964    29.106046     0.429758
H      3.398122    30.013656     0.086665
H      2.357692    29.153902     0.813693
O1    14.723318    26.690915     0.424858
H     14.568968    25.783187     0.088001
H     15.632423    26.639542     0.784070

