563
-14505.9811468096
Si     4.590155    14.110875     0.000000
Si     4.655135    42.308866     3.254793
Si    13.743580    14.084323     3.251262
Si    13.711031    42.325209     6.517422
Si     9.225667    28.210122     4.886217
Si     9.140162    56.423966     1.628208
Si    18.300241    28.221167     1.614814
Si     0.067856    56.411191     4.885129
Si     9.197482    18.768956     1.737396
Si     9.161428    46.984971     4.987437
Si    18.319848    18.789782     4.998068
Si     0.039814    46.970539     1.736986
Si     9.206530    37.647780     1.722184
Si     9.127980     9.426135     5.014443
Si    18.327940    37.662190     4.997955
Si    18.309420     9.400361     1.744426
Si    13.759800    32.864363     3.359724
Si    13.713762     4.632726     0.107395
Si     4.617110    32.887785     0.095465
Si     4.567542     4.627667     3.363299
Si     4.605877    23.556723     3.361849
Si     4.607870    51.770443     0.099877
Si    13.752642    23.566436     0.089823
Si    13.750076    51.746892     3.361687
Si     2.870401    14.944215     2.417456
Si     2.927939    43.157886     5.670222
Si    12.013897    14.919005     5.674663
Si    11.967210    43.124190     2.419670
Si     6.299927    13.266237     2.430952
Si     6.399987    41.509129     5.683904
Si    15.450562    13.239589     5.682720
Si    15.439263    41.475585     2.407319
Si    10.972117    29.010096     0.789088
Si    10.820185     0.825062     4.044744
Si     1.710987    29.070921     4.032054
Si     1.767709     0.773299     0.787609
Si     7.499329    27.367125     0.774924
Si     7.395139    55.625325     4.055780
Si    16.553773    27.417361     4.041873
Si    16.657005    55.562798     0.774388
Si    10.805756    19.582367     4.179576
Si    10.773646    47.782907     0.921046
Si     1.621427    19.609531     0.914406
Si     1.643732    47.802209     4.177731
Si     7.594809    36.850736     4.180840
Si     7.519003     8.611619     0.929294
Si    16.724709    36.831707     0.911429
Si    16.695589     8.579484     4.185236
Si    12.152402    33.655724     5.816987
Si    12.109014     5.470497     2.546083
Si     3.008560    33.721289     2.536815
Si     2.960367     5.426320     5.820299
Si    15.357341    50.911210     5.803656
Si    15.358618    22.764859     2.546815
Si     6.213969    50.976836     2.557827
Si     6.209349    22.719895     5.801647
Si     7.394829    18.058731     4.178456
Si     7.377052    46.334998     0.908824
Si    16.538409    18.060625     0.916856
Si    16.550696    46.244493     4.175981
Si    10.991990    38.299439     4.170460
Si    10.921081    10.133448     0.931214
Si     1.818321    38.389830     0.911829
Si     1.780852    10.127830     4.190739
Si     6.406392    32.156460     2.539749
Si     6.359859     3.983959     5.809905
Si    15.557729    32.216677     5.803817
Si    15.511071     3.904738     2.546146
Si    11.958825    24.207139     2.534841
Si    11.959303    52.477358     5.805024
Si     2.808207    24.283227     5.800952
Si     2.808818    52.416261     2.542924
Al    14.431291    43.983397     4.022753
Al    14.447429    15.767121     0.753901
Al     5.383759    43.996154     0.743697
Al     5.301341    15.780719     4.024369
Al    12.985262    40.638276     4.005258
Al    13.018259    12.403230     0.750374
Al     3.937599    40.651128     0.759031
Al     3.872359    12.422849     4.031427
Al     8.509563    29.873000     2.391364
Al     8.369466     1.665118     5.643413
Al    17.571177    29.904024     5.629018
Al    17.618178     1.629312     2.389519
Al     9.949610    26.526999     2.374765
Al     9.856901    54.762203     5.659526
Al     0.701807    26.559704     5.645406
Al     0.795882    54.729412     2.372605
Al    17.475577    48.658883     5.773090
Al    17.447853    20.485424     2.508573
Al     8.328420    48.720353     2.508075
Al     8.328065    20.465772     5.776798
Al    10.039415    35.913874     5.768495
Al     9.989846     7.728956     2.536601
Al     0.892016    35.975124     2.507483
Al     0.867652     7.702818     5.780653
Al     5.494470    34.581152     4.132384
Al     5.400379     6.360864     0.886915
Al    14.593093    34.592052     0.880840
Al    14.590784     6.317723     4.143588
Al    12.921719    21.833060     4.137934
Al    12.873149    50.053255     0.871141
Al     3.730297    21.868323     0.872193
Al     3.775362    50.041922     4.146203
Al     9.817542    45.294717     2.513686
Al     9.862272    17.095673     5.770855
Al     0.716681    45.303419     5.770710
Al     0.701379    17.116763     2.511195
Al     8.461626    11.094051     2.530015
Al     8.550438    39.338876     5.774732
Al    17.615264    11.067962     5.781867
Al    17.651103    39.330425     2.505659
Al     3.919142    31.221229     4.131386
Al     3.923563     2.939208     0.886407
Al    13.128194    31.170882     0.882836
Al    13.027035     2.970522     4.140822
Al    14.397709    25.252429     4.140007
Al    14.448560    53.412738     0.872345
Al     5.292708    25.220305     0.870748
Al     5.239980    53.463210     4.150206
Na     8.750918    14.721965     3.875777
Na     9.084294    43.629885     6.085288
Na    17.861397    14.617034     0.806745
Na    17.861351    42.830664     4.045130
Na     9.283766    41.010210     2.822856
Na     9.573679    13.498017     0.707179
Na     0.507486    41.806172     0.782007
Na     0.474276    13.560933     4.074573
Na     5.081163    28.739306     2.411790
Na     4.656655     1.276386     4.457462
Na    13.863089    29.511390     4.448551
Na    14.193285     0.487561     2.419083
Na    13.666601    26.924745     1.191195
Na    13.285254    55.896877     5.679997
Na     4.125834    27.704028     5.676070
Na     4.507930    55.130187     1.195565
Ca     4.294256    18.550757     2.443340
Ca     4.287781    46.731286     5.718673
Ca    13.468295    18.533775     5.709067
Ca    13.441402    46.754700     2.465910
Ca     4.864679     9.661585     2.461748
Ca     4.927741    37.883896     5.725823
Ca    14.008687     9.611982     5.714686
Ca    14.080536    37.905864     2.452112
Ca     9.503914    32.621128     0.834551
Ca     9.454892     4.416083     4.093836
Ca     0.345574    32.660628     4.079102
Ca     0.303239     4.394038     0.838497
Ca     8.862758    23.785895     0.818334
Ca     8.862056    52.018616     4.100200
Ca    18.018295    23.795705     4.093169
Ca    18.021262    51.977193     0.819199
O2     9.420669    45.610681     4.187740
O2     9.539699    17.438562     0.911457
O2     0.393835    45.644253     0.912897
O2     0.364103    17.467825     4.172100
O2     8.828697    10.746962     4.175606
O2     8.948281    39.021600     0.922369
O2    17.951028    10.724578     0.919171
O2    17.974507    38.988224     4.173868
O2    13.515269    31.486404     2.560368
O2    13.358843     3.305604     5.808734
O2     4.250918    31.563982     5.796833
O2     4.316673     3.251040     2.563321
O2     4.960247    24.882406     2.537791
O2     4.851487    53.146599     5.827159
O2    14.001154    24.941186     5.816260
O2    14.115386    53.069003     2.537424
O2     8.874252    20.033037     0.831982
O2     8.901070    48.254286     4.071182
O2    17.975270    20.055487     4.098098
O2    18.020683    48.232210     0.829893
O2     0.337442     8.136653     0.841545
O2     0.348307    36.400476     4.090801
O2     9.449569     8.144086     4.124519
O2     9.468153    36.378239     0.805859
O2    14.008846    34.132161     2.440443
O2    14.041470     5.893200     5.724521
O2     4.959160    34.149189     5.717946
O2     4.814550     5.896497     2.444384
O2     4.277144    22.294342     2.453661
O2     4.357685    50.501020     5.706411
O2    13.504552    22.296082     5.696195
O2    13.406562    50.484144     2.457342
O2    14.098629    43.616106     5.667651
O2    14.084969    15.380466     2.389195
O2     5.009591    43.581049     2.364204
O2     4.927712    15.403294     5.657514
O2    13.357871    41.052914     5.626044
O2    13.388405    12.801424     2.380389
O2     4.269079    41.017744     2.404146
O2     4.226913    12.819433     5.665146
O2     8.842037    29.500805     4.034189
O2     8.743444     1.254806     0.739530
O2    17.946326    29.493881     0.725188
O2    17.947736     1.257952     4.033588
O2     9.576308    26.935439     3.997484
O2     9.525127    55.133031     0.776358
O2     0.373916    26.930588     0.763570
O2     0.422210    55.138179     3.995508
O2     5.949057    17.389309     3.905675
O2     5.939703    45.643214     0.660876
O2    15.093478    17.376894     0.645238
O2    15.096244    45.585922     3.892122
O2    12.429457    38.990685     3.922852
O2    12.372980    10.796968     0.655918
O2     3.272773    39.048052     0.628531
O2     3.223320    10.814586     3.925006
O2     7.855648    31.481084     2.265939
O2     7.802903     3.306947     5.557180
O2    17.001711    31.545198     5.543463
O2    16.960280     3.235340     2.264323
O2    10.515891    24.884681     2.285082
O2    10.510376    53.153335     5.532367
O2     1.358698    24.952574     5.519738
O2     1.364739    53.087776     2.284340
O2    12.289314    20.214360     4.256820
O2    12.251610    48.423967     0.962622
O2     3.097684    20.250186     0.975598
O2     3.129018    48.430607     4.255504
O2     6.116764    36.209704     4.222789
O2     6.034404     7.977851     1.004591
O2    15.239489    36.202911     0.989333
O2    15.219517     7.937732     4.247648
O2    10.666687    34.287902     5.874142
O2    10.632787     6.112602     2.613798
O2     1.531355    34.359799     2.601195
O2     1.482738     6.070546     5.864469
O2    16.834853    50.273160     5.867600
O2    16.834821    22.118866     2.589710
O2     7.700119    50.345357     2.614432
O2     7.688369    22.080873     5.868199
O2    10.464369    43.687126     2.324144
O2    10.493114    15.462442     5.622213
O2     1.410456    43.703702     5.635874
O2     1.358111    15.499766     2.387300
O2     7.821016    12.725897     2.377172
O2     7.902645    40.945696     5.587380
O2    16.961658    12.688804     5.647497
O2    16.956798    40.929546     2.372559
O2     3.227893    29.619366     3.999088
O2     3.272553     1.333226     0.692844
O2    12.478381    29.564469     0.695265
O2    12.337708     1.369179     4.007108
O2    15.048742    26.857540     3.944868
O2    15.140223    55.013903     0.740312
O2     5.982297    26.821470     0.737964
O2     5.889482    55.069133     3.961472
O2     1.818712    18.295500     1.861663
O2     1.826769    46.491028     5.129816
O2    10.989064    18.266355     5.127175
O2    10.950678    46.502806     1.920526
O2     7.334616     9.920127     1.887729
O2     7.417905    38.130641     5.180124
O2    16.496141     9.892628     5.132958
O2    16.541605    38.142756     1.863174
O2     2.812120    32.410498     3.487880
O2     2.789400     4.148973     0.296371
O2    11.992043    32.375685     0.289595
O2    11.918776     4.163154     3.503467
O2    15.531287    24.040958     3.551945
O2    15.555387    52.222558     0.229425
O2     6.402435    24.028516     0.232702
O2     6.376037    52.257407     3.557538
O2    16.350348    47.480746     5.166351
O2    16.323108    19.305042     1.895955
O2     7.182028    47.559047     1.908876
O2     7.199336    19.291084     5.171559
O2    11.186490    37.074878     5.170582
O2    11.116268     8.913339     1.940611
O2     2.018059    37.152786     1.901898
O2     1.991704     8.883202     5.169556
O2     6.616746    33.400505     3.519861
O2     6.550106     5.202474     0.292846
O2    15.742806    33.430952     0.292294
O2    15.718986     5.141527     3.536513
O2    11.769175    22.987629     3.542109
O2    11.751092    51.232804     0.257033
O2     2.604552    23.046528     0.263730
O2     2.625776    51.201643     3.555902
O2     6.332383    14.545454     3.401280
O2     6.463603    42.843610     0.045548
O2    15.452492    14.535316     0.098244
O2    15.442565    42.765125     3.352307
O2    11.905230    41.789181     3.305440
O2    11.997926    13.624524     0.085832
O2     2.926224    41.868077     0.087380
O2     2.868845    13.653524     3.364270
O2     7.494827    28.659273     1.717736
O2     7.292537     0.511016     4.946907
O2    16.495495    28.747574     4.932267
O2    16.605673     0.412575     1.716106
O2    11.027453    27.680837     1.680695
O2    10.872298    55.975596     4.987233
O2     1.714585    27.776540     4.972889
O2     1.871924    55.886208     1.677896
O2     3.900624    16.062404     2.988409
O2     3.961121    44.267568     6.248475
O2    13.027534    16.042373     6.260836
O2    12.990413    44.226972     3.037994
O2     5.279159    12.142401     2.999753
O2     5.376539    40.404779     6.300726
O2    14.421071    12.122189     6.248048
O2    14.406157    40.364549     2.984512
O2     9.949541    30.116927     1.403368
O2     9.790396     1.936685     4.624102
O2     0.678370    30.180439     4.610370
O2     0.744974     1.878323     1.403910
O2     8.529474    26.254892     1.353886
O2     8.417503    54.517922     4.670416
O2    17.575026    26.311318     4.659244
O2    17.689047    54.452546     1.353076
O2     9.650448    20.549740     4.664624
O2     9.625231    48.781518     1.365105
O2     0.462794    20.569542     1.407465
O2     0.485814    48.767053     4.663467
O2     8.742793    35.851495     4.625428
O2     8.672491     7.642719     1.418460
O2    17.882065    35.866167     1.397665
O2    17.853891     7.618892     4.677446
O2     4.168709    34.681538     3.027351
O2     4.108704     6.426439     6.260489
O2    13.298576    34.658293     6.256410
O2    13.273477     6.430211     3.028668
O2    14.209223    21.764056     2.984520
O2    14.197757    49.949568     6.293803
O2     5.048642    21.756939     6.286161
O2     5.068795    49.972568     2.997064
O2     8.442441    16.983195     4.770794
O2     8.460878    45.261537     1.425873
O2    17.590742    17.000541     1.516708
O2    17.600149    45.178030     4.779762
O2     9.907428    39.372073     4.687191
O2     9.870726    11.217670     1.504463
O2     0.768168    39.455402     1.515538
O2     0.724960    11.187104     4.788793
O2     5.349498    31.098510     3.142193
O2     5.279668     2.904306     6.325517
O2    14.483360    31.131097     6.320369
O2    14.454554     2.845196     3.147091
O2    13.040219    25.284023     3.051663
O2    13.016508    53.533792     6.408610
O2     3.863905    25.343376     6.402037
O2     3.883409    53.500483     3.060511
O2     7.912624    18.550806     2.707009
O2     7.850050    46.808282     5.937221
O2    17.034699    18.555517     5.966620
O2    17.071276    46.746789     2.709313
O2    10.517174    37.822932     2.673052
O2    10.416380     9.622024     5.991097
O2     1.295562    37.885123     5.971425
O2     1.279501     9.634600     2.713536
O2    15.067434    32.702343     4.315195
O2    14.998717     4.411679     1.077737
O2     5.900176    32.651838     1.065269
O2     5.877770     4.463034     4.315766
O2    12.465915    51.982424     4.330186
O2    12.439687    23.727849     1.040056
O2     3.298863    51.930879     1.053905
O2     3.320814    23.777821     4.331844
O2    10.543471    19.128206     2.622221
O2    10.500699    47.272893     5.903078
O2     1.346677    19.159456     5.883411
O2     1.382667    47.346761     2.621075
O2     7.866331    37.358184     2.636412
O2     7.780696     9.062766     5.899646
O2    16.984298    37.284565     5.880687
O2    16.967489     9.031191     2.628637
O2    12.414500    33.149018     4.271129
O2    12.372130     5.005273     0.992272
O2     3.278109    33.265700     0.981088
O2     3.225615     4.910458     4.278102
O2     5.946836    23.183984     4.248201
O2     5.952006    51.484041     1.012477
O2    15.093208    23.283301     1.005691
O2    15.087946    51.367200     4.248261
O2     3.274594    14.525929     0.892810
O2     3.347624    42.749890     4.146703
O2    12.441374    14.499363     4.156167
O2    12.431215    42.716235     0.912096
O2     5.869850    13.746446     0.940663
O2     5.936439    41.917895     4.176706
O2    15.039322    13.671980     4.159682
O2    15.020045    41.883908     0.884100
O2    10.507215    28.599043     5.808075
O2    10.400437     0.415552     2.522053
O2     1.293447    28.662258     2.508024
O2     1.301363     0.361387     5.807137
O2     7.916943    27.773591     5.778086
O2     7.857243    56.032996     2.548025
O2    17.018594    27.826720     2.535406
O2    17.073498    55.969540     5.776893
O1     5.098411    17.950390     0.409644
H      5.105671    17.064174     6.520496
H      5.584749    18.519743     6.306943
O1     5.068166    46.138600     3.662330
H      5.081861    45.259488     3.235071
H      5.523908    46.726113     3.024191
O1    14.254776    17.925592     3.669203
H     14.278587    17.042047     3.252150
H     14.734465    18.504975     3.040896
O1    14.262142    46.149174     0.433322
H     14.280017    45.267024     0.012196
H     14.763919    46.720132     6.344113
O1     4.054440    10.267890     0.428188
H      4.055170    11.147382     0.001748
H      3.576401     9.688432     6.322095
O1     4.109031    38.486357     3.692628
H      4.090790    39.369099     3.272708
H      3.604251    37.914837     3.076998
O1    13.208722    10.237866     3.682741
H     13.197416    11.116399     3.254837
H     12.702052     9.663422     3.070832
O1    13.303127    38.497080     0.395293
H     13.286730    39.375668     6.495744
H     12.844115    37.909478     6.282805
O1     8.692419    32.028060     5.319593
H      8.669446    31.146113     4.898647
H      8.201995    32.606200     4.698699
O1     8.670967     3.816798     2.041103
H      8.659896     2.937940     1.613069
H      8.205822     4.401567     1.407035
O1    17.865591    32.057865     2.031951
H     17.857701    31.180458     1.600813
H     17.391943    32.641740     1.403327
O1    17.797695     3.789838     5.329572
H     17.780110     2.908112     4.907481
H     17.295792     4.363224     4.713365
O1     9.652067    24.379023     5.294514
H      9.661351    25.259090     4.868898
H     10.123180    23.798318     4.661374
O1     9.672520    52.607047     2.058735
H      9.695861    53.489963     1.639729
H     10.164040    52.030499     1.437340
O1     0.519875    24.397613     2.056964
H      0.539021    25.280045     1.636287
H      1.022212    23.824722     1.440656
O1     0.499680    52.575344     5.297589
H      0.509076    53.454035     4.869008
H      0.975310    51.993368     4.668791
O1    12.944014    47.792823     4.486756
H     12.250708    47.564650     5.136545
H     13.537699    48.391842     4.987024
O1    12.975967    19.597633     1.195033
H     12.266033    19.394844     1.835337
H     13.570831    20.198544     1.691880
O1     3.806239    47.826482     1.198984
H      3.103462    47.614227     1.844243
H      4.398417    48.432553     1.692388
O1     3.782170    19.591651     4.463123
H      3.062179    19.385863     5.091114
H      4.362619    20.197635     4.970338
O1    14.563366    36.807123     4.457315
H     15.265751    37.020836     5.102544
H     13.970117    36.203417     4.952257
O1    14.531862     8.587524     1.208542
H     15.254036     8.795224     1.833306
H     13.950571     7.987331     1.721753
O1     5.426203    36.841332     1.218862
H      6.118915    37.070729     1.868861
H      4.831372    36.244319     1.720107
O1     5.347352     8.596862     4.475261
H      6.057566     8.808239     5.112882
H      4.755168     7.998201     4.977565
O1     9.978670    33.691431     2.846521
H     10.661590    33.464040     3.507659
H      9.373978    34.288742     3.335695
O1     9.955996     5.486353     6.104300
H     10.658075     5.262810     0.222280
H      9.379645     6.104700     0.073354
O1     0.850107    33.721865     6.093484
H      1.563488    33.506932     0.202075
H      0.270397    34.328984     0.072443
O1     0.791970     5.439933     2.860239
H      1.484958     5.208740     3.509360
H      0.196250     6.034058     3.363671
O1     8.364873    22.710413     2.829937
H      7.657697    22.930060     3.467773
H      8.953502    22.111757     3.335993
O1     8.385024    50.943389     6.111409
H      7.704935    51.173146     0.246371
H      8.993211    50.349235     0.075474
O1    17.523507    22.746666     6.113272
H     16.836711    22.983949     0.238368
H     18.120035    22.151104     0.089399
O1    17.513119    50.911437     2.832209
H     16.803241    51.129622     3.467441
H     18.096462    50.307644     3.338496
O1    10.336463    15.197975     2.295026
H     10.273723    16.100503     1.917030
H     11.216275    15.196788     2.726134
O1     1.089461    15.223913     5.673310
H      1.003232    16.115298     5.273454
H      1.975275    15.247846     6.092209
O1     1.135795    43.417923     2.415780
H      1.067796    44.312727     2.019964
H      2.020577    43.422484     2.837395
O1    17.231643    41.215613     5.678289
H     17.298727    40.321283     5.281312
H     16.346295    41.212165     6.098791
O1    17.232870    12.966294     2.412287
H     17.333142    12.074194     2.016876
H     16.352388    12.925507     2.840109
O1    12.614072     1.076661     0.783301
H     12.687516     1.970270     0.385636
H     11.729499     1.087708     1.205338
O1     3.504813    29.334802     0.773789
H      3.580010    30.229144     0.378065
H      2.618753    29.345234     1.192823
O1     5.704725    27.113696     4.039513
H      5.630940    26.219993     3.642195
H      6.589546    27.102865     4.461032
O1    14.862067    55.299790     4.042275
H     14.787867    54.405685     3.645928
H     15.748245    55.290280     4.461100
O1     5.893018    20.224769     2.364131
H      6.845417    20.182434     2.150424
H      5.771956    21.120611     2.736749
O1     5.863890    48.434360     5.588227
H      6.811383    48.376398     5.358534
H      5.778488    49.311074     6.012066
O1    15.041807    20.232339     5.578978
H     15.994047    20.166878     5.369689
H     14.952009    21.115677     5.987839
O1    15.040240    48.427073     2.368721
H     15.993256    48.373730     2.159397
H     14.927756    49.323247     2.742727
O1    12.505752    36.200450     2.318625
H     11.557699    36.260342     2.091681
H     12.589981    35.325044     2.745356
O1    12.412134     7.947028     5.630016
H     11.457005     8.000029     5.430139
H     12.528336     7.048702     5.997766
O1     3.329780    36.208938     5.626123
H      2.376368    36.263809     5.418943
H      3.441167    35.313833     6.002953
O1     3.282464     7.965151     2.333731
H      2.331225     8.028715     2.119825
H      3.372966     7.081723     2.742201
O1    17.066235    34.339388     3.992183
H     16.115422    34.298657     3.773023
H     17.182604    35.228380     4.382143
O1    17.029102     6.078711     0.732834
H     16.075383     6.025402     0.526905
H     17.139839     6.967799     1.123803
O1     7.919743    34.317717     0.695791
H      6.969099    34.248708     0.480094
H      8.005551    35.202930     1.101118
O1     7.868721     6.099507     3.998897
H      6.918826     6.062355     3.775738
H      7.982341     6.978803     4.411439
O1    10.444188    50.318272     3.960741
H     11.394744    50.388480     3.744877
H     10.360077    49.434545     4.369639
O1    10.445691    22.093931     0.715793
H     11.395695    22.140801     0.494153
H     10.340625    21.213815     1.128173
O1     1.298477    50.295443     0.731148
H      2.249207    50.337819     0.511743
H      1.184103    49.407435     1.123844
O1     1.290406    22.110058     3.988873
H      2.243827    22.161350     3.781081
H      1.178425    21.221169     4.379982

