542
-14435.5566066328
Si     4.570523    14.091031     0.000000
Si     4.563040    42.338865     3.259542
Si    13.568791    14.075478     3.289736
Si    13.564942    42.344667     0.011708
Si     9.114504    28.208302     4.904447
Si     9.054869     0.050727     1.679379
Si    18.132445    28.211262     1.629304
Si    18.151175     0.052708     4.876313
Si     9.064983    18.741810     1.748967
Si     9.054198    47.050921     4.998934
Si    18.164411    18.751990     5.004800
Si    18.182120    47.020521     1.732898
Si     9.089436    37.662871     1.737592
Si     9.101137     0.001305     4.991374
Si    18.172037    37.681938     5.009637
Si    18.174414     9.432191     1.721414
Si    13.623204    32.870360     3.378384
Si    13.608221     4.707667     0.087387
Si     4.522351    32.886494     0.112636
Si     4.563841     4.690431     3.342731
Si     4.511768    23.549059     3.379437
Si     4.528733    51.800281     0.088610
Si    13.604782    23.534806     0.110059
Si    13.571775    51.782630     3.350720
Si     2.825559    14.935217     2.408001
Si     2.836543    43.186288     5.673573
Si    11.832625    14.866256     5.706016
Si    11.821645    43.138824     2.439695
Si     6.308457    13.293207     2.431596
Si     6.308678    41.546592     5.688740
Si    15.313266    13.267910     5.705841
Si    15.296184    41.501386     2.426536
Si    10.863345    28.996741     0.811430
Si    10.812185     0.832425     4.094529
Si     1.624998    29.061797     4.045339
Si     1.679361     0.863238     0.770476
Si     7.389420    27.369539     0.796504
Si     7.334426    55.638451     4.089546
Si    16.385339    27.414586     4.055377
Si    16.449779    55.609428     0.768423
Si    10.667561    19.527222     4.206080
Si    10.671925    47.801273     0.944990
Si     1.544779    19.587907     0.922768
Si     1.560839    47.850253     4.172694
Si     7.479689    36.869592     4.194888
Si     7.475098     8.660957     0.930617
Si    16.573212    36.851861     0.925750
Si    16.556460     8.630360     4.154510
Si    12.017258    33.656735     5.833434
Si    11.999127     5.446443     2.542995
Si     2.915563    33.721056     2.551076
Si     2.927489     5.490084     5.791810
Si    15.198153    50.984305     5.804310
Si    15.210809    22.739408     2.569636
Si     6.129698    51.021356     2.538890
Si     6.113974    22.721285     5.818538
Si     7.270232    18.098573     4.189393
Si     7.266129    46.382592     0.916239
Si    16.377438    18.041345     0.929155
Si    16.392286    46.286420     4.178282
Si    10.872159    38.304806     4.185287
Si    10.883371    10.057142     0.909537
Si     1.744609    38.405420     0.927921
Si     1.731352    10.162358     4.168196
Si     6.308921    32.162376     2.558689
Si     6.324637     4.039407     5.793210
Si    15.417310    32.230500     5.822055
Si    15.416461     4.031918     2.524028
Si    11.817780    24.174497     2.557004
Si    11.804706    52.423403     5.796396
Si     2.712475    24.274528     5.817488
Si     2.720625    52.452793     2.529089
Al    14.288405    44.005418     4.040749
Al    14.294086    15.742865     0.794711
Al     5.295589    44.029042     0.749533
Al     5.273180    15.779892     4.010833
Al    12.843922    40.655756     4.022648
Al    12.871872    12.390754     0.789273
Al     3.848050    40.679096     0.767127
Al     3.833852    12.433687     4.023311
Al     8.402105    29.871463     2.411716
Al     8.336393     1.722377     5.697968
Al    17.404484    29.900591     5.639469
Al    17.425321     1.719860     2.366866
Al     9.837280    26.518611     2.396374
Al     9.803493    54.745432     5.698646
Al     0.615302    26.553553     5.658441
Al     0.702223    54.754888     2.369533
Al    17.303515    48.717938     5.763815
Al    17.296983    20.462628     2.519388
Al     8.221556    48.756984     2.520898
Al     8.232100    20.470817     5.793151
Al     9.919558    35.925181     5.783817
Al     9.901039     7.690865     2.512088
Al     0.820290    35.991091     2.522339
Al     0.800419     7.741552     5.762688
Al     5.398061    34.587227     4.147849
Al     5.359616     6.424422     0.859826
Al    14.457483    34.600288     0.901101
Al    14.435941     6.395314     4.132091
Al    12.770015    21.792455     4.156517
Al    12.780094    50.042320     0.870919
Al     3.638819    21.858482     0.890449
Al     3.698740    50.080012     4.131717
Al     9.692481    45.326544     2.537125
Al     9.690916    17.041451     5.801115
Al     0.641592    45.349112     5.768681
Al     0.633029    17.092735     2.516033
Al     8.465081    11.121468     2.535714
Al     8.434537    39.356731     5.788489
Al    17.505863    11.116665     5.763477
Al    17.498154    39.351069     2.519733
Al     3.822177    31.221984     4.147193
Al     3.886243     3.001935     0.877891
Al    12.996230    31.173244     0.907297
Al    13.003048     2.969917     4.144069
Al    14.253642    25.228024     4.161506
Al    14.247788    53.467893     0.886202
Al     5.192340    25.217700     0.891297
Al     5.137619    53.510368     4.138181
Na     9.014854    15.365225     2.841457
Na     9.002517    43.691574     6.098665
Na    17.774677    14.727463     0.613555
Na    17.711748    42.866958     4.058129
Na     9.137762    41.034944     2.854948
Na     9.134446    12.719535     6.060942
Na     0.424819    41.832551     0.799375
Na     0.391269    13.536067     3.976982
Na     4.975895    28.740663     2.431168
Na     4.585521     1.379182     4.408498
Na    13.692782    29.514160     4.483566
Na    13.747768     1.344693     1.130457
Na    13.554771    26.904570     1.232044
Na    13.565634    55.100711     4.422097
Na     4.034354    27.705358     5.694511
Na     4.382635    55.165935     1.144052
Ca     4.206012    18.546070     2.462805
Ca     4.195799    46.760330     5.708328
Ca    13.297212    18.485193     5.748093
Ca    13.313689    46.770023     2.492337
Ca     4.831636     9.671838     2.488308
Ca     4.823577    37.901943     5.737186
Ca    13.989151     9.732428     5.737110
Ca    13.937570    37.922061     2.467878
Ca     9.380537    32.628592     0.855045
Ca     9.456653     4.372936     4.153199
Ca     0.259059    32.666363     4.093126
Ca     0.302440     4.449000     0.837105
Ca     8.754171    23.784358     0.838992
Ca     8.679491    52.104776     4.137442
Ca    17.863507    23.780066     4.107332
Ca    17.837411    52.013011     0.845432
O2     9.304246    45.671347     4.202754
O2     9.305116    17.363223     0.952917
O2     0.323200    45.699925     0.910550
O2     0.296015    17.425645     4.182100
O2     8.873197    10.787563     4.200044
O2     8.832963    39.037778     0.940387
O2    17.861218    10.746406     0.882192
O2    17.822083    39.008963     4.186980
O2    13.382420    31.489592     2.583583
O2    13.381219     3.326771     5.809540
O2     4.155248    31.564014     5.811840
O2     4.298105     3.306164     2.551392
O2     4.863013    24.875701     2.557161
O2     4.755470    53.181330     5.812361
O2    13.859654    24.911566     5.835150
O2    13.833271    53.168423     2.560669
O2     8.822734    20.011752     0.830609
O2     8.756819    48.315907     4.093577
O2    17.830311    20.015336     4.100550
O2    17.830238    48.284381     0.833089
O2     0.279967     8.148882     0.837740
O2     0.274672    36.419342     4.103877
O2     9.321896     8.139461     4.060414
O2     9.346194    36.392376     0.821353
O2    13.868564    34.137343     2.457609
O2    13.872560     5.975411     5.700136
O2     4.860317    34.151185     5.731102
O2     4.758481     5.946682     2.401603
O2     4.179939    22.286097     2.473301
O2     4.288893    50.533756     5.690179
O2    13.343708    22.265741     5.716262
O2    13.386063    50.527521     2.407428
O2    13.950026    43.635265     5.682967
O2    13.929518    15.366830     2.425815
O2     4.913527    43.610567     2.366897
O2     4.907604    15.371390     5.635554
O2    13.211110    41.071713     5.644034
O2    13.225778    12.784050     2.420105
O2     4.179840    41.045250     2.411975
O2     4.165172    12.812320     5.664735
O2     8.736666    29.501422     4.054310
O2     8.682746     1.333409     0.808538
O2    17.783913    29.483730     0.738178
O2    17.751733     1.322035     3.999939
O2     9.459074    26.932223     4.015734
O2     9.473934    55.127481     0.811888
O2     0.286203    26.918199     0.780904
O2     0.373756    55.145524     4.004232
O2     5.825863    17.427483     3.924054
O2     5.830945    45.684306     0.668360
O2    14.929731    17.360545     0.670920
O2    14.944394    45.611360     3.905947
O2    12.306977    39.001537     3.939372
O2    12.336836    10.733280     0.670152
O2     3.196206    39.069078     0.640488
O2     3.182305    10.827439     3.892808
O2     7.757262    31.483602     2.285567
O2     7.782926     3.371443     5.563384
O2    16.856417    31.549784     5.559315
O2    16.863238     3.366452     2.254505
O2    10.379861    24.866483     2.312144
O2    10.344491    53.089887     5.563656
O2     1.263150    24.941934     5.531448
O2     1.271644    53.110469     2.256043
O2    12.151365    20.163487     4.264924
O2    12.161824    48.418051     0.995342
O2     3.016903    20.235276     0.981537
O2     3.048259    48.473150     4.241408
O2     6.005633    36.220953     4.237111
O2     5.980039     8.050652     0.971324
O2    15.091762    36.215926     1.006415
O2    15.056823     8.021347     4.244200
O2    10.534459    34.294606     5.891650
O2    10.498266     6.049982     2.623130
O2     1.443735    34.369441     2.614795
O2     1.441254     6.117902     5.817360
O2    16.680159    50.348182     5.835459
O2    16.687489    22.094991     2.612867
O2     7.624771    50.401761     2.621891
O2     7.595329    22.085874     5.897870
O2    10.320825    43.709759     2.353174
O2    10.330505    15.432069     5.626233
O2     1.323703    43.743805     5.639565
O2     1.298129    15.475607     2.361269
O2     7.814773    12.733785     2.358102
O2     7.804930    40.969088     5.588923
O2    16.838732    12.735691     5.639107
O2    16.812722    40.953184     2.385426
O2     3.139666    29.616484     4.011754
O2     3.193112     1.412434     0.690231
O2    12.365612    29.559557     0.715430
O2    12.326572     1.371605     4.011578
O2    14.885860    26.840475     3.958869
O2    14.937628    55.056954     0.688254
O2     5.873276    26.821878     0.759021
O2     5.820111    55.102695     3.989680
O2     1.744886    18.280279     1.879751
O2     1.749987    46.533591     5.117453
O2    10.830448    18.246665     5.207585
O2    10.834932    46.519859     1.941124
O2     7.318104     9.933027     1.940503
O2     7.298253    38.148750     5.195738
O2    16.377271     9.947383     5.107581
O2    16.387854    38.162852     1.877952
O2     2.714092    32.411832     3.504780
O2     2.761493     4.217926     0.285574
O2    11.855810    32.374631     0.312629
O2    11.855584     4.164021     3.546905
O2    15.389258    24.019817     3.569318
O2    15.375440    52.250568     0.300295
O2     6.303862    24.029872     0.250418
O2     6.279306    52.304911     3.543298
O2    16.187016    47.535906     5.150355
O2    16.170837    19.287963     1.903196
O2     7.065228    47.615957     1.906380
O2     7.080193    19.308853     5.207716
O2    11.073129    37.080106     5.184940
O2    11.072234     8.830870     1.912406
O2     1.950183    37.168250     1.917937
O2     1.914574     8.938189     5.173662
O2     6.524079    33.407648     3.536615
O2     6.516303     5.268233     0.265945
O2    15.612881    33.441103     0.315221
O2    15.590537     5.241703     3.545976
O2    11.619445    22.947919     3.553887
O2    11.618452    51.194466     0.273641
O2     2.509109    23.034632     0.284321
O2     2.551183    51.249361     3.556888
O2     6.352861    14.632502     3.310000
O2     6.382389    42.880390     0.052511
O2    15.354876    14.542424     0.155450
O2    15.306538    42.791019     3.371809
O2    11.757246    41.800017     3.320619
O2    11.797790    13.539394     0.083320
O2     2.830053    41.892473     0.095171
O2     2.804297    13.637977     3.343588
O2     7.381508    28.661257     1.739933
O2     7.247325     0.595833     4.986503
O2    16.321204    28.747751     4.942955
O2    16.344421     0.590059     1.637991
O2    10.924641    27.665603     1.702317
O2    10.893089    55.869834     4.985966
O2     1.633079    27.768137     4.988205
O2     1.784438    55.886451     1.645865
O2     3.841696    16.048012     3.002776
O2     3.872601    44.293740     6.247055
O2    12.867722    15.971780     6.303366
O2    12.849113    44.235656     3.055608
O2     5.275628    12.198911     3.042669
O2     5.283074    40.446306     6.305728
O2    14.295740    12.144212     6.287539
O2    14.266274    40.390234     3.005157
O2     9.840871    30.102055     1.424114
O2     9.789514     1.941150     4.710451
O2     0.591537    30.169739     4.619739
O2     0.653844     1.954454     1.400575
O2     8.419290    26.257332     1.372679
O2     8.348921    54.524097     4.711595
O2    17.408560    26.312237     4.672202
O2    17.475991    54.520447     1.401844
O2     9.520573    20.530363     4.639675
O2     9.541045    48.820473     1.402322
O2     0.384779    20.549346     1.407317
O2     0.411169    48.816904     4.672674
O2     8.628782    35.870934     4.635391
O2     8.596197     7.626719     1.376732
O2    17.733148    35.889096     1.408256
O2    17.696241     7.657231     4.662245
O2     4.078450    34.678477     3.037058
O2     4.062974     6.503204     6.233264
O2    13.165674    34.657515     6.267422
O2    13.126294     6.469147     2.996988
O2    14.064437    21.738113     3.011023
O2    14.058615    49.971825     6.236255
O2     4.953634    21.758312     6.300137
O2     4.989045    50.014328     2.976149
O2     8.342248    17.012520     4.702882
O2     8.339887    45.307563     1.446624
O2    17.437363    16.980068     1.524078
O2    17.443482    45.225569     4.783615
O2     9.787734    39.375537     4.700067
O2     9.818015    11.143721     1.437374
O2     0.696087    39.471570     1.529681
O2     0.681510    11.249095     4.741337
O2     5.252502    31.104798     3.159687
O2     5.246102     2.962200     6.316244
O2    14.343383    31.146324     6.337128
O2    14.351375     2.934898     3.043359
O2    12.898635    25.248031     3.074873
O2    12.880184    53.501549     6.320704
O2     3.761458    25.339099     6.419253
O2     3.788102    53.551092     3.039769
O2     7.754777    18.594854     2.703412
O2     7.740080    46.862045     5.947776
O2    16.875034    18.517699     5.967764
O2    16.905175    46.777507     2.704943
O2    10.402270    37.827094     2.687106
O2    10.428400     9.586925     5.936449
O2     1.221875    37.900582     5.983867
O2     1.215442     9.645292     2.708952
O2    14.931926    32.719464     4.333714
O2    14.909348     4.539380     1.053177
O2     5.806390    32.654781     1.082386
O2     5.875674     4.492790     4.287727
O2    12.253255    51.968568     4.291266
O2    12.291149    23.702416     1.058054
O2     3.228543    51.950039     1.052551
O2     3.228512    23.767183     4.351267
O2    10.411485    19.018599     2.660975
O2    10.387512    47.303320     5.927916
O2     1.270806    19.119266     5.893835
O2     1.290745    47.409771     2.614577
O2     7.747933    37.379537     2.651660
O2     7.769684     9.184173     5.927388
O2    16.826454    37.308097     5.890448
O2    16.816792     9.054661     2.593141
O2    12.275620    33.147487     4.288406
O2    12.256603     4.948671     1.002124
O2     3.181970    33.259991     0.997012
O2     3.220734     4.958791     4.264134
O2     5.856148    23.175934     4.261757
O2     5.886459    51.520551     0.990599
O2    14.943891    23.249432     1.026726
O2    14.912356    51.521444     4.277126
O2     3.258333    14.532888     0.889298
O2     3.253359    42.776151     4.149959
O2    12.262990    14.457473     4.189463
O2    12.277943    42.734253     0.927583
O2     5.853457    13.694591     0.915930
O2     5.847115    41.955711     4.180506
O2    14.864784    13.717775     4.217407
O2    14.871933    41.909194     0.905550
O2    10.399739    28.587406     5.824913
O2    10.351152     0.450478     2.583268
O2     1.208724    28.647641     2.522663
O2     1.206744     0.487506     5.780755
O2     7.803222    27.779632     5.795402
O2     7.809438    56.019067     2.584212
O2    16.846272    27.822448     2.546884
O2    16.910861    55.983237     5.776304
O1     4.981254    17.935477     0.415067
H      4.992534    17.058500     6.508494
H      5.448399    18.522636     6.308490
O1     4.954416    46.165618     3.651097
H      4.973824    45.284840     3.228031
H      5.402500    46.754512     3.009066
O1    14.087545    17.893862     3.705816
H     14.093980    17.009467     3.289328
H     14.557116    18.468845     3.066631
O1    14.141351    46.130879     0.477497
H     14.140321    45.250513     0.053643
H     14.572794    46.715252     6.343517
O1     3.975382    10.313588     0.481759
H      3.987178    11.184772     0.039952
H      3.507609     9.729482     6.368484
O1     4.022042    38.510938     3.702672
H      4.006741    39.392628     3.280445
H      3.525397    37.936381     3.083265
O1    13.022697    10.150308     3.740393
H     13.019306    11.019815     3.289168
H     12.580630     9.550315     3.104674
O1    13.174266    38.511390     0.409405
H     13.149719    39.393595     6.507027
H     12.721645    37.923568     6.289089
O1     8.581113    32.030500     5.335890
H      8.560325    31.148686     4.914754
H      8.100843    32.610949     4.709241
O1     8.478984     3.922859     2.157889
H      8.477496     3.047815     1.717399
H      8.071167     4.519368     1.496319
O1    17.715573    32.056243     2.044626
H     17.706062    31.179533     1.612207
H     17.252255    32.644672     1.412472
O1    17.710135     3.855924     5.315274
H     17.698178     2.982210     4.876887
H     17.228952     4.444429     4.697087
O1     9.513934    24.375488     5.302420
H      9.529935    25.256022     4.878366
H      9.962045    23.787251     4.659694
O1     9.645765    52.517311     2.130840
H      9.670068    53.393698     1.693196
H     10.089175    51.921583     1.491854
O1     0.439362    24.384558     2.072780
H      0.455344    25.266563     1.651118
H      0.936595    23.810463     1.453520
O1     0.432491    52.609293     5.327248
H      0.437614    53.482134     4.886491
H      0.917700    52.023176     4.709860
O1    12.921759    47.748746     4.538175
H     12.156634    47.655812     5.138616
H     13.513084    48.371592     5.010627
O1    12.838259    19.570392     1.236829
H     12.159129    19.343616     1.902055
H     13.441440    20.174454     1.719437
O1     3.720302    47.866596     1.190475
H      3.017536    47.659723     1.837575
H      4.320944    48.464241     1.683836
O1     3.689694    19.612796     4.474036
H      2.988209    19.385253     5.115071
H      4.273258    20.217935     4.978620
O1    14.414575    36.811687     4.469665
H     15.111643    37.031153     5.118604
H     13.819150    36.209758     4.964111
O1    14.313999     8.526709     1.144676
H     15.019875     8.704895     1.799577
H     13.705384     7.925993     1.623816
O1     5.317819    36.848284     1.233687
H      6.006571    37.082033     1.886265
H      4.723115    36.250380     1.733931
O1     5.230077     8.716257     4.534447
H      6.009461     8.806474     5.116739
H      4.642163     8.104841     5.025309
O1     9.848031    33.705238     2.864714
H     10.526610    33.476156     3.529594
H      9.242791    34.305051     3.350102
O1     9.662227     5.518596     6.106529
H     10.419159     5.442501     0.207075
H      9.054052     6.128747     0.042283
O1     0.759230    33.736618     6.105709
H      1.471598    33.514600     0.221338
H      0.183702    34.343619     0.087451
O1     0.784814     5.515529     2.847871
H      1.469125     5.274580     3.502469
H      0.189746     6.113564     3.346883
O1     8.270066    22.677022     2.840708
H      7.575531    22.898511     3.491694
H      8.864019    22.071631     3.332804
O1     8.384390    50.889168     6.065982
H      7.713223    51.082988     0.224510
H      9.002656    50.276579     0.004817
O1    17.372015    22.725858     6.126468
H     16.686356    22.955523     0.256089
H     17.974017    22.129518     0.106390
O1    17.347252    50.953740     2.859582
H     16.657223    51.197352     3.507260
H     17.938652    50.359001     3.367020
O1     1.138415    15.211339     5.572723
H      1.091566    16.117639     5.201650
H      2.024194    15.184827     5.991336
O1     1.053108    43.464924     2.415915
H      0.978432    44.359601     2.021056
H      1.940158    43.473487     2.832723
O1    17.076718    41.241256     5.685265
H     17.147525    40.346840     5.289207
H     16.189836    41.235881     6.102527
O1     3.407416    29.336149     0.788833
H      3.484790    30.231080     0.395100
H      2.519505    29.346324     1.203729
O1     5.603527    27.109278     4.053954
H      5.527537    26.215476     3.657570
H      6.489361    27.097422     4.473149
O1     5.782524    20.236794     2.369110
H      6.736175    20.197742     2.162448
H      5.662029    21.122626     2.764789
O1     5.759112    48.466240     5.556018
H      6.705426    48.403057     5.322343
H      5.683696    49.332172     6.002671
O1    14.875792    20.194161     5.603341
H     15.824275    20.132383     5.376832
H     14.789703    21.075589     6.017154
O1    14.902423    48.464415     2.325763
H     15.850217    48.386810     2.101306
H     14.825454    49.358733     2.712302
O1    12.373033    36.204276     2.324040
H     11.423668    36.262611     2.102581
H     12.457979    35.334286     2.761583
O1     3.236261    36.215055     5.627575
H      2.281246    36.268120     5.427590
H      3.350245    35.322945     6.010847
O1     3.225354     7.993112     2.339491
H      2.278878     8.064036     2.107403
H      3.307670     7.094140     2.713602
O1    16.910543    34.358067     3.997102
H     15.957285    34.321973     3.788336
H     17.033194    35.243983     4.392261
O1    16.936311     6.120292     0.729824
H     15.992363     6.086826     0.482174
H     17.044002     6.996554     1.149299
O1     7.803477    34.332389     0.705763
H      6.852168    34.264962     0.492940
H      7.890288    35.215531     1.115476
O1    10.323171    22.073259     0.700656
H     11.271514    22.130223     0.474631
H     10.237915    21.201487     1.134555
O1     1.208245    50.333444     0.756726
H      2.154907    50.366119     0.519325
H      1.091261    49.445254     1.147990
O1     1.212964    22.082987     3.996732
H      2.167613    22.137230     3.794823
H      1.102608    21.193624     4.387398

