513
-14344.8957822621
Si     4.549131    14.052276     0.000000
Si     4.636730    42.201022     3.231701
Si    13.609771    14.051501     3.259038
Si    13.592989    42.196332     0.008127
Si     9.072789    28.171464     4.895291
Si     9.097896     0.103660     1.638310
Si    18.141307    28.187310     1.619261
Si    -0.009981     0.102836     4.869294
Si     9.045413    18.714799     1.724172
Si     9.083638    46.913969     4.971777
Si    18.106327    18.714355     4.981484
Si    18.177450    46.879007     1.709034
Si     9.162547    37.483156     1.694896
Si     9.128937     9.394406     4.919405
Si    18.159594    37.490182     4.949320
Si     0.070021     9.395221     1.656790
Si    13.654083    32.812596     3.310260
Si    13.681349     4.774152     0.028409
Si     4.623131    32.801068     0.039035
Si     4.601578     4.760612     3.290189
Si     4.501518    23.521060     3.352859
Si     4.591960    51.685021     0.067365
Si    13.587737    23.520570     0.094364
Si    13.586037    51.658372     3.328870
Si     2.798193    14.866355     2.408647
Si     2.886151    43.037349     5.635619
Si    11.859694    14.865085     5.667931
Si    11.849539    42.986027     2.420557
Si     6.320840    13.288863     2.417893
Si     6.369357    41.412381     5.667577
Si    15.382167    13.287649     5.676851
Si    15.330735    41.381914     2.428065
Si    10.865088    28.936864     0.794631
Si    10.858202     0.875874     4.057407
Si     1.773023    28.954190     4.035845
Si     1.777611     0.880327     0.769868
Si     7.340934    27.364842     0.785812
Si     7.381058    55.529106     4.043919
Si    16.398037    27.376434     4.029226
Si    16.451834    55.501194     0.760827
Si    10.643632    19.515592     4.183865
Si    10.711159    47.661964     0.923323
Si     1.580793    19.516025     0.923501
Si     1.639126    47.710059     4.150468
Si     7.510007    36.767141     4.149200
Si     7.503592     8.683608     0.848509
Si    16.553441    36.742281     0.869174
Si    16.566224     8.685014     4.102649
Si    12.022639    33.536058     5.756791
Si    12.034615     5.478531     2.474846
Si     2.984269    33.572589     2.476684
Si     2.952601     5.480279     5.735861
Si    15.205730    50.865627     5.784361
Si    15.185914    22.720686     2.554049
Si     6.189421    50.899785     2.517751
Si     6.099620    22.719534     5.811932
Si     7.252202    18.072014     4.168642
Si     7.314336    46.252394     0.888987
Si    16.334581    18.073110     0.908898
Si    16.382284    46.166416     4.153601
Si    10.914207    38.152786     4.139055
Si    10.918326    10.072889     0.844020
Si     1.819566    38.252810     0.874267
Si     1.835997    10.073261     4.099255
Si     6.385979    32.154236     2.489400
Si     6.368126     4.088300     5.735493
Si    15.438042    32.159076     5.747914
Si    15.446487     4.092235     2.469893
Si    11.794649    24.159533     2.539059
Si    11.820600    52.293564     5.771492
Si     2.708464    24.167813     5.796169
Si     2.784724    52.321702     2.508489
Al    14.309482    43.862193     4.032761
Al    14.350359    15.738339     0.756165
Al     5.354788    43.894668     0.726145
Al     5.267261    15.739166     4.014347
Al    12.874212    40.509551     4.023108
Al    12.910892    12.398361     0.754785
Al     3.906986    40.540119     0.733822
Al     3.828058    12.399660     4.013134
Al     8.377627    29.827258     2.392264
Al     8.373142     1.771788     5.651541
Al    17.433876    29.845651     5.632938
Al    17.430598     1.761514     2.365152
Al     9.807721    26.488640     2.391369
Al     9.846569    54.635866     5.657282
Al     0.723514    26.504486     5.634947
Al     0.781010    54.633159     2.363976
Al    17.299772    48.592337     5.739756
Al    17.287220    20.459627     2.505484
Al     8.264360    48.624925     2.496477
Al     8.204599    20.458526     5.765334
Al     9.932561    35.785239     5.733938
Al     9.922251     7.706769     2.438775
Al     0.888831    35.840565     2.473880
Al     0.839481     7.706730     5.693323
Al     5.399772    34.531018     4.075230
Al     5.389851     6.457381     0.810589
Al    14.452104    34.509832     0.834438
Al    14.452731     6.458478     4.065142
Al    12.749024    21.774915     4.136181
Al    12.804453    49.913430     0.850675
Al     3.680122    21.780339     0.875302
Al     3.761990    49.948977     4.107387
Al     9.729865    45.185742     2.515873
Al     9.683006    17.019377     5.773644
Al     0.714390    45.211674     5.741670
Al     0.621901    17.020473     2.513543
Al     8.511510    11.142774     2.468494
Al     8.499243    39.220080     5.761699
Al    17.573458    11.142583     5.723750
Al    17.513757    39.215865     2.478764
Al     3.961852    31.096764     4.098028
Al     3.976199     3.020558     0.837206
Al    13.056509    31.076949     0.857097
Al    13.044410     3.021581     4.096399
Al    14.224901    25.216615     4.144614
Al    14.267980    53.348463     0.871332
Al     5.161202    25.215777     0.885545
Al     5.199002    53.388063     4.116948
Na     8.991857    15.369172     2.793976
Na     9.080575    43.525948     6.073236
Na    18.052225    15.369858     6.050418
Na    17.786488    42.862308     3.818165
Na     9.171733    40.816598     2.766391
Na     9.193070    12.743448     5.977015
Na     0.456065    41.621390     0.659453
Na     0.131702    12.744021     2.714043
Na     4.675449    29.468931     1.114410
Na     4.646561     1.431118     4.342970
Na    13.717809    29.482844     4.367996
Na    13.743569     1.422760     1.071146
Na    13.541424    26.875990     1.176994
Na    13.599697    54.980776     4.395277
Na     4.446367    26.875794     4.427591
Na     4.492256    55.038339     1.132607
Ca     4.196110    18.474188     2.477157
Ca     4.266397    46.629473     5.679077
Ca    13.257227    18.470440     5.736417
Ca    13.327527    46.618391     2.472191
Ca     4.974278     9.757410     2.470498
Ca     4.880769    37.786571     5.706411
Ca    14.036279     9.753358     5.730179
Ca    14.003709    37.840969     2.462875
Ca     9.518156    32.484559     0.867566
Ca     9.506194     4.416696     4.104146
Ca     0.432072    32.517056     4.095765
Ca     0.437275     4.414454     0.837769
Ca     8.736126    23.763223     0.847710
Ca     8.731706    51.980447     4.107932
Ca    17.799268    23.772167     4.100190
Ca    17.843321    51.891435     0.831848
O2     9.331776    45.535681     4.176750
O2     9.307049    17.337882     0.930123
O2     0.406733    45.555688     0.888290
O2     0.223731    17.337546     4.187301
O2     8.909595    10.786047     4.126968
O2     8.932072    38.874701     0.903040
O2    17.995732    10.786620     0.863943
O2    17.862776    38.805224     4.104462
O2    13.444328    31.413966     2.524173
O2    13.445913     3.381897     5.752759
O2     4.360557    31.411522     5.769036
O2     4.374477     3.368524     2.498258
O2     4.762717    24.897136     2.558480
O2     4.812507    53.065415     5.791216
O2    13.828515    24.896546     5.817894
O2    13.845353    53.046342     2.542388
O2     8.791489    19.985131     0.809632
O2     8.796657    48.183654     4.069187
O2    17.853200    19.984743     4.066839
O2    17.837213    48.144628     0.809361
O2     0.272446     8.134306     0.728848
O2     0.393662    36.208528     4.082475
O2     9.333038     8.134233     3.990985
O2     9.370590    36.222168     0.768064
O2    13.843471    34.062492     2.370447
O2    13.861699     6.034615     5.617983
O2     4.783375    34.054753     5.611651
O2     4.805671     6.019590     2.361580
O2     4.246258    22.250768     2.437888
O2     4.342092    50.416411     5.664483
O2    13.314622    22.248672     5.697698
O2    13.409976    50.402843     2.385587
O2    13.945318    43.485266     5.664154
O2    13.996796    15.319133     2.375962
O2     4.978663    43.480672     2.346158
O2     4.914525    15.319622     5.634273
O2    13.220498    40.909648     5.653300
O2    13.222467    12.764259     2.399926
O2     4.239236    40.920649     2.374396
O2     4.140403    12.764731     5.658264
O2     8.691401    29.458812     4.035562
O2     8.722741     1.387924     0.770418
O2    17.764774    29.477328     0.760416
O2    17.742108     1.385806     4.007203
O2     9.453895    26.901069     4.012946
O2     9.524319    55.029217     0.769479
O2     0.382230    26.918675     0.736452
O2     0.437893    55.044104     3.989437
O2     5.805122    17.395070     3.922248
O2     5.877715    45.554669     0.640766
O2    14.888047    17.394338     0.663864
O2    14.938462    45.481861     3.897659
O2    12.356599    38.847725     3.904548
O2    12.371373    10.743237     0.596088
O2     3.268089    38.927921     0.600145
O2     3.289016    10.744491     3.853891
O2     7.837705    31.481192     2.243432
O2     7.827177     3.424210     5.502044
O2    16.898002    31.503969     5.486195
O2    16.897493     3.419439     2.218157
O2    10.346206    24.833282     2.294535
O2    10.366171    52.971679     5.536685
O2     1.263803    24.848302     5.546033
O2     1.333342    52.982827     2.254892
O2    12.127476    20.148054     4.238288
O2    12.197800    48.285225     0.971836
O2     3.062720    20.152191     0.976499
O2     3.124501    48.336089     4.216957
O2     6.014256    36.157175     4.182184
O2     5.994713     8.094454     0.909434
O2    15.053183    36.138921     0.962045
O2    15.057540     8.095703     4.158857
O2    10.519572    34.137918     5.826597
O2    10.526138     6.068768     2.535264
O2     1.491411    34.193776     2.523467
O2     1.443200     6.068398     5.788042
O2    16.686513    50.225864     5.816635
O2    16.669236    22.087116     2.607737
O2     7.681904    50.275854     2.594702
O2     7.582251    22.084334     5.867258
O2    10.352954    43.569106     2.340916
O2    10.351284    15.422713     5.583147
O2     1.364835    43.590163     5.584951
O2     1.289784    15.423736     2.322492
O2     7.833233    12.741346     2.334269
O2     7.867739    40.838957     5.595528
O2    16.894712    12.740942     5.591580
O2    16.854756    40.840793     2.365352
O2     3.284118    29.500582     3.935941
O2     3.293058     1.423858     0.689108
O2    12.379924    29.477871     0.705974
O2    12.370460     1.419865     3.976270
O2    14.889975    26.814927     3.953375
O2    14.943160    54.944111     0.676651
O2     5.830135    26.812324     0.700143
O2     5.869725    54.983749     3.946217
O2     1.748891    18.238622     1.928302
O2     1.828482    46.394735     5.099131
O2    10.809540    18.237195     5.187635
O2    10.875136    46.382931     1.924275
O2     7.358303     9.958109     1.864117
O2     7.345400    38.038242     5.160936
O2    16.419729     9.957570     5.120650
O2    16.377322    38.060269     1.818044
O2     2.819219    32.298816     3.496679
O2     2.825658     4.208502     0.236690
O2    11.902365    32.264527     0.259831
O2    11.889006     4.204225     3.491134
O2    15.352284    23.999257     3.557425
O2    15.400473    52.132387     0.288104
O2     6.287093    23.997812     0.298329
O2     6.341526    52.180509     3.526761
O2    16.179924    47.419904     5.117178
O2    16.141062    19.300054     1.904937
O2     7.106356    47.484616     1.881254
O2     7.059278    19.298306     5.165423
O2    11.105240    36.928804     5.144760
O2    11.091559     8.857439     1.862025
O2     2.011807    37.025945     1.879723
O2     2.008686     8.857878     5.117367
O2     6.565950    33.372449     3.499714
O2     6.557987     5.309841     0.228158
O2    15.632762    33.370346     0.253089
O2    15.620982     5.303697     3.492457
O2    11.602348    22.932354     3.535346
O2    11.642018    51.067451     0.252745
O2     2.534649    22.941712     0.275982
O2     2.610518    51.109107     3.523794
O2     6.372442    14.628333     3.292177
O2     6.444312    42.755909     0.024906
O2    15.455456    14.627248     0.034319
O2    15.374208    42.663782     3.392627
O2    11.794149    41.651675     3.308041
O2    11.831120    13.530440     0.033597
O2     2.872330    41.738523     0.050073
O2     2.748102    13.531699     3.292373
O2     7.294378    28.696803     1.672979
O2     7.285784     0.645548     4.935286
O2    16.355014    28.711801     4.911717
O2    16.350750     0.633060     1.636648
O2    10.913395    27.600444     1.673986
O2    10.945909    55.752026     4.942075
O2     1.829312    27.619427     4.919228
O2     1.879794    55.750393     1.643608
O2     3.824081    15.962630     3.025959
O2     3.904997    44.146801     6.230656
O2    12.886185    15.961108     6.284931
O2    12.886612    44.080336     3.026335
O2     5.298748    12.192212     3.052764
O2     5.330105    40.323275     6.274681
O2    14.360860    12.190571     6.312212
O2    14.307261    40.267257     3.008612
O2     9.845465    30.035556     1.428484
O2     9.834434     1.979681     4.677807
O2     0.758085    30.056872     4.671113
O2     0.757037     1.976658     1.405408
O2     8.364458    26.264876     1.401590
O2     8.396961    54.419629     4.666221
O2    17.428419    26.280122     4.640878
O2    17.476819    54.408456     1.385495
O2     9.499922    20.520556     4.620317
O2     9.580673    48.682671     1.375834
O2     0.436658    20.520438     1.359295
O2     0.491841    48.680602     4.645662
O2     8.626798    35.731461     4.600125
O2     8.615116     7.644976     1.302191
O2    17.684303    35.757763     1.390103
O2    17.676538     7.645331     4.557089
O2     4.116067    34.586867     2.916209
O2     4.060914     6.520862     6.192069
O2    13.141325    34.571599     6.195932
O2    13.146349     6.516843     2.927873
O2    14.044142    21.713470     2.991045
O2    14.065658    49.852797     6.210073
O2     4.954513    21.715899     6.248194
O2     5.050633    49.890400     2.951315
O2     8.326809    16.991379     4.686862
O2     8.387214    45.177975     1.414929
O2    17.410329    16.993515     1.426732
O2    17.436034    45.102740     4.750699
O2     9.840110    39.234628     4.654000
O2     9.855533    11.170239     1.361735
O2     0.773257    39.340078     1.451098
O2     0.771654    11.169919     4.615188
O2     5.314059    31.065299     3.003694
O2     5.304265     2.992185     6.254097
O2    14.385217    31.054377     6.272355
O2    14.383279     2.993315     2.983387
O2    12.868915    25.239958     3.057772
O2    12.895458    53.371223     6.292065
O2     3.785007    25.246203     6.314707
O2     3.851331    53.416455     3.021015
O2     7.732443    18.543797     2.672012
O2     7.764063    46.738870     5.916862
O2    16.792773    18.543365     5.928777
O2    16.892416    46.636529     2.671407
O2    10.478390    37.666518     2.644133
O2    10.432960     9.575553     5.880361
O2     1.287555    37.721225     5.940735
O2     1.374871     9.575823     2.617191
O2    14.962756    32.649373     4.268735
O2    14.984957     4.596517     0.990517
O2     5.926736    32.628919     0.995508
O2     5.908425     4.570931     4.247308
O2    12.262423    51.833912     4.265458
O2    12.274409    23.687824     1.042175
O2     3.284419    51.834568     1.023182
O2     3.188888    23.691702     4.301038
O2    10.384012    19.004078     2.641383
O2    10.415925    47.157668     5.904065
O2     1.300356    19.002387     5.899077
O2     1.370212    47.259218     2.596288
O2     7.816015    37.284056     2.625448
O2     7.770442     9.190299     5.837966
O2    16.803504    37.158724     5.831569
O2    16.856335     9.194048     2.576089
O2    12.296855    33.013110     4.230837
O2    12.321359     4.972103     0.946375
O2     3.261470    33.052795     0.944763
O2     3.246648     4.965774     4.212035
O2     5.840564    23.229947     4.269028
O2     5.945364    51.408062     0.974080
O2    14.926302    23.231554     1.011793
O2    14.925656    51.406993     4.258936
O2     3.254104    14.475560     0.896412
O2     3.320757    42.638645     4.116510
O2    12.314376    14.475313     4.154961
O2    12.283765    42.586143     0.901797
O2     5.842886    13.647318     0.906793
O2     5.919353    41.812976     4.149678
O2    14.902966    13.646941     4.166473
O2    14.885848    41.830325     0.937247
O2    10.367164    28.570211     5.802681
O2    10.391871     0.502312     2.545447
O2     1.288159    28.582611     2.531429
O2     1.281061     0.519379     5.776003
O2     7.775260    27.753297     5.791046
O2     7.849885    55.910466     2.536090
O2    16.841982    27.764253     2.511907
O2    16.892259    55.882678     5.764633
O1     4.971981    17.872378     0.421765
H      4.962872    16.991890     6.513383
H      5.403944    18.458382     6.298102
O1     5.016734    46.033284     3.623680
H      5.044013    45.151108     3.203954
H      5.465224    46.622626     2.982342
O1    14.034301    17.870411     3.680727
H     14.046405    16.990478     3.254662
H     14.486325    18.457313     3.039487
O1    14.131211    45.981049     0.453336
H     14.122662    45.094634     0.042147
H     14.510146    46.559866     6.289588
O1     3.962355    10.194266     0.492971
H      3.957672    11.063731     0.041762
H      3.518393     9.591251     6.364381
O1     4.038847    38.430880     3.702726
H      4.046945    39.302070     3.261669
H      3.577191    37.843034     3.069181
O1    13.024635    10.193232     3.753114
H     13.019723    11.063090     3.302665
H     12.603737     9.590666     3.105688
O1    13.043669    38.292519     0.472165
H     13.054732    39.161410     0.020446
H     12.627492    37.686261     6.329121
O1     8.502319    32.033532     5.396617
H      8.498817    31.163657     4.946244
H      8.102593    32.639934     4.739096
O1     8.501609     3.966629     2.125134
H      8.502253     3.095292     1.677747
H      8.089084     4.567489     1.470670
O1    17.599730    32.078608     2.101249
H     17.578319    31.207423     1.653572
H     17.153307    32.680439     1.469883
O1    17.556843     3.963409     5.374190
H     17.553576     3.094720     4.921469
H     17.133833     4.566612     4.728565
O1     9.492954    24.353260     5.308610
H      9.506659    25.233965     4.884210
H      9.949764    23.768135     4.669265
O1     9.674160    52.409841     2.094045
H      9.698904    53.285730     1.655656
H     10.107959    51.810731     1.451492
O1     0.429606    24.369449     2.044580
H      0.435847    25.248114     1.615633
H      0.882941    23.782800     1.404113
O1     0.497513    52.499082     5.308994
H      0.502658    53.376431     4.877421
H      0.965237    51.914625     4.676820
O1    12.947352    47.616617     4.518103
H     12.183483    47.525234     5.120491
H     13.534118    48.250239     4.981752
O1    12.808657    19.580900     1.222498
H     12.144719    19.339232     1.897653
H     13.414712    20.185169     1.701247
O1     3.795539    47.742131     1.165487
H      3.100891    47.525203     1.817945
H      4.401573    48.332903     1.660703
O1     3.724174    19.582654     4.480330
H      3.058887    19.339817     5.153737
H      4.328508    20.186911     4.961220
O1    14.229557    36.683289     4.407760
H     15.004517    36.739855     5.003418
H     13.620351    36.080614     4.882266
O1    14.239089     8.616615     1.165397
H     14.991078     8.685725     1.787760
H     13.612604     8.024153     1.629941
O1     5.282426    36.818394     1.232224
H      6.060499    36.902868     1.817011
H      4.681974    36.222906     1.727073
O1     5.159039     8.617127     4.422531
H      5.914151     8.684348     5.041397
H      4.532077     8.028296     4.891068
O1     9.692833    33.622897     2.821179
H     10.445327    33.552333     3.442810
H      9.077435    34.233075     3.277736
O1     9.688916     5.550909     6.056711
H     10.464746     5.485999     0.158567
H      9.084769     6.145549     0.003431
O1     0.712731    33.693758     6.037908
H      1.407795    33.498484     0.202496
H      0.109008    34.318066     6.491916
O1     0.623732     5.546631     2.794416
H      1.375371     5.475308     3.416972
H     -0.000826     6.141132     3.259069
O1     8.260404    22.648366     2.847883
H      7.598824    22.895852     3.523303
H      8.867963    22.048141     3.329750
O1     8.429779    50.760253     6.037026
H      7.779981    50.960325     0.204124
H      9.038628    50.141160     6.492317
O1    17.327205    22.660541     6.105430
H     16.681707    22.903255     0.260536
H     17.952520    22.057533     0.069927
O1    17.361009    50.821685     2.844189
H     16.672425    51.061938     3.494613
H     17.956060    50.227445     3.347907
O1     1.230785    43.318588     2.249009
H      1.186280    44.228045     1.885818
H      2.116368    43.286612     2.667452
O1     5.765036    20.190161     2.326712
H      6.712822    20.132234     2.097968
H      5.680023    21.066575     2.751212
O1     5.809584    48.355294     5.523627
H      6.757654    48.292252     5.296904
H      5.734731    49.213511     5.985034
O1    14.825409    20.187795     5.584866
H     15.772286    20.129318     5.352572
H     14.743483    21.062168     6.014201
O1    14.906948    48.327350     2.297284
H     15.852233    48.257171     2.060713
H     14.830302    49.216503     2.695890
O1     3.292784    36.099415     5.528155
H      2.347573    36.174199     5.292064
H      3.364627    35.213377     5.932863
O1    10.304780    22.044358     0.696846
H     11.252277    22.105506     0.467569
H     10.223872    21.170336     1.126910
O1     1.288707    50.198092     0.726148
H      2.234924    50.232209     0.487007
H      1.177191    49.314409     1.129224
O1     1.219419    22.049620     3.951311
H      2.167700    22.107906     3.724644
H      1.135153    21.176391     4.382530

