485
-14243.7868295323
Si     4.521358    14.002751     0.000000
Si     4.526283    42.004849     3.280874
Si    13.539216    13.971574     3.260022
Si    13.563672    42.002248     0.023592
Si     9.048956    28.003156     4.925678
Si     9.045181    56.010410     1.639667
Si    18.071447    27.988924     1.664598
Si    18.078123    56.012839     4.898701
Si     8.982605    18.663667     1.681254
Si     8.983048    46.684201     4.940655
Si    18.006030     0.004568     4.915780
Si    18.020702    46.681000     1.682527
Si     9.105143    37.322818     1.690798
Si     9.080793     9.322231     4.918799
Si     0.067583    37.326220     4.948079
Si     0.059859     9.323676     1.669881
Si    13.623046    32.679093     3.326009
Si    13.610844     4.678278     0.040450
Si     4.586793    32.671008     0.063055
Si     4.571077     4.678663     3.299765
Si     4.470985    23.316651     3.313854
Si     4.468028    51.331090     0.049110
Si    13.482168    23.299091     0.075321
Si    13.501494    51.333730     3.307272
Si     2.748350    14.788012     2.408990
Si     2.760060    42.787687     5.692356
Si    11.789853    14.797841     5.681291
Si    11.797216    42.784666     2.435055
Si     6.281112    13.226318     2.414360
Si     6.290539    41.225773     5.695694
Si    15.312989    13.226984     5.674789
Si    15.327866    41.223301     2.438466
Si    10.815839    28.774105     0.823520
Si    10.794806     0.784055     4.053055
Si     1.768448    28.781783     4.077204
Si     1.760797     0.779875     0.795853
Si     7.285674    27.216818     0.821365
Si     7.278712    55.232985     4.052501
Si    16.307949    27.216720     4.078887
Si    16.315621    55.229914     0.795282
Si    10.621880    19.379746     4.129732
Si    10.627102    47.396865     0.874154
Si     1.586403    19.404735     0.852673
Si     1.589697    47.400010     4.132349
Si     7.462036    36.610315     4.140413
Si     7.445182     8.612467     0.852524
Si    16.499074    36.609880     0.881451
Si    16.484990     8.616931     4.119012
Si    11.979007    33.392797     5.774035
Si    11.966596     5.395522     2.488364
Si     2.944741    33.390779     2.511539
Si     2.928411     5.394848     5.747726
Si    15.141821    50.620176     5.758519
Si    15.147882    22.615638     2.522200
Si     6.108398    50.617188     2.500330
Si     6.116065    22.609728     5.763858
Si     7.206897    18.015825     4.114371
Si     7.220104    46.013312     0.865655
Si    16.228880    18.029790     0.843009
Si    16.253599    46.016323     4.123889
Si    10.869847    37.994457     4.132061
Si    10.854054     9.990904     0.841187
Si     1.836121    37.992297     0.873019
Si     1.821757     9.997913     4.110736
Si     6.352689    32.005689     2.506124
Si     6.336359     4.014038     5.742388
Si    15.386724    32.012473     5.768944
Si    15.374217     4.012393     2.483657
Si    11.732036    23.976605     2.516022
Si    11.734723    52.004203     5.746972
Si     2.707647    23.996098     5.754582
Si     2.701126    52.001153     2.488947
Al    14.278550    43.678062     4.036525
Al    14.273046    15.677572     0.755524
Al     5.245552    43.674614     0.777484
Al     5.230170    15.679748     4.014023
Al    12.844810    40.333031     4.038870
Al    12.829463    12.327090     0.775437
Al     3.811518    40.329874     0.779807
Al     3.795848    12.337476     4.014370
Al     8.331713    29.670098     2.421991
Al     8.311959     1.676777     5.651838
Al    17.359032    29.673116     5.676395
Al    17.349237     1.673633     2.394644
Al     9.764412    26.322990     2.426403
Al     9.760439    54.343127     5.655611
Al     0.723811    26.329368     5.679044
Al     0.726018    54.339383     2.398493
Al    17.242976    48.385708     5.717054
Al    17.246536    20.395370     2.428430
Al     8.209372    48.382675     2.458843
Al     8.218190    20.376680     5.714933
Al     9.878745    35.628294     5.728938
Al     9.862566     7.627734     2.439968
Al     0.844459    35.626408     2.469595
Al     0.830750     7.632142     5.707299
Al     5.361103    34.375381     4.098319
Al     5.347453     6.375799     0.818600
Al    14.398956    34.374884     0.844589
Al    14.382571     6.382606     4.075637
Al    12.735830    21.609286     4.110893
Al    12.727943    49.631885     0.828532
Al     3.700344    21.620276     0.832701
Al     3.690635    49.634907     4.086731
Al     9.620078    44.939392     2.495080
Al     9.593004    16.924973     5.749873
Al     0.582712    44.942386     5.753129
Al     0.567890    16.940336     2.469866
Al     8.457233    11.070378     2.470442
Al     8.468176    39.071065     5.757445
Al    17.492989    11.075604     5.737964
Al    17.506394    39.069633     2.498692
Al     3.949995    30.932449     4.132104
Al     3.939386     2.932756     0.853544
Al    12.990686    30.930845     0.880274
Al    12.972511     2.938763     4.110648
Al    14.131802    25.059777     4.141305
Al    14.138516    53.074999     0.858422
Al     5.109692    25.062195     0.865962
Al     5.101200    53.078111     4.116446
Na     8.958133    15.303661     2.741212
Na     8.958326    43.347126     5.994650
Na    17.930590    15.360068     5.957957
Na    17.995402    43.344121     2.736334
Na     9.131054    40.667950     2.738290
Na     9.133175    12.663232     5.962474
Na     0.093847    40.671805     5.994954
Na     0.074781    12.665700     2.711352
Na     4.616825    29.335412     1.111249
Na     4.597349     1.341368     4.351711
Na    13.648622    29.340597     4.375613
Na    13.635056     1.341280     1.092401
Na    13.475080    26.647562     1.117351
Na    13.476657    54.678394     4.356235
Na     4.437068    26.665704     4.360013
Na     4.442298    54.675412     1.098412
Ca     4.088614    18.319448     2.479514
Ca     4.110247    46.333553     5.751876
Ca    12.997694    18.392242     6.002054
Ca    13.147567    46.330755     2.494051
Ca     4.926034     9.682256     2.475488
Ca     4.940956    37.683566     5.757804
Ca    13.965627     9.691005     5.736887
Ca    13.978726    37.681285     2.501013
Ca     9.462104    32.321624     0.877814
Ca     9.444907     4.329650     4.110328
Ca     0.423885    32.326450     4.137113
Ca     0.410989     4.326400     0.854262
Ca     8.633703    23.679895     0.873158
Ca     8.628380    51.690713     4.116641
Ca    17.673973    23.681101     4.125090
Ca    17.665604    51.687433     0.858793
O2     9.212085    45.291029     4.152404
O2     9.205653    17.268039     0.895940
O2     0.178946    45.287845     0.894269
O2     0.191841    17.281764     4.135376
O2     8.862094    10.714943     4.127267
O2     8.877906    38.713804     0.899002
O2    17.907569    10.714353     0.877133
O2    17.912593    38.717240     4.156086
O2    13.397625    31.286194     2.536754
O2    13.379238     3.291245     5.767975
O2     4.354648    31.283706     5.790720
O2     4.345475     3.285267     2.511117
O2     4.698453    24.706079     2.520380
O2     4.693122    52.728137     5.774039
O2    13.704216    24.687864     5.786815
O2    13.730332    52.724734     2.515904
O2     8.818407    19.921116     0.742712
O2     8.788757    47.943052     4.010363
O2    17.805134    19.923134     3.975526
O2    17.826264    47.939828     0.752244
O2     0.254543     8.060882     0.744053
O2     0.263564    36.064276     4.021421
O2     9.275170     8.061300     3.990593
O2     9.301366    36.061328     0.763757
O2    13.817611    33.938964     2.396773
O2    13.802014     5.943465     5.627033
O2     4.779454    33.935550     5.649063
O2     4.765310     5.937699     2.369551
O2     4.275256    22.052761     2.389388
O2     4.269392    50.075660     5.638180
O2    13.275968    22.027223     5.683375
O2    13.306911    50.072240     2.380029
O2    13.948746    43.286994     5.670465
O2    13.939429    15.199586     2.347634
O2     4.915490    43.283361     2.411288
O2     4.905795    15.289044     5.648058
O2    13.172308    40.727657     5.672239
O2    13.105217    12.674302     2.432358
O2     4.138862    40.724119     2.413335
O2     4.128986    12.730163     5.647024
O2     8.661970    29.282867     4.056826
O2     8.643502     1.277945     0.769357
O2    17.684439    29.266716     0.793163
O2    17.676688     1.280368     4.028329
O2     9.434025    26.722184     4.057574
O2     9.434470    54.729720     0.772818
O2     0.397579    26.709634     0.798500
O2     0.396190    54.731919     4.032064
O2     5.753995    17.344213     3.879002
O2     5.767497    45.336075     0.633611
O2    14.774640    17.352653     0.598722
O2    14.800792    45.339388     3.892114
O2    12.322444    38.670987     3.898771
O2    12.302290    10.669145     0.591925
O2     3.289029    38.667914     0.639334
O2     3.273850    10.675697     3.875762
O2     7.806565    31.330312     2.274529
O2     7.789422     3.338166     5.509685
O2    16.839359    31.335612     5.537398
O2    16.827205     3.335269     2.252912
O2    10.279120    24.657080     2.296648
O2    10.282321    52.681070     5.513808
O2     1.254382    24.671657     5.524821
O2     1.248395    52.677528     2.256252
O2    12.145639    19.951009     4.196730
O2    12.134520    47.989690     0.927486
O2     3.103172    19.978577     0.911336
O2     3.097180    47.992712     4.185756
O2     5.954724    36.017170     4.195243
O2     5.938663     8.018512     0.914775
O2    14.991563    36.017280     0.937198
O2    14.977917     8.023818     4.172100
O2    10.471669    33.985868     5.827303
O2    10.458194     5.986652     2.538017
O2     1.437506    33.983924     2.565665
O2     1.421578     5.988805     5.801320
O2    16.649384    50.027564     5.813428
O2    16.662843    22.040753     2.553357
O2     7.615972    50.024614     2.555050
O2     7.624811    22.017397     5.820309
O2    10.287839    43.337046     2.349578
O2    10.270898    15.332252     5.589377
O2     1.250674    43.340140     5.607124
O2     1.240113    15.341063     2.310889
O2     7.792031    12.675311     2.337444
O2     7.799715    40.672575     5.611238
O2    16.824941    12.677375     5.601161
O2    16.837463    40.671055     2.354189
O2     3.278544    29.331820     3.984129
O2     3.270837     1.330686     0.710037
O2    12.324687    29.327356     0.741163
O2    12.304101     1.336513     3.967374
O2    14.796469    26.664885     4.009485
O2    14.806478    54.676631     0.710988
O2     5.776948    26.664657     0.732255
O2     5.769517    54.679608     3.968390
O2     1.718803    18.129087     1.868058
O2     1.737714    46.129605     5.154516
O2    10.756164    18.129159     5.182715
O2    10.775189    46.126522     1.896407
O2     7.299438     9.887170     1.869493
O2     7.313528    37.882980     5.159244
O2    16.335792     9.889636     5.138490
O2    16.351260    37.882439     1.900285
O2     2.796629    32.120721     3.533617
O2     2.784047     4.118966     0.253888
O2    11.834154    32.115743     0.279179
O2    11.817511     4.125627     3.511033
O2    15.299155    23.888057     3.540680
O2    15.293493    51.886440     0.261680
O2     6.267572    23.877307     0.266018
O2     6.256101    51.889473     3.519822
O2    16.074178    47.239670     5.130235
O2    16.066840    19.304249     1.778643
O2     7.040544    47.236486     1.872215
O2     7.045707    19.235673     5.128095
O2    11.048168    36.773829     5.142502
O2    11.032941     8.776513     1.859776
O2     2.013964    36.772353     1.884318
O2     2.000733     8.779238     5.123701
O2     6.530336    33.228930     3.512923
O2     6.518213     5.230044     0.234612
O2    15.568800    33.227819     0.261753
O2    15.551477     5.235271     3.490934
O2    11.562981    22.749229     3.521236
O2    11.559223    50.776870     0.240008
O2     2.535706    22.771579     0.250336
O2     2.521875    50.779623     3.497954
O2     6.326782    14.566175     3.289006
O2     6.341041    42.557090     0.055998
O2    15.364393    14.597819     6.499468
O2    15.373977    42.560566     3.315132
O2    11.749791    41.447586     3.312636
O2    11.754258    13.459169     0.046893
O2     2.716673    41.444591     0.053647
O2     2.700846    13.454543     3.291211
O2     7.237120    28.550912     1.702394
O2     7.217210     0.560309     4.927631
O2    16.265074    28.560870     4.945082
O2    16.254355     0.557383     1.670227
O2    10.862218    27.434693     1.698668
O2    10.856048    55.459056     4.932306
O2     1.817688    27.448953     4.960022
O2     1.821641    55.455061     1.675211
O2     3.769727    15.888157     3.040597
O2     3.782017    43.885476     6.320196
O2    12.786914    15.917954     6.319792
O2    12.818939    43.882601     3.063049
O2     5.255913    12.131084     3.040936
O2     5.268282    40.127987     6.324417
O2    14.303268    12.142635     6.345111
O2    14.305734    40.125325     3.067160
O2     9.792177    29.871355     1.449750
O2     9.772476     1.882520     4.679652
O2     0.750094    29.882446     4.706388
O2     0.739048     1.878794     1.422593
O2     8.307185    26.117054     1.448596
O2     8.300747    54.135934     4.682382
O2    17.333772    26.123847     4.708621
O2    17.337355    54.132588     1.425248
O2     9.529031    20.438472     4.576252
O2     9.518033    48.438259     1.324427
O2     0.502034    20.467356     1.313743
O2     0.480685    48.441443     4.582693
O2     8.570856    35.569710     4.593835
O2     8.556542     7.573209     1.302871
O2    17.607505    35.568917     1.334792
O2    17.593854     7.576802     4.572879
O2     4.053948    34.431938     2.962203
O2     4.037296     6.436388     6.197977
O2    13.087524    34.434085     6.225417
O2    13.073768     6.438050     2.940984
O2    14.059127    21.567670     3.001947
O2    14.033139    49.579039     6.211134
O2     5.008107    21.570245     6.218702
O2     4.999864    49.575938     2.953048
O2     8.269778    16.919472     4.627682
O2     8.283594    44.920313     1.383759
O2    17.278604    16.938309     1.390695
O2    17.316975    44.923290     4.642151
O2     9.805379    39.088147     4.646738
O2     9.792008    11.088683     1.355873
O2     0.772095    39.086770     1.387186
O2     0.756008    11.091505     4.622615
O2     5.289514    30.911906     3.023952
O2     5.272697     2.920164     6.259085
O2    14.322409    30.918682     6.284155
O2    14.309670     2.919208     2.999816
O2    12.801687    25.068863     3.021623
O2    12.798627    53.097642     6.262724
O2     3.772779    25.090749     6.266534
O2     3.764940    53.094637     3.004888
O2     7.666444    18.510029     2.627920
O2     7.669717    46.504029     5.891963
O2    16.698072    18.462169     5.853995
O2    16.707369    46.500565     2.633793
O2    10.416847    37.504081     2.643810
O2    10.388310     9.497342     5.876179
O2     1.379080    37.506923     5.901468
O2     1.372041     9.502985     2.623100
O2    14.934851    32.500486     4.279523
O2    14.923054     4.497817     0.993205
O2     5.898639    32.489388     1.016043
O2     5.883034     4.500610     4.253043
O2    12.188267    51.514958     4.258421
O2    12.165235    23.489258     1.020859
O2     3.154761    51.512586     1.000182
O2     3.159800    23.502547     4.266949
O2    10.337468    18.847098     2.615851
O2    10.334578    46.884243     5.868022
O2     1.285818    18.904749     5.845567
O2     1.301144    46.881334     2.609923
O2     7.751773    37.123685     2.616274
O2     7.724066     9.127346     5.841263
O2    16.784752    37.128425     5.873273
O2    16.776865     9.129830     2.595193
O2    12.269103    32.876332     4.250985
O2    12.258213     4.877003     0.966578
O2     3.234119    32.872416     0.988830
O2     3.217566     4.876850     4.225016
O2     5.825744    23.119999     4.238985
O2     5.819667    51.131734     0.976651
O2    14.833087    23.124885     1.003354
O2    14.853242    51.134560     4.234737
O2     3.229673    14.415903     0.902511
O2     3.230264    42.418178     4.180171
O2    12.265355    14.431753     4.174185
O2    12.267619    42.415314     0.922916
O2     5.818453    13.591166     0.899128
O2     5.820621    41.592713     4.183074
O2    14.833318    13.536259     4.154554
O2    14.857999    41.590112     0.925801
O2    10.345517    28.412520     5.825807
O2    10.324788     0.412664     2.541463
O2     1.290423    28.405590     2.569806
O2     1.286755     0.414813     5.800538
O2     7.753880    27.593931     5.827192
O2     7.748861    55.598227     2.539371
O2    16.772349    27.571869     2.560301
O2    16.781736    55.600981     5.798395
O1     5.093047    17.859343     0.499343
H      5.095596    16.988001     0.051848
H      5.479802    18.472261     6.353506
O1     5.098619    45.869589     3.766204
H      5.105770    44.995787     3.323785
H      5.501492    46.471329     3.106484
O1    14.136225    45.866943     0.508532
H     14.143560    44.993018     0.066364
H     14.534978    46.474632     6.364950
O1     3.940972    10.140424     0.489412
H      3.937221    11.011724     0.042138
H      3.532416     9.542344     6.349246
O1     3.953398    38.141078     3.771611
H      3.946820    39.014101     3.327577
H      3.548955    37.538550     3.113640
O1    12.947058    10.120256     3.764863
H     12.924339    10.994845     3.324031
H     12.534501     9.516995     3.113024
O1    12.990995    38.139088     0.514790
H     12.984234    39.012083     0.070718
H     12.584086    37.542205     6.372554
O1     8.468991    31.866225     5.409276
H      8.463817    30.992926     4.965866
H      8.066485    32.468218     4.749589
O1     8.457389     3.864477     2.125117
H      8.451365     2.990764     1.682508
H      8.054844     4.466088     1.465091
O1    17.509075    31.857434     2.151214
H     17.499670    30.982973     1.710149
H     17.107536    32.459280     1.490743
O1    17.492205     3.866951     5.384337
H     17.485738     2.993372     4.941483
H     17.090475     4.469105     4.724302
O1     9.617254    24.137739     5.405752
H      9.626027    25.010521     4.961436
H     10.013753    23.532258     4.745881
O1     9.617508    52.147591     2.130387
H      9.624979    53.020906     1.686940
H     10.021841    51.545298     1.472138
O1     0.610728    24.134507     2.150422
H      0.615794    25.005920     1.703512
H      1.014652    23.529657     1.494298
O1     0.580067    52.150093     5.389037
H      0.587651    53.023537     4.945847
H      0.984250    51.547923     4.730594
O1    12.958266    47.473666     4.447534
H     12.206035    47.406723     5.069874
H     13.583154    48.070539     4.908804
O1    13.143164    19.495439     1.395078
H     12.469159    19.544319     2.099010
H     13.943295    19.867139     1.822569
O1     3.924897    47.470504     1.189125
H      3.172576    47.403622     1.811370
H      4.549741    48.067382     1.650459
O1     3.913916    19.469613     4.433633
H      3.158304    19.405254     5.052331
H      4.535493    20.069471     4.895204
O1    14.164117    36.537955     4.454771
H     14.916653    36.605287     5.076704
H     13.537686    35.944658     4.918480
O1    14.154155     8.542131     1.174568
H     14.903948     8.613325     1.799351
H     13.525569     7.952157     1.639555
O1     5.132028    36.534154     1.195129
H      5.884693    36.602185     1.816856
H      4.505715    35.941283     1.659559
O1     5.111999     8.538684     4.427401
H      5.866678     8.604798     5.046857
H      4.486167     7.946302     4.893044
O1     9.648550    33.464668     2.830642
H     10.401155    33.398957     3.452646
H      9.023208    34.061060     3.291885
O1     9.628001     5.472560     6.063198
H     10.381863     5.399425     0.172057
H      9.005041     6.062749     0.006112
O1     0.606024    33.470614     6.089333
H      1.361434    33.398211     0.196386
H     18.054277    34.059355     0.034374
O1     0.596058     5.469551     2.807334
H      1.347748     5.402362     3.430259
H     18.041947     6.066307     3.268369
O1     8.445597    22.528124     2.820336
H      7.690358    22.594052     3.439198
H      9.075437    21.942965     3.289579
O1     8.437856    50.548078     6.071231
H      7.689265    50.610655     0.176684
H      9.067336    49.947881     0.018908
O1    17.492195    22.551923     6.087763
H     16.751666    22.611131     0.203009
H      0.063385    21.962510     0.032140
O1    17.475172    50.544760     2.813255
H     16.722579    50.613318     3.435023
H      0.029775    49.950808     3.277258

