179
-4831.9595624819
Si     0.000015     0.081897     0.000000
Si     0.010279     9.389871     3.240844
Si     4.590635     4.770294     1.603846
Si     4.617083    13.986299     4.874455
Si     9.215723     0.088184     3.261559
Si     9.216496     9.378181     6.496525
Si    13.785369     4.741670     4.881946
Si    13.774076    14.027174     1.624832
Si     2.831875     3.962912     4.034099
Si     2.817695    13.251246     0.790292
Si     7.420173     0.856624     5.694998
Si     7.416437    10.143209     2.403608
Si    11.996020     3.976962     0.790101
Si    11.989542    13.271372     4.051991
Si    16.572569     0.843716     2.430500
Si    16.577597    10.144207     5.672619
Si     1.651557     8.593340     5.662632
Si     1.640924    17.884495     2.433065
Si     6.244711     5.536253     4.029907
Si     6.227496    14.825839     0.775020
Si    10.834554     8.595823     2.401388
Si    10.838416    17.894965     5.691980
Si    15.413739     5.522329     0.786876
Si    15.405174    14.821288     4.052818
Al     0.681816     1.752035     4.038148
Al     0.658562    11.062529     0.761168
Al     5.264428     3.063834     5.637639
Al     5.261207    12.334745     2.385532
Al     9.854068     1.771710     0.769576
Al     9.845631    11.065535     4.016860
Al    14.427699     3.054856     2.401597
Al    14.424913    12.346065     5.663763
Al     3.808222     6.402830     5.637856
Al     3.802396    15.687426     2.388396
Al     8.408953     7.719177     4.010198
Al     8.377257    17.037270     0.781521
Al    12.987300     6.401908     2.396679
Al    12.980229    15.692938     5.662744
Al    17.558828     7.717951     0.755945
Al    17.550678    17.023888     4.037332
Ca     4.276812     0.347523     4.001184
Ca     4.206531     9.680814     0.753981
Ca     8.801829     4.406270     5.641185
Ca     8.800031    13.694361     2.360049
Ca    13.399708     0.410836     0.752011
Ca    13.394897     9.704280     4.010565
Ca    17.982175     4.391396     2.379502
Ca    17.971617    13.709233     5.648169
O2     0.319797     1.418998     5.689338
O2     0.301658    10.733796     2.411776
O2     4.885092     3.444111     0.753402
O2     4.929003    12.647518     4.048727
O2     9.526407     1.415897     2.421689
O2     9.499737    10.724656     5.667550
O2    14.070743     3.400154     4.048254
O2    14.064604    12.682932     0.796012
O2     4.319008     6.051366     0.712593
O2     4.373718    15.252148     3.952845
O2     8.955531     8.110704     5.586948
O2     8.873678    17.424124     2.383179
O2    13.524729     6.014519     3.977925
O2    13.511326    15.292848     0.714257
O2    18.096893     8.121286     2.331640
O2    18.086015    17.422461     5.615307
O2     1.342345     3.358580     3.826274
O2     1.325730    12.665675     0.563823
O2     5.942221     1.466929     5.479859
O2     5.927015    10.734477     2.174585
O2    10.506767     3.378818     0.574658
O2    10.496984    12.677820     3.828798
O2    15.082770     1.446787     2.218451
O2    15.085853    10.741254     5.462044
O2     3.160164     8.020523     5.709186
O2     3.137914    17.289997     2.478832
O2     7.755073     6.107094     4.093177
O2     7.730792    15.415955     0.851560
O2    12.342179     8.020975     2.475641
O2    12.340985    17.311235     5.762592
O2    16.920582     6.098066     0.848332
O2    16.909272    15.402647     4.124307
O2     1.780304     0.553519     3.425952
O2     1.772287     9.874368     0.147927
O2     6.384538     4.244037     5.014733
O2     6.365012    13.529935     1.759292
O2    10.962485     0.583739     0.146422
O2    10.960987     9.885089     3.393928
O2    15.546659     4.234321     1.779755
O2    15.536687    13.534164     5.046847
O2     2.734217     5.164728     5.077575
O2     2.721002    14.454358     1.825248
O2     7.322766     8.948751     3.451105
O2     7.310863    18.267700     0.206555
O2    11.900034     5.175098     1.834533
O2    11.885831    14.474264     5.090897
O2    16.469711     8.941704     0.187089
O2    16.465229    18.246152     3.459544
O2     3.869163     2.829280     4.580979
O2     3.843712    12.108146     1.351267
O2     8.459363     1.993161     6.248795
O2     8.438111    11.294175     2.964265
O2    13.023969     2.831747     1.345169
O2    13.014069    12.128267     4.615398
O2    17.608574     1.976735     2.991792
O2    17.607444    11.286225     6.231039
O2     0.545852     7.563742     6.150968
O2     0.524443    16.862032     2.917865
O2     5.138585     6.559272     4.533448
O2     5.106220    15.834516     1.254110
O2     9.723006     7.570549     2.885560
O2     9.721720    16.883957     6.196175
O2    14.304639     6.548279     1.276845
O2    14.289954    15.843891     4.534627
O2     3.308087     4.504453     2.579169
O2     3.338389    13.749789     5.851359
O2     7.935348     0.335356     4.240935
O2     7.918758     9.621476     0.954632
O2    12.498098     4.497379     5.856319
O2    12.483194    13.785394     2.596285
O2    17.046565     0.337249     0.964974
O2    17.060192     9.632716     4.211614
O2     1.358060     9.106819     4.144997
O2     1.339709    18.396021     0.912845
O2     5.945346     5.056003     2.501672
O2     5.972360    14.336343     5.756691
O2    10.554620     9.093205     0.873803
O2    10.561848    18.371305     4.154430
O2    15.136708     5.023855     5.782291
O2    15.122227    14.319306     2.527198
O1     0.691657    13.265466     3.717599
H      0.686309    12.378018     3.302088
H      1.151374    13.830268     3.063151
O1     0.707017     3.953164     0.455422
H      0.712320     3.061858     0.048405
H      1.206563     4.506884     6.333493
O1     5.312710    10.117720     5.357090
H      5.304231    10.997995     4.927309
H      5.802126     9.552789     4.724729
O1     5.159875     0.971696     2.024884
H      5.146060     1.867046     1.634104
H      5.626500     0.422997     1.362123
O1     9.846271    13.279396     0.422846
H      9.866993    12.389877     0.012276
H     10.356380    13.840576     6.315431
O1     9.891998     3.969482     3.724153
H      9.907281     3.082551     3.308545
H     10.374211     4.536644     3.088184
O1    14.448076     0.854693     5.336047
H     14.451659     1.744947     4.926943
H     14.920901     0.293835     4.687704
O1    14.459828    10.148966     2.087183
H     14.463421    11.037101     1.673668
H     14.932776     9.584894     1.441766
O1     3.944027     8.648453     2.745763
H      3.151903     8.725215     3.315626
H      4.529518     8.050483     3.254098
O1     3.856475    18.034824     6.050108
H      3.041558    18.139271     0.080763
H      4.403918    17.425714     0.047274
O1     8.464151    14.839222     4.313275
H      7.739272    14.650827     4.943820
H      9.051410    15.438945     4.818882
O1     8.523021     5.481937     1.094111
H      7.722359     5.422582     1.654317
H      9.112470     6.074033     1.604834
O1    13.133788     8.633117     5.986439
H     12.325535     8.705024     0.034613
H     13.720287     8.031743     6.489680
O1    13.122083    17.939520     2.726928
H     12.337193    18.018924     3.306415
H     13.706227    17.330199     3.223694
O1    17.704860     5.465976     4.355764
H     16.909303     5.394669     4.921739
H     18.290916     6.061932     4.866039
O1    17.690308    14.778421     1.109006
H     16.897007    14.701750     1.677492
H     18.262575    15.399089     1.605481
O1     5.909305    17.305711     3.917692
H      5.813215    16.404992     4.284139
H      6.846156    17.356640     3.645621

