157
-4760.2358728936
Si    -0.000117     0.081615     0.000000
Si     0.005407     9.357721     3.307513
Si     4.556900     4.718034     1.650796
Si     4.513678    14.021733     4.877135
Si     9.116349     0.073751     3.205452
Si     9.127285     9.369839     0.014587
Si    13.672979     4.719844     4.919816
Si    13.666648    14.049753     1.637553
Si     2.790785     3.984786     4.081366
Si     2.792512    13.292895     0.777178
Si     7.366726     0.818614     5.623724
Si     7.349935    10.125276     2.443914
Si    11.918269     3.965929     0.816280
Si    11.927672    13.261193     4.062458
Si    16.457428     0.789591     2.422578
Si    16.438622    10.075410     5.740888
Si     1.646006     8.591651     5.746412
Si     1.706301    17.892277     2.438194
Si     6.193986     5.487663     4.091272
Si     6.243240    14.785477     0.788966
Si    10.755381     8.574508     2.447807
Si    10.796694    17.857853     5.639147
Si    15.318942     5.472621     0.829736
Si    15.388360    14.726648     4.066343
Al     0.691182     1.748766     4.042418
Al     0.663998    11.060822     0.850961
Al     5.213000     3.022965     5.715406
Al     5.228584    12.353821     2.391704
Al     9.795189     1.754275     0.722226
Al     9.778335    11.044031     4.072021
Al    14.319534     3.007401     2.458645
Al    14.363209    12.321823     5.677568
Al     3.788213     6.393647     5.705932
Al     3.839086    15.731321     2.388098
Al     8.325728     7.695553     4.050136
Al     8.405604    16.939053     0.706625
Al    12.904873     6.376835     2.443077
Al    12.944975    15.688007     5.675327
Al    17.456498     7.679124     0.826729
Al    17.508190    16.909178     4.037908
Ca     4.333176     0.614485     3.713617
Ca     4.218544     9.713911     0.775658
Ca     8.765836     4.403864     5.656888
Ca     8.792471    13.671543     2.376446
Ca    13.405774     0.520907     0.570765
Ca    13.297961     9.685997     4.056597
Ca    17.859372     4.371329     2.413776
Ca    17.988107    13.462259     5.367355
O2     0.315331     1.385115     5.673362
O2     0.260298    10.709167     2.482426
O2     4.820444     3.371197     0.820079
O2     4.838451    12.701510     4.025129
O2     9.417972     1.400962     2.356999
O2     9.418680    10.696642     5.718204
O2    13.916456     3.380899     4.079637
O2    13.979611    12.743042     0.761280
O2     4.338872     6.002982     0.753475
O2     4.252953    15.311232     4.002285
O2     8.855599     8.088069     5.632100
O2     8.859882    17.335126     2.315598
O2    13.440885     6.010826     4.031913
O2    13.373190    15.350109     0.777993
O2    17.993170     8.073851     2.406669
O2    17.898426    17.329431     5.653959
O2     1.299910     3.384330     3.886351
O2     1.287932    12.684612     0.579050
O2     5.854410     1.406875     5.426595
O2     5.860119    10.728077     2.227688
O2    10.430161     3.376857     0.580425
O2    10.436452    12.649486     3.889160
O2    14.940317     1.375560     2.233569
O2    14.947307    10.675300     5.552737
O2     3.156958     8.018826     5.790367
O2     3.259224    17.396025     2.451770
O2     7.701056     6.067053     4.133707
O2     7.774446    15.311282     0.754163
O2    12.261192     7.994230     2.506633
O2    12.343813    17.348897     5.701172
O2    16.826102     6.052732     0.902076
O2    16.930092    15.248684     4.115010
O2     1.898437     0.672068     3.388838
O2     1.790623     9.880157     0.232383
O2     6.331114     4.213508     5.105714
O2     6.396707    13.484650     1.771244
O2    10.968302     0.619158     0.103949
O2    10.890661     9.855307     3.450678
O2    15.443556     4.182222     1.826145
O2    15.571289    13.382973     4.995141
O2     2.703090     5.170735     5.133610
O2     2.772622    14.539652     1.741721
O2     7.237464     8.913194     3.470965
O2     7.363871    18.155853     0.082917
O2    11.827780     5.133282     1.892085
O2    11.844594    14.487455     5.076297
O2    16.368379     8.900866     0.260274
O2    16.430087    18.078756     3.370786
O2     3.846651     2.837673     4.594168
O2     3.822253    12.148656     1.330928
O2     8.388061     1.971955     6.176892
O2     8.382698    11.255601     3.008546
O2    12.953685     2.800943     1.333701
O2    12.967076    12.126559     4.611941
O2    17.476930     1.939199     2.987529
O2    17.488650    11.226288     6.253927
O2     0.553536     7.544156     6.224604
O2     0.726846    16.833924     3.067821
O2     5.096163     6.527381     4.573623
O2     5.234191    15.834971     1.388850
O2     9.646868     7.546609     2.933972
O2     9.770304    16.779030     6.185741
O2    14.214418     6.503551     1.313737
O2    14.351692    15.730924     4.695726
O2     3.249197     4.495266     2.611094
O2     3.175954    13.704238     5.781111
O2     7.771453     0.369385     4.106962
O2     7.832776     9.613278     0.981090
O2    12.381444     4.501118     5.899435
O2    12.360703    13.746237     2.577981
O2    16.851938     0.396431     0.890369
O2    16.895660     9.567510     4.268643
O2     1.348186     9.116839     4.233554
O2     1.262761    18.385000     0.968054
O2     5.897644     4.961359     2.578148
O2     5.824859    14.273044     5.826981
O2    10.469386     9.075824     0.925075
O2    10.394829    18.378499     4.163433
O2    15.026530     4.964077     5.831825
O2    14.991276    14.287596     2.564303
O1     0.685930     3.932325     0.467468
H      0.678936     3.048052     0.045657
H      1.105605     4.493869     6.335056
O1     5.220115    10.164395     5.354383
H      5.208384    11.051012     4.937361
H      5.671756     9.598551     4.695327
O1     9.892927    13.233634     0.480875
H      9.890400    12.353932     0.050833
H     10.356646    13.794427     6.379115
O1     9.791113     3.934292     3.715066
H      9.763770     3.056805     3.280212
H     10.267335     4.500957     3.074291
O1    14.290153    10.177895     2.100873
H     14.276703    11.068523     1.692653
H     14.720275     9.613612     1.426199
O1     3.922683     8.630437     2.759773
H      3.141347     8.716472     3.343235
H      4.505266     8.017176     3.253504
O1     8.552023    14.709059     4.386333
H      7.781108    14.648649     4.986057
H      9.195665    15.236718     4.902859
O1     8.473534     5.465699     1.124026
H      7.687086     5.364824     1.698212
H      9.043665     6.078580     1.632337
O1    13.018821     8.588592     6.026392
H     12.249992     8.690989     0.077652
H     13.589952     7.958968     6.512279
O1    17.575925     5.464670     4.388745
H     16.794292     5.373711     4.970952
H     18.151557     6.085820     4.880240

