125
-4658.1468700138
Si     0.000000     0.081406     0.000000
Si    -0.099027     9.332091     3.268273
Si     4.406971     4.717985     1.634175
Si     4.307889    13.968694     4.902426
Si     8.813930     0.081408     3.268273
Si     8.913016     9.332141     0.000004
Si    13.220908     4.718001     4.902400
Si    13.320029    13.968681     1.634095
Si     2.679498     4.055282     4.024225
Si     2.778595    13.305992     0.755925
Si     7.086459     0.744090     5.658329
Si     7.185541     9.994798     2.390063
Si    11.691616     4.055270     0.755897
Si    11.592545    13.305962     4.024139
Si    16.098600     0.744134     2.390053
Si    15.999530     9.994808     5.658324
Si     1.619493     8.630403     5.777004
Si     1.718587    17.881094     2.508739
Si     6.125530     5.419682     4.142921
Si     6.224635    14.670393     0.874621
Si    10.631559     8.630380     2.508745
Si    10.532514    17.881061     5.777013
Si    15.137640     5.419730     0.874593
Si    15.038586    14.670404     4.142838
Al     0.644850     1.764270     4.097337
Al     0.743947    11.014978     0.829057
Al     5.051821     3.035112     5.731501
Al     5.150914    12.285830     2.463204
Al     9.656959     1.764258     0.829060
Al     9.557871    11.014958     4.097343
Al    14.063944     3.035147     2.463175
Al    13.964882    12.285830     5.731412
Al     3.737022     6.481820     5.680148
Al     3.836121    15.732536     2.411848
Al     8.243060     7.568247     4.045969
Al     8.342181    16.818938     0.777686
Al    12.749108     6.481829     2.411821
Al    12.650058    15.732511     5.680063
Al    17.255191     7.568289     0.777687
Al    17.156133    16.818959     4.045963
Ca     4.364779     0.755827     3.529036
Ca     4.463873    10.006517     0.260782
Ca     8.771762     4.043536     5.163145
Ca     8.870855    13.294218     1.894836
Ca    13.376885     0.755779     0.260799
Ca    13.277787    10.006468     3.529029
Ca    -0.042219     4.043637     1.894967
Ca    -0.141260    13.294291     5.163176
O2     0.135240     1.408415     5.694791
O2     0.234333    10.659140     2.426516
O2     4.740398     3.390952     0.792420
O2     4.641312    12.641666     4.060665
O2     9.147354     1.408456     2.426535
O2     9.048262    10.659181     5.694828
O2    13.554336     3.390980     4.060635
O2    13.653469    12.641649     0.792340
O2     4.227932     6.020143     0.769035
O2     4.128851    15.270857     4.037293
O2     8.535833     8.029979     5.671390
O2     8.634937    17.280645     2.403117
O2    13.041858     6.020164     4.037268
O2    13.140980    15.270835     0.768948
O2    17.548024     8.029927     2.403131
O2    17.448873    17.280608     5.671416
O2     1.184996     3.423769     3.879259
O2     1.284097    12.674473     0.610961
O2     5.591964     1.375618     5.513377
O2     5.691047    10.626330     2.245107
O2    10.197122     3.423744     0.610929
O2    10.098049    12.674438     3.879177
O2    14.604100     1.375653     2.245081
O2    14.505038    10.626340     5.513319
O2     3.181258     8.162059     5.697530
O2     3.280354    17.412776     2.429207
O2     7.687296     5.888001     4.063374
O2     7.786404    15.138700     0.795069
O2    12.193320     8.162058     2.429185
O2    12.094281    17.412747     5.697460
O2    16.699404     5.888056     0.795063
O2    16.600353    15.138722     4.063309
O2     1.889096     0.702516     3.468822
O2     1.988189     9.953211     0.200556
O2     6.296069     4.096873     5.102998
O2     6.395171    13.347578     1.834691
O2    10.901201     0.702479     0.200575
O2    10.802100     9.953154     3.468874
O2    15.308182     4.096925     1.834680
O2    15.209123    13.347599     5.102923
O2     2.689744     5.320376     4.955313
O2     2.788848    14.571082     1.687017
O2     7.195776     8.729690     3.321132
O2     7.294905    17.980389     0.052853
O2    11.701854     5.320353     1.687000
O2    11.602789    14.571059     4.955224
O2    16.207873     8.729782     0.052953
O2    16.108866    17.980432     3.321153
O2     3.742624     2.923443     4.538436
O2     3.841724    12.174153     1.270134
O2     8.149593     1.875918     6.172545
O2     8.248675    11.126623     2.904281
O2    12.754751     2.923439     1.270105
O2    12.655676    12.174133     4.538362
O2    17.161724     1.875975     2.904266
O2    17.062661    11.126645     6.172525
O2     0.699093     7.526673     6.417229
O2     0.798258    16.777352     3.149033
O2     5.205212     6.523431     4.783218
O2     5.304319    15.774139     1.514929
O2     9.711227     7.526613     3.148998
O2     9.612190    16.777302     6.417288
O2    14.217303     6.523465     1.514892
O2    14.118248    15.774141     4.783131
O2     2.989679     4.401321     2.444406
O2     2.890597    13.652019     5.712657
O2     7.396633     0.398068     4.078502
O2     7.495714     9.648784     0.810233
O2    11.803619     4.401314     5.712634
O2    11.902737    13.651996     2.444321
O2    16.408778     0.398072     0.810242
O2    16.309755     9.648690     4.078541
O2     1.103271     9.165233     4.345962
O2     1.202277    18.415899     1.077728
O2     5.609212     4.884874     2.711913
O2     5.510130    14.135578     5.980165
O2    10.115245     9.165255     1.077755
O2    10.016193    18.415905     4.346019
O2    14.423154     4.884902     5.980135
O2    14.522273    14.135592     2.711829

