166
-4790.9791619567
Si    -0.000073     0.081681     0.000000
Si     0.017174     9.401716     3.255358
Si     4.551849     4.751238     1.637886
Si     4.556816    14.051419     4.884766
Si     9.119531     0.106414     3.221369
Si     9.124950     9.384078     6.521054
Si    13.720577     4.747957     4.883704
Si    13.694608    14.036466     1.598023
Si     2.788205     4.010741     4.074163
Si     2.782446    13.307380     0.789396
Si     7.355790     0.848827     5.650757
Si     7.344384    10.138200     2.425383
Si    11.934065     3.970361     0.783957
Si    11.935750    13.265965     4.023691
Si    16.519439     0.853500     2.424075
Si    16.506027    10.152348     5.684945
Si     1.646517     8.622915     5.687106
Si     1.678290    17.923115     2.424721
Si     6.199316     5.513376     4.070505
Si     6.219594    14.792370     0.787343
Si    10.759004     8.589925     2.421655
Si    10.771076    17.871686     5.656436
Si    15.343625     5.531769     0.785573
Si    15.363790    14.808734     4.017620
Al     0.682535     1.786441     4.035452
Al     0.648106    11.089650     0.776400
Al     5.210407     3.056639     5.700091
Al     5.212477    12.356516     2.401739
Al     9.777557     1.769403     0.736221
Al     9.782026    11.059386     4.039349
Al    14.363195     3.056746     2.405046
Al    14.366152    12.355824     5.641194
Al     3.794135     6.424332     5.689132
Al     3.803276    15.728741     2.399152
Al     8.335751     7.713538     4.033187
Al     8.361711    16.976317     0.733292
Al    12.912987     6.399402     2.393483
Al    12.935537    15.698711     5.630802
Al    17.493701     7.730874     0.771376
Al    17.518242    16.992673     4.038756
Ca     4.269648     0.583220     3.809696
Ca     4.193683     9.723496     0.758073
Ca     8.774720     4.421240     5.640608
Ca     8.775827    13.685016     2.361711
Ca    13.344393     0.413812     0.742466
Ca    13.321126     9.711143     4.009258
Ca    17.892206     4.411837     2.393846
Ca    17.930498    13.641532     5.515709
O2     0.312632     1.404105     5.665049
O2     0.308947    10.748319     2.428044
O2     4.806958     3.409451     0.801281
O2     4.846799    12.716271     4.041323
O2     9.421397     1.443291     2.386222
O2     9.428690    10.722926     5.689378
O2    14.014103     3.407217     4.052647
O2    13.987570    12.701629     0.753651
O2     4.321277     6.039234     0.745503
O2     4.287393    15.331384     3.997177
O2     8.865839     8.114317     5.612899
O2     8.858524    17.394585     2.321133
O2    13.453239     6.015519     3.974819
O2    13.436228    15.315094     0.697529
O2    18.036972     8.134229     2.345739
O2    17.984991    17.359293     5.652525
O2     1.295182     3.418229     3.880894
O2     1.274102    12.719251     0.585628
O2     5.845109     1.433733     5.429602
O2     5.849621    10.735409     2.222964
O2    10.445258     3.374859     0.549384
O2    10.443626    12.662810     3.836209
O2    15.025093     1.451724     2.232465
O2    15.016118    10.741192     5.465144
O2     3.153724     8.046066     5.759931
O2     3.213074    17.382979     2.497707
O2     7.708856     6.086503     4.120559
O2     7.736104    15.351254     0.821543
O2    12.267731     8.016462     2.474711
O2    12.292073    17.323810     5.683043
O2    16.849782     6.113131     0.858960
O2    16.881169    15.366164     4.116631
O2     1.870959     0.688282     3.375708
O2     1.765957     9.913642     0.148036
O2     6.332469     4.233604     5.076433
O2     6.367404    13.488026     1.762208
O2    10.899747     0.585085     0.132938
O2    10.895911     9.872980     3.420369
O2    15.474956     4.242472     1.777800
O2    15.504757    13.517993     5.018635
O2     2.710349     5.194293     5.130923
O2     2.699267    14.517647     1.818160
O2     7.244088     8.926853     3.453364
O2     7.306181    18.187769     0.117379
O2    11.829508     5.169184     1.827665
O2    11.855199    14.471618     5.058993
O2    16.408046     8.955229     0.202478
O2    16.425504    18.205447     3.452262
O2     3.832342     2.853691     4.593953
O2     3.796642    12.154348     1.351935
O2     8.374720     2.002732     6.208446
O2     8.377860    11.271476     2.985958
O2    12.961581     2.829573     1.345866
O2    12.971067    12.126367     4.576279
O2    17.556612     1.993260     2.975251
O2    17.531455    11.306192     6.239120
O2     0.539070     7.594907     6.173204
O2     0.625236    16.911848     3.017108
O2     5.103441     6.553121     4.558520
O2     5.148711    15.807794     1.337358
O2     9.655397     7.560935     2.915991
O2     9.707664    16.809731     6.165507
O2    14.229995     6.552905     1.273190
O2    14.270403    15.840583     4.532302
O2     3.253685     4.527087     2.609871
O2     3.256239    13.790534     5.844211
O2     7.795446     0.387685     4.149572
O2     7.823428     9.631188     0.959676
O2    12.437038     4.501358     5.861505
O2    12.389625    13.774730     2.552138
O2    16.972382     0.363546     0.947826
O2    17.004889     9.642073     4.229373
O2     1.365721     9.117531     4.159586
O2     1.313378    18.394015     0.922022
O2     5.900804     5.000372     2.553070
O2     5.901293    14.310477     5.793972
O2    10.461829     9.090958     0.900569
O2    10.430481    18.392855     4.152128
O2    15.070917     5.043699     5.784358
O2    15.025597    14.298854     2.518238
O1     0.817008    13.260767     3.684189
H      0.891325    12.382195     3.259240
H      1.259412    13.876201     3.064132
O1     0.650858     3.954631     0.455927
H      0.643498     3.066331     0.042491
H      1.118128     4.520764     6.328642
O1     5.233712    10.179398     5.347052
H      5.237240    11.069224     4.937094
H      5.682882     9.611848     4.687822
O1     9.860466    13.245720     0.451425
H      9.856957    12.361891     0.029461
H     10.341473    13.817100     6.338819
O1     9.827566     3.968817     3.709097
H      9.813550     3.086653     3.283012
H     10.304336     4.533789     3.067287
O1    14.418095     0.870117     5.352440
H     14.418444     1.754175     4.930732
H     14.898956     0.302721     4.715813
O1    14.368735    10.165319     2.075139
H     14.353456    11.051992     1.658090
H     14.833463     9.603762     1.421686
O1     3.921239     8.642324     2.732559
H      3.135416     8.717431     3.311063
H      4.509406     8.036442     3.228455
O1     8.502433    14.735114     4.358794
H      7.707912    14.668775     4.926846
H      9.104564    15.303800     4.881553
O1     8.475210     5.469953     1.105860
H      7.683197     5.387236     1.675263
H      9.055874     6.071354     1.616059
O1    13.042200     8.646244     5.994864
H     12.242217     8.725281     0.035968
H     13.617975     8.034754     6.498365
O1    13.058518    17.927739     2.730260
H     12.273464    18.004301     3.309503
H     13.658260    17.345471     3.240647
O1    17.622662     5.509884     4.360262
H     16.831973     5.430478     4.932024
H     18.204213     6.116237     4.863015

